rusefi_bundle_mega100/rusefi.snapshot.mega100/console/logs/rusEFI_trigger_log_2024-11-11_00_27_20_014.vcd
$date
	Mon Nov 11 00:27:20 CET 2024
$end
$version
        1.0
$end
$timescale
        1ps
$end
$scope module test $end
$var wire 1 t PRI_TRG $end
$var wire 1 s SEC_TRG $end
$var wire 1 r TRG $end
$var wire 1 y SYNC $end
$var wire 1 c COIL $end
$var wire 1 i INJ $end
$upscope $end
$enddefinitions $end
$dumpvars
#485963490200
0t
0s
0r
1y
0c
0i
#485963491001
1t
0s
0r
1y
0c
0i
#485963491750
0t
0s
0r
1y
0c
0i
#485963492556
1t
0s
0r
1y
0c
0i
#485963493303
0t
0s
0r
1y
0c
0i
#485963494109
1t
0s
0r
1y
0c
0i
#485963494855
0t
0s
0r
1y
0c
0i
#485963495663
1t
0s
0r
1y
0c
0i
#485963496410
0t
0s
0r
1y
0c
0i
#485963497220
1t
0s
0r
1y
0c
0i
#485963497968
0t
0s
0r
1y
0c
0i
#485963498782
1t
0s
0r
1y
0c
0i
#485963499532
0t
0s
0r
1y
0c
0i
#485963500343
1t
0s
0r
1y
0c
0i
#485963501102
0t
0s
0r
1y
0c
0i
#485963501917
1t
0s
0r
1y
0c
0i
#485963502678
0t
0s
0r
1y
1c
0i
#485963503497
1t
0s
0r
1y
1c
0i
#485963504260
0t
0s
0r
1y
1c
1i
#485963505084
1t
0s
0r
1y
1c
1i
#485963505848
0t
0s
0r
1y
1c
1i
#485963506674
1t
0s
0r
1y
0c
0i
#485963507436
0t
0s
0r
1y
0c
0i
#485963508259
1t
0s
0r
1y
0c
0i
#485963509024
0t
0s
0r
1y
0c
0i
#485963509847
1t
0s
0r
1y
0c
0i
#485963510609
0t
0s
0r
1y
0c
0i
#485963511429
1t
0s
0r
1y
0c
0i
#485963512192
0t
0s
0r
1y
0c
0i
#485963513013
1t
0s
0r
1y
0c
0i
#485963513773
0t
0s
0r
1y
0c
0i
#485963514590
1t
0s
0r
1y
0c
0i
#485963515352
0t
0s
0r
1y
0c
0i
#485963516172
1t
0s
0r
1y
0c
0i
#485963516930
0t
0s
0r
1y
0c
0i
#485963517747
1t
0s
0r
1y
0c
0i
#485963518507
0t
0s
0r
1y
0c
0i
#485963519324
1t
0s
0r
1y
0c
0i
#485963520083
0t
0s
0r
1y
0c
0i
#485963520895
1t
0s
0r
1y
0c
0i
#485963521655
0t
0s
0r
1y
0c
0i
#485963522471
1t
0s
0r
1y
0c
0i
#485963523227
0t
0s
0r
1y
0c
0i
#485963524040
1t
0s
0r
1y
0c
0i
#485963524796
0t
0s
0r
1y
0c
0i
#485963525606
1t
0s
0r
1y
0c
0i
#485963526364
0t
0s
0r
1y
0c
0i
#485963527177
1t
0s
0r
1y
0c
0i
#485963527937
0t
0s
0r
1y
0c
0i
#485963528749
1t
0s
0r
1y
0c
0i
#485963529512
0t
0s
0r
1y
0c
0i
#485963530325
1t
0s
0r
1y
0c
0i
#485963531089
0t
0s
0r
1y
0c
0i
#485963531910
1t
0s
0r
1y
0c
0i
#485963532674
0t
0s
0r
1y
0c
0i
#485963533500
1t
0s
0r
1y
0c
0i
#485963534268
0t
0s
0r
1y
1c
0i
#485963535097
1t
0s
0r
1y
1c
0i
#485963535868
0t
0s
0r
1y
1c
1i
#485963536697
1t
0s
0r
1y
1c
1i
#485963537475
0t
0s
0r
1y
1c
1i
#485963538304
1t
0s
0r
1y
0c
1i
#485963539080
0t
0s
0r
1y
0c
0i
#485963539909
1t
0s
0r
1y
0c
0i
#485963540686
0t
0s
0r
1y
0c
0i
#485963541513
1t
0s
0r
1y
0c
0i
#485963542286
0t
0s
0r
1y
0c
0i
#485963543111
1t
0s
0r
1y
0c
0i
#485963543880
0t
0s
0r
1y
0c
0i
#485963544705
1t
0s
0r
1y
0c
0i
#485963545475
0t
0s
0r
1y
0c
0i
#485963546305
1t
0s
0r
1y
0c
0i
#485963547073
0t
0s
0r
1y
0c
0i
#485963547900
1t
0s
0r
1y
0c
0i
#485963548672
0t
0s
0r
1y
0c
0i
#485963549497
1t
0s
0r
1y
0c
0i
#485963550274
0t
0s
0r
1y
0c
0i
#485963551099
1t
0s
0r
1y
0c
0i
#485963551877
0t
0s
0r
1y
0c
0i
#485963552710
1t
0s
0r
1y
0c
0i
#485963553489
0t
0s
0r
1y
0c
0i
#485963554330
1t
0s
0r
1y
0c
0i
#485963555106
0t
0s
0r
1y
0c
0i
#485963555948
1t
0s
0r
1y
0c
0i
#485963556732
0t
0s
0r
1y
0c
0i
#485963557578
1t
0s
0r
1y
0c
0i
#485963558361
0t
0s
0r
1y
0c
0i
#485963559212
1t
0s
0r
1y
0c
0i
#485963559997
0t
0s
0r
1y
0c
0i
#485963560851
1t
0s
0r
1y
0c
0i
#485963561642
0t
0s
0r
1y
0c
0i
#485963562503
1t
0s
0r
1y
0c
0i
#485963563295
0t
0s
0r
1y
0c
0i
#485963564163
1t
0s
0r
1y
0c
0i
#485963564966
0t
0s
0r
1y
0c
0i
#485963565832
1t
0s
0r
1y
0c
0i
#485963566640
0t
0s
0r
1y
1c
0i
#485963567514
1t
0s
0r
1y
1c
0i
#485963568323
0t
0s
0r
1y
1c
1i
#485963569202
1t
0s
0r
1y
1c
1i
#485963570013
0t
0s
0r
1y
1c
1i
#485963570891
1t
0s
0r
1y
0c
0i
#485963571708
0t
0s
0r
1y
0c
0i
#485963572588
1t
0s
0r
1y
0c
0i
#485963573399
0t
0s
0r
1y
0c
0i
#485963574276
1t
0s
0r
1y
0c
0i
#485963575087
0t
0s
0r
1y
0c
0i
#485963575967
1t
0s
0r
1y
0c
0i
#485963579609
0t
0s
0r
1y
0c
0i
#485963581015
1t
0s
0r
1y
0c
0i
#485963581816
0t
0s
0r
1y
0c
0i
#485963582686
1t
0s
0r
1y
0c
0i
#485963583487
0t
0s
0r
1y
0c
0i
#485963584347
1t
0s
0r
1y
0c
0i
#485963585147
0t
0s
0r
1y
0c
0i
#485963586009
1t
0s
0r
1y
0c
0i
#485963586804
0t
0s
0r
1y
0c
0i
#485963587660
1t
0s
0r
1y
0c
0i
#485963588451
0t
0s
0r
1y
0c
0i
#485963589305
1t
0s
0r
1y
0c
0i
#485963590099
0t
0s
0r
1y
0c
0i
#485963590951
1t
0s
0r
1y
0c
0i
#485963591742
0t
0s
0r
1y
0c
0i
#485963592598
1t
0s
0r
1y
0c
0i
#485963593392
0t
0s
0r
1y
0c
0i
#485963594253
1t
0s
0r
1y
0c
0i
#485963595048
0t
0s
0r
1y
0c
0i
#485963595906
1t
0s
0r
1y
0c
0i
#485963596715
0t
0s
0r
1y
0c
0i
#485963597579
1t
0s
0r
1y
0c
0i
#485963598389
0t
0s
0r
1y
0c
0i
#485963599263
1t
0s
0r
1y
0c
0i
#485963600079
0t
0s
0r
1y
1c
0i
#485963600956
1t
0s
0r
1y
1c
0i
#485963601775
0t
0s
0r
1y
1c
1i
#485963602661
1t
0s
0r
1y
1c
1i
#485963603483
0t
0s
0r
1y
1c
1i
#485963604366
1t
0s
0r
1y
0c
1i
#485963605192
0t
0s
0r
1y
0c
0i
#485963606078
1t
0s
0r
1y
0c
0i
#485963606899
0t
0s
0r
1y
0c
0i
#485963607780
1t
0s
0r
1y
0c
0i
#485963608602
0t
0s
0r
1y
0c
0i
#485963609475
1t
0s
0r
1y
0c
0i
#485963610293
0t
0s
0r
1y
0c
0i
#485963611168
1t
0s
0r
1y
0c
0i
#485963611982
0t
0s
0r
1y
0c
0i
#485963612857
1t
0s
0r
1y
0c
0i
#485963613668
0t
0s
0r
1y
0c
0i
#485963614543
1t
0s
0r
1y
0c
0i
#485963615353
0t
0s
0r
1y
0c
0i
#485963616224
1t
0s
0r
1y
0c
0i
#485963617033
0t
0s
0r
1y
0c
0i
#485963617902
1t
0s
0r
1y
0c
0i
#485963618710
0t
0s
0r
1y
0c
0i
#485963619576
1t
0s
0r
1y
0c
0i
#485963620384
0t
0s
0r
1y
0c
0i
#485963621247
1t
0s
0r
1y
0c
0i
#485963622052
0t
0s
0r
1y
0c
0i
#485963622914
1t
0s
0r
1y
0c
0i
#485963623713
0t
0s
0r
1y
0c
0i
#485963624575
1t
0s
0r
1y
0c
0i
#485963625377
0t
0s
0r
1y
0c
0i
#485963626240
1t
0s
0r
1y
0c
0i
#485963627039
0t
0s
0r
1y
0c
0i
#485963627901
1t
0s
0r
1y
0c
0i
#485963628708
0t
0s
0r
1y
0c
0i
#485963629566
1t
0s
0r
1y
0c
0i
#485963630377
0t
0s
0r
1y
0c
0i
#485963631247
1t
0s
0r
1y
0c
0i
#485963632059
0t
0s
0r
1y
0c
0i
#485963632932
1t
0s
0r
1y
0c
0i
#485963633749
0t
0s
0r
1y
0c
0i
#485963634627
1t
0s
0r
1y
1c
0i
#485963635448
0t
0s
0r
1y
1c
1i
#485963636328
1t
0s
0r
1y
1c
1i
#485963637152
0t
0s
0r
1y
1c
1i
#485963638035
1t
0s
0r
1y
0c
1i
#485963638858
0t
0s
0r
1y
0c
0i
#485963639735
1t
0s
0r
1y
0c
0i
#485963640560
0t
0s
0r
1y
0c
0i
#485963641435
1t
0s
0r
1y
0c
0i
#485963642256
0t
0s
0r
1y
0c
0i
#485963643131
1t
0s
0r
1y
0c
0i
#485963643944
0t
0s
0r
1y
0c
0i
#485963644816
1t
0s
0r
1y
0c
0i
#485963645630
0t
0s
0r
1y
0c
0i
#485963646504
1t
0s
0r
1y
0c
0i
#485963647313
0t
0s
0r
1y
0c
0i
#485963648184
1t
0s
0r
1y
0c
0i
#485963648274
1t
1s
0r
1y
0c
0i
#485963648274
1t
0s
0r
1y
0c
0i
#485963648992
0t
0s
0r
1y
0c
0i
#485963649855
1t
0s
0r
1y
0c
0i
#485963650663
0t
0s
0r
1y
0c
0i
#485963651524
1t
0s
0r
1y
0c
0i
#485963652330
0t
0s
0r
1y
0c
0i
#485963653188
1t
0s
0r
1y
0c
0i
#485963653991
0t
0s
0r
1y
0c
0i
#485963654848
1t
0s
0r
1y
0c
0i
#485963655640
0t
0s
0r
1y
0c
0i
#485963656499
1t
0s
0r
1y
0c
0i
#485963657287
0t
0s
0r
1y
0c
0i
#485963658141
1t
0s
0r
1y
0c
0i
#485963658928
0t
0s
0r
1y
0c
0i
#485963659782
1t
0s
0r
1y
0c
0i
#485963660573
0t
0s
0r
1y
0c
0i
#485963661432
1t
0s
0r
1y
0c
0i
#485963662225
0t
0s
0r
1y
0c
0i
#485963663090
1t
0s
0r
1y
0c
0i
#485963663886
0t
0s
0r
1y
0c
0i
#485963664750
1t
0s
0r
1y
0c
0i
#485963665559
0t
0s
0r
1y
0c
0i
#485963666432
1t
0s
0r
1y
0c
0i
#485963667245
0t
0s
0r
1y
0c
0i
#485963668121
1t
0s
0r
1y
1c
0i
#485963668933
0t
0s
0r
1y
1c
1i
#485963669815
1t
0s
0r
1y
1c
1i
#485963670635
0t
0s
0r
1y
1c
1i
#485963671264
0t
0s
1r
1y
0c
1i
#485963671267
0t
0s
0r
1y
0c
1i
#485963671520
1t
0s
0r
1y
0c
1i
#485963672336
0t
0s
0r
1y
0c
0i
#485963673218
1t
0s
0r
1y
0c
0i
#485963674033
0t
0s
0r
1y
0c
0i
#485963674914
1t
0s
0r
1y
0c
0i
#485963675725
0t
0s
0r
1y
0c
0i
#485963676601
1t
0s
0r
1y
0c
0i
#485963680242
0t
0s
0r
1y
0c
0i
#485963681661
1t
0s
0r
1y
0c
0i
#485963682472
0t
0s
0r
1y
0c
0i
#485963683350
1t
0s
0r
1y
0c
0i
#485963684159
0t
0s
0r
1y
0c
0i
#485963685034
1t
0s
0r
1y
0c
0i
#485963685850
0t
0s
0r
1y
0c
0i
#485963686728
1t
0s
0r
1y
0c
0i
#485963687543
0t
0s
0r
1y
0c
0i
#485963688420
1t
0s
0r
1y
0c
0i
#485963689234
0t
0s
0r
1y
0c
0i
#485963690111
1t
0s
0r
1y
0c
0i
#485963690926
0t
0s
0r
1y
0c
0i
#485963691803
1t
0s
0r
1y
0c
0i
#485963692618
0t
0s
0r
1y
0c
0i
#485963693500
1t
0s
0r
1y
0c
0i
#485963694313
0t
0s
0r
1y
0c
0i
#485963695196
1t
0s
0r
1y
0c
0i
#485963696010
0t
0s
0r
1y
0c
0i
#485963696894
1t
0s
0r
1y
0c
0i
#485963697718
0t
0s
0r
1y
0c
0i
#485963698605
1t
0s
0r
1y
0c
0i
#485963899148
0t
0s
0r
1y
0c
0i
#485963899914
1t
0s
0r
1y
0c
0i
#485963900627
0t
0s
0r
1y
0c
0i
#485963901393
1t
0s
0r
1y
0c
0i
#485963902101
0t
0s
0r
1y
0c
0i
#485963902865
1t
0s
0r
1y
0c
0i
#485963903572
0t
0s
0r
1y
0c
0i
#485963904331
1t
0s
0r
1y
0c
0i
#485963905035
0t
0s
0r
1y
0c
0i
#485963905787
1t
0s
0r
1y
0c
0i
#485963906487
0t
0s
0r
1y
0c
0i
#485963907233
1t
0s
0r
1y
0c
0i
#485963907930
0t
0s
0r
1y
0c
0i
#485963908675
1t
0s
0r
1y
0c
0i
#485963909366
0t
0s
0r
1y
0c
0i
#485963910102
1t
0s
0r
1y
0c
0i
#485963910793
0t
0s
0r
1y
0c
0i
#485963911532
1t
0s
0r
1y
0c
0i
#485963912220
0t
0s
0r
1y
0c
0i
#485963912961
1t
0s
0r
1y
0c
0i
#485963913652
0t
0s
0r
1y
0c
0i
#485963914391
1t
0s
0r
1y
0c
0i
#485963915090
0t
0s
0r
1y
0c
0i
#485963915829
1t
0s
0r
1y
0c
0i
#485963916527
0t
0s
0r
1y
0c
0i
#485963917275
1t
0s
0r
1y
0c
0i
#485963917973
0t
0s
0r
1y
0c
0i
#485963918726
1t
0s
0r
1y
0c
0i
#485963919428
0t
0s
0r
1y
0c
0i
#485963920182
1t
0s
0r
1y
1c
1i
#485963920884
0t
0s
0r
1y
1c
1i
#485963921641
1t
0s
0r
1y
1c
1i
#490258866444
0t
0s
0r
1y
0c
0i
#490258867210
1t
0s
0r
1y
0c
0i
#490258867923
0t
0s
0r
1y
0c
0i
#490258868689
1t
0s
0r
1y
0c
0i
#490258869397
0t
0s
0r
1y
0c
0i
#490258870161
1t
0s
0r
1y
0c
0i
#490258870868
0t
0s
0r
1y
0c
0i
#490258871627
1t
0s
0r
1y
0c
0i
#490258872331
0t
0s
0r
1y
0c
0i
#490258873083
1t
0s
0r
1y
0c
0i
#490258873783
0t
0s
0r
1y
0c
0i
#490258874529
1t
0s
0r
1y
0c
0i
#490258875226
0t
0s
0r
1y
0c
0i
#490258875971
1t
0s
0r
1y
0c
0i
#490258876662
0t
0s
0r
1y
0c
0i
#490258877398
1t
0s
0r
1y
0c
0i
#490258878089
0t
0s
0r
1y
0c
0i
#490258878828
1t
0s
0r
1y
0c
0i
#490258879516
0t
0s
0r
1y
0c
0i
#490258880257
1t
0s
0r
1y
0c
0i
#490258880948
0t
0s
0r
1y
0c
0i
#490258881687
1t
0s
0r
1y
0c
0i
#490258882386
0t
0s
0r
1y
0c
0i
#490258883125
1t
0s
0r
1y
0c
0i
#490258883823
0t
0s
0r
1y
0c
0i
#490258884571
1t
0s
0r
1y
0c
0i
#490258885269
0t
0s
0r
1y
0c
0i
#490258886022
1t
0s
0r
1y
0c
0i
#490258886724
0t
0s
0r
1y
0c
0i
#490258887478
1t
0s
0r
1y
1c
1i
#490258888180
0t
0s
0r
1y
1c
1i
#490258888937
1t
0s
0r
1y
1c
1i
#490258889641
0t
0s
0r
1y
1c
1i
#490258890397
1t
0s
0r
1y
0c
1i
#490258891105
0t
0s
0r
1y
0c
0i
#490258891855
1t
0s
0r
1y
0c
0i
#490258892561
0t
0s
0r
1y
0c
0i
#490258893308
1t
0s
0r
1y
0c
0i
#490258894013
0t
0s
0r
1y
0c
0i
#490258894759
1t
0s
0r
1y
0c
0i
#490258895454
0t
0s
0r
1y
0c
0i
#490258896196
1t
0s
0r
1y
0c
0i
#490258896892
0t
0s
0r
1y
0c
0i
#490258897635
1t
0s
0r
1y
0c
0i
#490258898326
0t
0s
0r
1y
0c
0i
#490258899067
1t
0s
0r
1y
0c
0i
#490258899757
0t
0s
0r
1y
0c
0i
#490258900490
1t
0s
0r
1y
0c
0i
#490258901178
0t
0s
0r
1y
0c
0i
#490258901913
1t
0s
0r
1y
0c
0i
#490258902595
0t
0s
0r
1y
0c
0i
#490258903330
1t
0s
0r
1y
0c
0i
#490258904008
0t
0s
0r
1y
0c
0i
#490258904737
1t
0s
0r
1y
0c
0i
#490258905410
0t
0s
0r
1y
0c
0i
#490258906136
1t
0s
0r
1y
0c
0i
#490258906807
0t
0s
0r
1y
0c
0i
#490258907529
1t
0s
0r
1y
0c
0i
#490258908204
0t
0s
0r
1y
0c
0i
#490258908929
1t
0s
0r
1y
0c
0i
#490258909599
0t
0s
0r
1y
0c
0i
#490258910325
1t
0s
0r
1y
0c
0i
#490258911000
0t
0s
0r
1y
0c
0i
#490258911732
1t
0s
0r
1y
0c
0i
#490258912405
0t
0s
0r
1y
0c
0i
#490258913141
1t
0s
0r
1y
0c
0i
#490258913819
0t
0s
0r
1y
0c
0i
#490258914559
1t
0s
0r
1y
0c
0i
#490258915241
0t
0s
0r
1y
0c
0i
#490258915979
1t
0s
0r
1y
1c
1i
#490258916663
0t
0s
0r
1y
1c
1i
#490258917406
1t
0s
0r
1y
1c
1i
#490258918091
0t
0s
0r
1y
1c
1i
#490258918837
1t
0s
0r
1y
0c
1i
#490258919521
0t
0s
0r
1y
0c
0i
#490258920259
1t
0s
0r
1y
0c
0i
#490258920942
0t
0s
0r
1y
0c
0i
#490258921679
1t
0s
0r
1y
0c
0i
#490258922358
0t
0s
0r
1y
0c
0i
#490258923095
1t
0s
0r
1y
0c
0i
#490258926145
0t
0s
0r
1y
0c
0i
#490258927310
1t
0s
0r
1y
0c
0i
#490258927980
0t
0s
0r
1y
0c
0i
#490258928705
1t
0s
0r
1y
0c
0i
#490258929373
0t
0s
0r
1y
0c
0i
#490258930091
1t
0s
0r
1y
0c
0i
#490258930756
0t
0s
0r
1y
0c
0i
#490258931472
1t
0s
0r
1y
0c
0i
#490258932135
0t
0s
0r
1y
0c
0i
#490258932847
1t
0s
0r
1y
0c
0i
#490258933504
0t
0s
0r
1y
0c
0i
#490258934217
1t
0s
0r
1y
0c
0i
#490258934872
0t
0s
0r
1y
0c
0i
#490258935577
1t
0s
0r
1y
0c
0i
#490258936234
0t
0s
0r
1y
0c
0i
#490258936941
1t
0s
0r
1y
0c
0i
#490258937600
0t
0s
0r
1y
0c
0i
#490258938310
1t
0s
0r
1y
0c
0i
#490258938966
0t
0s
0r
1y
0c
0i
#490258939679
1t
0s
0r
1y
0c
0i
#490258940341
0t
0s
0r
1y
0c
0i
#490258941056
1t
0s
0r
1y
0c
0i
#490258941722
0t
0s
0r
1y
0c
0i
#490258942436
1t
0s
0r
1y
0c
0i
#490258943104
0t
0s
0r
1y
0c
0i
#490258943823
1t
0s
0r
1y
1c
1i
#490258944494
0t
0s
0r
1y
1c
1i
#490258945217
1t
0s
0r
1y
1c
1i
#490258945887
0t
0s
0r
1y
1c
1i
#490258946610
1t
0s
0r
1y
0c
1i
#490258947279
0t
0s
0r
1y
0c
0i
#490258948001
1t
0s
0r
1y
0c
0i
#490258948668
0t
0s
0r
1y
0c
0i
#490258949386
1t
0s
0r
1y
0c
0i
#490258950054
0t
0s
0r
1y
0c
0i
#490258950769
1t
0s
0r
1y
0c
0i
#490258951433
0t
0s
0r
1y
0c
0i
#490258952143
1t
0s
0r
1y
0c
0i
#490258952806
0t
0s
0r
1y
0c
0i
#490258953508
1t
0s
0r
1y
0c
0i
#490258954171
0t
0s
0r
1y
0c
0i
#490258954876
1t
0s
0r
1y
0c
0i
#490258955530
0t
0s
0r
1y
0c
0i
#490258956229
1t
0s
0r
1y
0c
0i
#490258956877
0t
0s
0r
1y
0c
0i
#490258957570
1t
0s
0r
1y
0c
0i
#490258958212
0t
0s
0r
1y
0c
0i
#490258958900
1t
0s
0r
1y
0c
0i
#490258959541
0t
0s
0r
1y
0c
0i
#490258960223
1t
0s
0r
1y
0c
0i
#490258960862
0t
0s
0r
1y
0c
0i
#490258961543
1t
0s
0r
1y
0c
0i
#490258962176
0t
0s
0r
1y
0c
0i
#490258962859
1t
0s
0r
1y
0c
0i
#490258963497
0t
0s
0r
1y
0c
0i
#490258964180
1t
0s
0r
1y
0c
0i
#490258964817
0t
0s
0r
1y
0c
0i
#490258965501
1t
0s
0r
1y
0c
0i
#490258966146
0t
0s
0r
1y
0c
0i
#490258966832
1t
0s
0r
1y
0c
0i
#490258967477
0t
0s
0r
1y
0c
0i
#490258968165
1t
0s
0r
1y
0c
0i
#490258968813
0t
0s
0r
1y
0c
0i
#490258969511
1t
0s
0r
1y
0c
0i
#490258970156
0t
0s
0r
1y
0c
0i
#490258970854
1t
0s
0r
1y
1c
1i
#490258971502
0t
0s
0r
1y
1c
1i
#490258972201
1t
0s
0r
1y
1c
1i
#490258972850
0t
0s
0r
1y
1c
1i
#490258973549
1t
0s
0r
1y
0c
1i
#490258974200
0t
0s
0r
1y
0c
0i
#490258974896
1t
0s
0r
1y
0c
0i
#490258975546
0t
0s
0r
1y
0c
0i
#490258976240
1t
0s
0r
1y
0c
0i
#490258976887
0t
0s
0r
1y
0c
0i
#490258977577
1t
0s
0r
1y
0c
0i
#490258978218
0t
0s
0r
1y
0c
0i
#490258978904
1t
0s
0r
1y
0c
0i
#490258979545
0t
0s
0r
1y
0c
0i
#490258980230
1t
0s
0r
1y
0c
0i
#490258980869
0t
0s
0r
1y
0c
0i
#490258981555
1t
0s
0r
1y
0c
0i
#490258981646
1t
1s
0r
1y
0c
0i
#490258981646
1t
0s
0r
1y
0c
0i
#490258982188
0t
0s
0r
1y
0c
0i
#490258982863
1t
0s
0r
1y
0c
0i
#490258983499
0t
0s
0r
1y
0c
0i
#490258984175
1t
0s
0r
1y
0c
0i
#490258984804
0t
0s
0r
1y
0c
0i
#490258985481
1t
0s
0r
1y
0c
0i
#490258986106
0t
0s
0r
1y
0c
0i
#490258986781
1t
0s
0r
1y
0c
0i
#490258987401
0t
0s
0r
1y
0c
0i
#490258988070
1t
0s
0r
1y
0c
0i
#490258988693
0t
0s
0r
1y
0c
0i
#490258989363
1t
0s
0r
1y
0c
0i
#490258989982
0t
0s
0r
1y
0c
0i
#490258990651
1t
0s
0r
1y
0c
0i
#490258991272
0t
0s
0r
1y
0c
0i
#490258991944
1t
0s
0r
1y
0c
0i
#490258992568
0t
0s
0r
1y
0c
0i
#490258993241
1t
0s
0r
1y
0c
0i
#490258993864
0t
0s
0r
1y
0c
0i
#490258994542
1t
0s
0r
1y
0c
0i
#490258995170
0t
0s
0r
1y
0c
0i
#490258995848
1t
0s
0r
1y
0c
0i
#490258996478
0t
0s
0r
1y
0c
0i
#490258997158
1t
0s
0r
1y
1c
1i
#490258997787
0t
0s
0r
1y
1c
1i
#490258998469
1t
0s
0r
1y
1c
1i
#490258999102
0t
0s
0r
1y
1c
1i
#490258999787
1t
0s
0r
1y
0c
1i
#490259000417
0t
0s
0r
1y
0c
0i
#490259001100
1t
0s
0r
1y
0c
0i
#490259001726
0t
0s
0r
1y
0c
0i
#490259002406
1t
0s
0r
1y
0c
0i
#490259003034
0t
0s
0r
1y
0c
0i
#490259003547
0t
0s
1r
1y
0c
0i
#490259003549
0t
0s
0r
1y
0c
0i
#490259003714
1t
0s
0r
1y
0c
0i
#490259006489
0t
0s
0r
1y
0c
0i
#490259007616
1t
0s
0r
1y
0c
0i
#490259008239
0t
0s
0r
1y
0c
0i
#490259008915
1t
0s
0r
1y
0c
0i
#490259009537
0t
0s
0r
1y
0c
0i
#490259010210
1t
0s
0r
1y
0c
0i
#490259010833
0t
0s
0r
1y
0c
0i
#490259011506
1t
0s
0r
1y
0c
0i
#490259012128
0t
0s
0r
1y
0c
0i
#490259012798
1t
0s
0r
1y
0c
0i
#490259013421
0t
0s
0r
1y
0c
0i
#490259014090
1t
0s
0r
1y
0c
0i
#490259014708
0t
0s
0r
1y
0c
0i
#490259015377
1t
0s
0r
1y
0c
0i
#490259015996
0t
0s
0r
1y
0c
0i
#490259016663
1t
0s
0r
1y
0c
0i
#490259017281
0t
0s
0r
1y
0c
0i
#490259017950
1t
0s
0r
1y
0c
0i
#490259018567
0t
0s
0r
1y
0c
0i
#490259019238
1t
0s
0r
1y
0c
0i
#490259019857
0t
0s
0r
1y
0c
0i
#490259020530
1t
0s
0r
1y
0c
0i
#490259021154
0t
0s
0r
1y
0c
0i
#490259021826
1t
0s
0r
1y
0c
0i
#490259022450
0t
0s
0r
1y
0c
0i
#490259023125
1t
0s
0r
1y
1c
1i
#490259023750
0t
0s
0r
1y
1c
1i
#490259024424
1t
0s
0r
1y
1c
1i
#490259025056
0t
0s
0r
1y
1c
1i
#490259025732
1t
0s
0r
1y
0c
1i
#490259026360
0t
0s
0r
1y
0c
0i
#490259027036
1t
0s
0r
1y
0c
0i
#490259027662
0t
0s
0r
1y
0c
0i
#490259028335
1t
0s
0r
1y
0c
0i
#490259028961
0t
0s
0r
1y
0c
0i
#490259029631
1t
0s
0r
1y
0c
0i
#490259030255
0t
0s
0r
1y
0c
0i
#490259030924
1t
0s
0r
1y
0c
0i
#490259031545
0t
0s
0r
1y
0c
0i
#490259032214
1t
0s
0r
1y
0c
0i
#490259032831
0t
0s
0r
1y
0c
0i
#490259033496
1t
0s
0r
1y
0c
0i
#490259034113
0t
0s
0r
1y
0c
0i
#490259034773
1t
0s
0r
1y
0c
0i
#490259035387
0t
0s
0r
1y
0c
0i
#490259036040
1t
0s
0r
1y
0c
0i
#490259036651
0t
0s
0r
1y
0c
0i
#490259037305
1t
0s
0r
1y
0c
0i
#490259037910
0t
0s
0r
1y
0c
0i
#490259038559
1t
0s
0r
1y
0c
0i
#490259039163
0t
0s
0r
1y
0c
0i
#490259039807
1t
0s
0r
1y
0c
0i
#490259040409
0t
0s
0r
1y
0c
0i
#490259041055
1t
0s
0r
1y
0c
0i
#490259041658
0t
0s
0r
1y
0c
0i
#490259042305
1t
0s
0r
1y
0c
0i
#490259042909
0t
0s
0r
1y
0c
0i
#490259043556
1t
0s
0r
1y
0c
0i
#490259044163
0t
0s
0r
1y
0c
0i
#490259044809
1t
0s
0r
1y
0c
0i
#490259045418
0t
0s
0r
1y
0c
0i
#490259046070
1t
0s
0r
1y
0c
0i
#490259046681
0t
0s
0r
1y
0c
0i
#490259047335
1t
0s
0r
1y
0c
0i
#490259047945
0t
0s
0r
1y
0c
0i
#490259048603
1t
0s
0r
1y
1c
1i
#490259049214
0t
0s
0r
1y
1c
1i
#490259049870
1t
0s
0r
1y
1c
1i
#490259050484
0t
0s
0r
1y
1c
1i
#490259051140
1t
0s
0r
1y
0c
1i
#490259051757
0t
0s
0r
1y
0c
0i
#490259052410
1t
0s
0r
1y
0c
0i
#490259053027
0t
0s
0r
1y
0c
0i
#490259053681
1t
0s
0r
1y
0c
0i
#490259054292
0t
0s
0r
1y
0c
0i
#490259054941
1t
0s
0r
1y
0c
0i
#490259055550
0t
0s
0r
1y
0c
0i
#490259056200
1t
0s
0r
1y
0c
0i
#490259056807
0t
0s
0r
1y
0c
0i
#490259057454
1t
0s
0r
1y
0c
0i
#490259058061
0t
0s
0r
1y
0c
0i
#490259058708
1t
0s
0r
1y
0c
0i
#490259059311
0t
0s
0r
1y
0c
0i
#490259059954
1t
0s
0r
1y
0c
0i
#490259060557
0t
0s
0r
1y
0c
0i
#490259061201
1t
0s
0r
1y
0c
0i
#490259061801
0t
0s
0r
1y
0c
0i
#490259062445
1t
0s
0r
1y
0c
0i
#490259063044
0t
0s
0r
1y
0c
0i
#490259063686
1t
0s
0r
1y
0c
0i
#490259064281
0t
0s
0r
1y
0c
0i
#490259064921
1t
0s
0r
1y
0c
0i
#490259065515
0t
0s
0r
1y
0c
0i
#490259066153
1t
0s
0r
1y
0c
0i
#490259066745
0t
0s
0r
1y
0c
0i
#490259067384
1t
0s
0r
1y
0c
0i
#490259067977
0t
0s
0r
1y
0c
0i
#490259068618
1t
0s
0r
1y
0c
0i
#490259069211
0t
0s
0r
1y
0c
0i
#490259069854
1t
0s
0r
1y
0c
0i
#490259070445
0t
0s
0r
1y
0c
0i
#490259071091
1t
0s
0r
1y
0c
0i
#490259071689
0t
0s
0r
1y
0c
0i
#490259072331
1t
0s
0r
1y
0c
0i
#490259072933
0t
0s
0r
1y
1c
0i
#490259073581
1t
0s
0r
1y
1c
1i
#490259074178
0t
0s
0r
1y
1c
1i
#490259074827
1t
0s
0r
1y
1c
1i
#490259075428
0t
0s
0r
1y
1c
1i
#490259076080
1t
0s
0r
1y
0c
1i
#490259076680
0t
0s
0r
1y
0c
0i
#490259077324
1t
0s
0r
1y
0c
0i
#490259077927
0t
0s
0r
1y
0c
0i
#490259078571
1t
0s
0r
1y
0c
0i
#490259079168
0t
0s
0r
1y
0c
0i
#490259079814
1t
0s
0r
1y
0c
0i
#490259082496
0t
0s
0r
1y
0c
0i
#490259083533
1t
0s
0r
1y
0c
0i
#490259084127
0t
0s
0r
1y
0c
0i
#490259084771
1t
0s
0r
1y
0c
0i
#490259085363
0t
0s
0r
1y
0c
0i
#490259086004
1t
0s
0r
1y
0c
0i
#490259086599
0t
0s
0r
1y
0c
0i
#490259087238
1t
0s
0r
1y
0c
0i
#490259087830
0t
0s
0r
1y
0c
0i
#490259088469
1t
0s
0r
1y
0c
0i
#490259089061
0t
0s
0r
1y
0c
0i
#490259089695
1t
0s
0r
1y
0c
0i
#490259090286
0t
0s
0r
1y
0c
0i
#490259090920
1t
0s
0r
1y
0c
0i
#490259091507
0t
0s
0r
1y
0c
0i
#490259092141
1t
0s
0r
1y
0c
0i
#490259092731
0t
0s
0r
1y
0c
0i
