rusefi_bundle_mega100/rusefi.snapshot.mega100/console/logs/rusEFI_trigger_log_2024-11-11_00_30_18_243.vcd
$date
	Mon Nov 11 00:30:18 CET 2024
$end
$version
        1.0
$end
$timescale
        1ps
$end
$scope module test $end
$var wire 1 t PRI_TRG $end
$var wire 1 s SEC_TRG $end
$var wire 1 r TRG $end
$var wire 1 y SYNC $end
$var wire 1 c COIL $end
$var wire 1 i INJ $end
$upscope $end
$enddefinitions $end
$dumpvars
#589220936766
1t
0s
0r
1y
1c
1i
#589220937477
0t
0s
0r
1y
1c
1i
#589220938245
1t
0s
0r
1y
1c
1i
#589220938961
0t
0s
0r
1y
1c
1i
#589220939728
1t
0s
0r
1y
1c
1i
#589220940442
0t
0s
0r
1y
1c
1i
#589220941213
1t
0s
0r
1y
1c
1i
#589220941928
0t
0s
0r
1y
1c
1i
#589220942694
1t
0s
0r
1y
1c
1i
#589220943414
0t
0s
0r
1y
1c
1i
#589220944186
1t
0s
0r
1y
1c
1i
#589220944904
0t
0s
0r
1y
1c
1i
#589220945675
1t
0s
0r
1y
1c
1i
#589220946397
0t
0s
0r
1y
1c
1i
#589220947173
1t
0s
0r
1y
1c
1i
#589220947892
0t
0s
0r
1y
1c
1i
#589220948669
1t
0s
0r
1y
1c
1i
#589220949393
0t
0s
0r
1y
1c
1i
#589220950168
1t
0s
0r
1y
0c
0i
#589220950894
0t
0s
0r
1y
0c
0i
#589220951671
1t
0s
0r
1y
0c
0i
#589220952391
0t
0s
0r
1y
0c
0i
#589220953168
1t
0s
0r
1y
0c
0i
#589220953892
0t
0s
0r
1y
0c
0i
#589220954666
1t
0s
0r
1y
0c
0i
#589220955383
0t
0s
0r
1y
0c
0i
#589220956160
1t
0s
0r
1y
0c
0i
#589220956880
0t
0s
0r
1y
0c
0i
#589220957656
1t
0s
0r
1y
0c
0i
#589220958377
0t
0s
0r
1y
0c
0i
#589220959147
0t
1s
0r
1y
0c
0i
#589220959147
0t
0s
0r
1y
0c
0i
#589220959152
1t
0s
0r
1y
0c
0i
#589220959872
0t
0s
0r
1y
0c
0i
#589220960645
1t
0s
0r
1y
0c
0i
#589220961366
0t
0s
0r
1y
0c
0i
#589220962144
1t
0s
0r
1y
0c
0i
#589220962865
0t
0s
0r
1y
0c
0i
#589220963647
1t
0s
0r
1y
0c
0i
#589220964370
0t
0s
0r
1y
0c
0i
#589220965152
1t
0s
0r
1y
0c
0i
#589220965875
0t
0s
0r
1y
0c
0i
#589220966662
1t
0s
0r
1y
0c
0i
#589220967386
0t
0s
0r
1y
0c
0i
#589220968169
1t
0s
0r
1y
0c
0i
#589220968898
0t
0s
0r
1y
0c
0i
#589220969680
1t
0s
0r
1y
0c
0i
#589220970415
0t
0s
0r
1y
0c
0i
#589220971205
1t
0s
0r
1y
0c
0i
#589220971932
0t
0s
0r
1y
0c
0i
#589220972727
1t
0s
0r
1y
0c
0i
#589220973453
0t
0s
0r
1y
0c
0i
#589220974251
1t
0s
0r
1y
0c
0i
#589220974986
0t
0s
0r
1y
0c
0i
#589220975784
1t
0s
0r
1y
0c
0i
#589220976524
0t
0s
0r
1y
1c
0i
#589220977326
1t
0s
0r
1y
1c
0i
#589220978061
0t
0s
0r
1y
1c
1i
#589220978835
0t
0s
1r
1y
1c
1i
#589220978838
0t
0s
0r
1y
1c
1i
#589220978866
1t
0s
0r
1y
1c
1i
#589220979603
0t
0s
0r
1y
1c
1i
#589220980410
1t
0s
0r
1y
0c
0i
#589220981147
0t
0s
0r
1y
0c
0i
#589220981946
1t
0s
0r
1y
0c
0i
#589220982684
0t
0s
0r
1y
0c
0i
#589220983488
1t
0s
0r
1y
0c
0i
#589220984223
0t
0s
0r
1y
0c
0i
#589220985029
1t
0s
0r
1y
0c
0i
#589220988386
0t
0s
0r
1y
0c
0i
#589220989634
1t
0s
0r
1y
0c
0i
#589220990369
0t
0s
0r
1y
0c
0i
#589220991165
1t
0s
0r
1y
0c
0i
#589220991897
0t
0s
0r
1y
0c
0i
#589220992691
1t
0s
0r
1y
0c
0i
#589220993423
0t
0s
0r
1y
0c
0i
#589220994213
1t
0s
0r
1y
0c
0i
#589220994946
0t
0s
0r
1y
0c
0i
#589220995736
1t
0s
0r
1y
0c
0i
#589220996464
0t
0s
0r
1y
0c
0i
#589220997255
1t
0s
0r
1y
0c
0i
#589220997983
0t
0s
0r
1y
0c
0i
#589220998771
1t
0s
0r
1y
0c
0i
#589220999501
0t
0s
0r
1y
0c
0i
#589221000292
1t
0s
0r
1y
0c
0i
#589221001021
0t
0s
0r
1y
0c
0i
#589221001815
1t
0s
0r
1y
0c
0i
#589221002539
0t
0s
0r
1y
0c
0i
#589221003332
1t
0s
0r
1y
0c
0i
#589221004072
0t
0s
0r
1y
0c
0i
#589221004863
1t
0s
0r
1y
0c
0i
#589221005603
0t
0s
0r
1y
0c
0i
#589221006403
1t
0s
0r
1y
0c
0i
#589221007141
0t
0s
0r
1y
1c
0i
#589221007940
1t
0s
0r
1y
1c
0i
#589221008684
0t
0s
0r
1y
1c
0i
#589221009483
1t
0s
0r
1y
1c
1i
#589221010231
0t
0s
0r
1y
1c
1i
#589221011037
1t
0s
0r
1y
0c
0i
#589221011782
0t
0s
0r
1y
0c
0i
#589221012584
1t
0s
0r
1y
0c
0i
#589221013328
0t
0s
0r
1y
0c
0i
#589221014132
1t
0s
0r
1y
0c
0i
#589221014873
0t
0s
0r
1y
0c
0i
#589221015676
1t
0s
0r
1y
0c
0i
#589221016419
0t
0s
0r
1y
0c
0i
#589221017221
1t
0s
0r
1y
0c
0i
#589221017962
0t
0s
0r
1y
0c
0i
#589221018762
1t
0s
0r
1y
0c
0i
#589221019506
0t
0s
0r
1y
0c
0i
#589221020307
1t
0s
0r
1y
0c
0i
#589221021053
0t
0s
0r
1y
0c
0i
#589221021853
1t
0s
0r
1y
0c
0i
#589221022598
0t
0s
0r
1y
0c
0i
#589221023403
1t
0s
0r
1y
0c
0i
#589221024144
0t
0s
0r
1y
0c
0i
#589221024950
1t
0s
0r
1y
0c
0i
#589221025697
0t
0s
0r
1y
0c
0i
#589221026499
1t
0s
0r
1y
0c
0i
#589221027248
0t
0s
0r
1y
0c
0i
#589221028052
1t
0s
0r
1y
0c
0i
#589221028803
0t
0s
0r
1y
0c
0i
#589221029606
1t
0s
0r
1y
0c
0i
#589221030358
0t
0s
0r
1y
0c
0i
#589221031167
1t
0s
0r
1y
0c
0i
#589221031919
0t
0s
0r
1y
0c
0i
#589221032725
1t
0s
0r
1y
0c
0i
#589221033481
0t
0s
0r
1y
0c
0i
#589221034285
1t
0s
0r
1y
0c
0i
#589221035046
0t
0s
0r
1y
0c
0i
#589221035856
1t
0s
0r
1y
0c
0i
#589221036614
0t
0s
0r
1y
0c
0i
#589221037432
1t
0s
0r
1y
0c
0i
#589221038188
0t
0s
0r
1y
1c
0i
#589221039008
1t
0s
0r
1y
1c
0i
#589221039765
0t
0s
0r
1y
1c
0i
#589221040582
1t
0s
0r
1y
1c
1i
#589221041345
0t
0s
0r
1y
1c
1i
#589221042162
1t
0s
0r
1y
0c
0i
#589221042927
0t
0s
0r
1y
0c
0i
#589221043740
1t
0s
0r
1y
0c
0i
#589221044506
0t
0s
0r
1y
0c
0i
#589221045321
1t
0s
0r
1y
0c
0i
#589221046082
0t
0s
0r
1y
0c
0i
#589221046898
1t
0s
0r
1y
0c
0i
#589221047656
0t
0s
0r
1y
0c
0i
#589221048470
1t
0s
0r
1y
0c
0i
#589221049229
0t
0s
0r
1y
0c
0i
#589221050048
1t
0s
0r
1y
0c
0i
#589221050803
0t
0s
0r
1y
0c
0i
#589221051620
1t
0s
0r
1y
0c
0i
#589221052380
0t
0s
0r
1y
0c
0i
#589221053195
1t
0s
0r
1y
0c
0i
#589221053956
0t
0s
0r
1y
0c
0i
#589221054773
1t
0s
0r
1y
0c
0i
#589221055537
0t
0s
0r
1y
0c
0i
#589221056363
1t
0s
0r
1y
0c
0i
#589221057127
0t
0s
0r
1y
0c
0i
#589221057953
1t
0s
0r
1y
0c
0i
#589221058718
0t
0s
0r
1y
0c
0i
#589221059550
1t
0s
0r
1y
0c
0i
#589221060320
0t
0s
0r
1y
0c
0i
#589221061152
1t
0s
0r
1y
0c
0i
#589221061925
0t
0s
0r
1y
0c
0i
#589221062762
1t
0s
0r
1y
0c
0i
#589221063537
0t
0s
0r
1y
0c
0i
#589221064379
1t
0s
0r
1y
0c
0i
#589221065157
0t
0s
0r
1y
0c
0i
#589221066010
1t
0s
0r
1y
0c
0i
#589221066788
0t
0s
0r
1y
0c
0i
#589221067642
1t
0s
0r
1y
0c
0i
#589221068434
0t
0s
0r
1y
0c
0i
#589221069290
1t
0s
0r
1y
0c
0i
#589221070087
0t
0s
0r
1y
1c
0i
#589221070950
1t
0s
0r
1y
1c
0i
#589221071747
0t
0s
0r
1y
1c
0i
#589221072616
1t
0s
0r
1y
1c
1i
#589221073414
0t
0s
0r
1y
1c
1i
#589221074285
1t
0s
0r
1y
0c
0i
#589221075091
0t
0s
0r
1y
0c
0i
#589221075959
1t
0s
0r
1y
0c
0i
#589221076760
0t
0s
0r
1y
0c
0i
#589221077629
1t
0s
0r
1y
0c
0i
#589221078431
0t
0s
0r
1y
0c
0i
#589221079302
1t
0s
0r
1y
0c
0i
#589221082929
0t
0s
0r
1y
0c
0i
#589221084327
1t
0s
0r
1y
0c
0i
#589221085127
0t
0s
0r
1y
0c
0i
#589221085994
1t
0s
0r
1y
0c
0i
#589221086795
0t
0s
0r
1y
0c
0i
#589221087657
1t
0s
0r
1y
0c
0i
#589221088463
0t
0s
0r
1y
0c
0i
#589221089326
1t
0s
0r
1y
0c
0i
#589221090127
0t
0s
0r
1y
0c
0i
#589221090988
1t
0s
0r
1y
0c
0i
#589221091788
0t
0s
0r
1y
0c
0i
#589221092647
1t
0s
0r
1y
0c
0i
#589221093444
0t
0s
0r
1y
0c
0i
#589221094305
1t
0s
0r
1y
0c
0i
#589221095101
0t
0s
0r
1y
0c
0i
#589221095960
1t
0s
0r
1y
0c
0i
#589221096755
0t
0s
0r
1y
0c
0i
#589221097619
1t
0s
0r
1y
0c
0i
#589221098414
0t
0s
0r
1y
0c
0i
#589221099279
1t
0s
0r
1y
0c
0i
#589221100082
0t
0s
0r
1y
0c
0i
#589221100949
1t
0s
0r
1y
0c
0i
#589221101752
0t
0s
0r
1y
0c
0i
#589221102625
1t
0s
0r
1y
0c
0i
#589221103430
0t
0s
0r
1y
0c
0i
#589221104304
1t
0s
0r
1y
1c
0i
#589221105111
0t
0s
0r
1y
1c
0i
#589221105990
1t
0s
0r
1y
1c
1i
#589221106801
0t
0s
0r
1y
1c
1i
#589221107676
1t
0s
0r
1y
0c
0i
#589221108488
0t
0s
0r
1y
0c
0i
#589221109363
1t
0s
0r
1y
0c
0i
#589221110175
0t
0s
0r
1y
0c
0i
#589221111051
1t
0s
0r
1y
0c
0i
#589221111862
0t
0s
0r
1y
0c
0i
#589221112730
1t
0s
0r
1y
0c
0i
#589221113543
0t
0s
0r
1y
0c
0i
#589221114411
1t
0s
0r
1y
0c
0i
#589221115221
0t
0s
0r
1y
0c
0i
#589221116088
1t
0s
0r
1y
0c
0i
#589221116895
0t
0s
0r
1y
0c
0i
#589221117762
1t
0s
0r
1y
0c
0i
#589221118567
0t
0s
0r
1y
0c
0i
#589221119427
1t
0s
0r
1y
0c
0i
#589221120232
0t
0s
0r
1y
0c
0i
#589221121093
1t
0s
0r
1y
0c
0i
#589221121891
0t
0s
0r
1y
0c
0i
#589221122749
1t
0s
0r
1y
0c
0i
#589221123544
0t
0s
0r
1y
0c
0i
#589221124401
1t
0s
0r
1y
0c
0i
#589221125194
0t
0s
0r
1y
0c
0i
#589221126043
1t
0s
0r
1y
0c
0i
#589221126839
0t
0s
0r
1y
0c
0i
#589221127692
1t
0s
0r
1y
0c
0i
#589221128482
0t
0s
0r
1y
0c
0i
#589221129337
1t
0s
0r
1y
0c
0i
#589221130130
0t
0s
0r
1y
0c
0i
#589221130982
1t
0s
0r
1y
0c
0i
#589221131780
0t
0s
0r
1y
0c
0i
#589221132633
1t
0s
0r
1y
0c
0i
#589221133432
0t
0s
0r
1y
0c
0i
#589221134289
1t
0s
0r
1y
0c
0i
#589221135092
0t
0s
0r
1y
0c
0i
#589221135955
1t
0s
0r
1y
0c
0i
#589221136760
0t
0s
0r
1y
0c
0i
#589221137626
1t
0s
0r
1y
1c
0i
#589221138432
0t
0s
0r
1y
1c
0i
#589221139300
1t
0s
0r
1y
1c
1i
#589221140107
0t
0s
0r
1y
1c
1i
#589221140978
1t
0s
0r
1y
0c
0i
#589221141785
0t
0s
0r
1y
0c
0i
#589221142652
1t
0s
0r
1y
0c
0i
#589221143461
0t
0s
0r
1y
0c
0i
#589221144325
1t
0s
0r
1y
0c
0i
#589221145133
0t
0s
0r
1y
0c
0i
#589221145996
1t
0s
0r
1y
0c
0i
#589221146798
0t
0s
0r
1y
0c
0i
#589221147660
1t
0s
0r
1y
0c
0i
#589221148463
0t
0s
0r
1y
0c
0i
#589221149328
1t
0s
0r
1y
0c
0i
#589221150127
0t
0s
0r
1y
0c
0i
#589221150989
1t
0s
0r
1y
0c
0i
#589221151073
1t
1s
0r
1y
0c
0i
#589221151073
1t
0s
0r
1y
0c
0i
#589221151791
0t
0s
0r
1y
0c
0i
#589221152645
1t
0s
0r
1y
0c
0i
#589221153448
0t
0s
0r
1y
0c
0i
#589221154304
1t
0s
0r
1y
0c
0i
#589221155104
0t
0s
0r
1y
0c
0i
#589221155966
1t
0s
0r
1y
0c
0i
#589221156763
0t
0s
0r
1y
0c
0i
#589221157623
1t
0s
0r
1y
0c
0i
#589221158417
0t
0s
0r
1y
0c
0i
#589221159277
1t
0s
0r
1y
0c
0i
#589221160065
0t
0s
0r
1y
0c
0i
#589221160921
1t
0s
0r
1y
0c
0i
#589221161716
0t
0s
0r
1y
0c
0i
#589221162570
1t
0s
0r
1y
0c
0i
#589221163364
0t
0s
0r
1y
0c
0i
#589221164224
1t
0s
0r
1y
0c
0i
#589221165016
0t
0s
0r
1y
0c
0i
#589221165879
1t
0s
0r
1y
0c
0i
#589221166672
0t
0s
0r
1y
0c
0i
#589221167538
1t
0s
0r
1y
0c
0i
#589221168334
0t
0s
0r
1y
0c
0i
#589221169203
1t
0s
0r
1y
0c
0i
#589221170005
0t
0s
0r
1y
0c
0i
#589221170877
1t
0s
0r
1y
1c
0i
#589221171681
0t
0s
0r
1y
1c
0i
#589221172554
1t
0s
0r
1y
1c
1i
#589221173362
0t
0s
0r
1y
1c
1i
#589221173530
0t
0s
1r
1y
1c
1i
#589221173533
0t
0s
0r
1y
1c
1i
#589221174237
1t
0s
0r
1y
0c
0i
#589221175041
0t
0s
0r
1y
0c
0i
#589221175913
1t
0s
0r
1y
0c
0i
#589221176715
0t
0s
0r
1y
0c
0i
#589221177591
1t
0s
0r
1y
0c
0i
#589221178390
0t
0s
0r
1y
0c
0i
#589221179263
1t
0s
0r
1y
0c
0i
#589221182901
0t
0s
0r
1y
0c
0i
#589221184278
1t
0s
0r
1y
0c
0i
#589221185079
0t
0s
0r
1y
0c
0i
#589221185947
1t
0s
0r
1y
0c
0i
#589221186747
0t
0s
0r
1y
0c
0i
#589221187611
1t
0s
0r
1y
0c
0i
#589221188411
0t
0s
0r
1y
0c
0i
#589221189275
1t
0s
0r
1y
0c
0i
#589221190075
0t
0s
0r
1y
0c
0i
#589221190940
1t
0s
0r
1y
0c
0i
#589221191737
0t
0s
0r
1y
0c
0i
#589221192595
1t
0s
0r
1y
0c
0i
#589221193395
0t
0s
0r
1y
0c
0i
#589221194258
1t
0s
0r
1y
0c
0i
#589221195052
0t
0s
0r
1y
0c
0i
#589221195912
1t
0s
0r
1y
0c
0i
#589221196710
0t
0s
0r
1y
0c
0i
#589221197575
1t
0s
0r
1y
0c
0i
#589221198371
0t
0s
0r
1y
0c
0i
#589221199235
1t
0s
0r
1y
0c
0i
#589221200037
0t
0s
0r
1y
0c
0i
#589221200903
1t
0s
0r
1y
0c
0i
#589221201708
0t
0s
0r
1y
0c
0i
#589221202579
1t
0s
0r
1y
0c
0i
#589221203388
0t
0s
0r
1y
0c
0i
#589221204261
1t
0s
0r
1y
1c
0i
#589221205070
0t
0s
0r
1y
1c
0i
#589221205949
1t
0s
0r
1y
1c
1i
#589221206759
0t
0s
0r
1y
1c
1i
#589221207637
1t
0s
0r
1y
0c
0i
#589221208448
0t
0s
0r
1y
0c
0i
#589221209321
1t
0s
0r
1y
0c
0i
#589221210135
0t
0s
0r
1y
0c
0i
#589221211013
1t
0s
0r
1y
0c
0i
#589221211821
0t
0s
0r
1y
0c
0i
#589221212690
1t
0s
0r
1y
0c
0i
#589221213500
0t
0s
0r
1y
0c
0i
#589221214370
1t
0s
0r
1y
0c
0i
#589221215175
0t
0s
0r
1y
0c
0i
#589221216042
1t
0s
0r
1y
0c
0i
#589221216845
0t
0s
0r
1y
0c
0i
#589221217709
1t
0s
0r
1y
0c
0i
#589221218506
0t
0s
0r
1y
0c
0i
#589221219367
1t
0s
0r
1y
0c
0i
#589221220161
0t
0s
0r
1y
0c
0i
#589221221016
1t
0s
0r
1y
0c
0i
#589221221807
0t
0s
0r
1y
0c
0i
#589221222658
1t
0s
0r
1y
0c
0i
#589221223445
0t
0s
0r
1y
0c
0i
#589221224290
1t
0s
0r
1y
0c
0i
#589221225074
0t
0s
0r
1y
0c
0i
#589221225917
1t
0s
0r
1y
0c
0i
#589221226702
0t
0s
0r
1y
0c
0i
#589221227542
1t
0s
0r
1y
0c
0i
#589221228330
0t
0s
0r
1y
0c
0i
#589221229173
1t
0s
0r
1y
0c
0i
#589221229961
0t
0s
0r
1y
0c
0i
#589221230803
1t
0s
0r
1y
0c
0i
#589221231593
0t
0s
0r
1y
0c
0i
#589221232437
1t
0s
0r
1y
0c
0i
#589221233231
0t
0s
0r
1y
0c
0i
#589221234084
1t
0s
0r
1y
0c
0i
#589221234876
0t
0s
0r
1y
0c
0i
#589221235728
1t
0s
0r
1y
0c
0i
#589221236529
0t
0s
0r
1y
0c
0i
#589221237387
1t
0s
0r
1y
1c
0i
#589221238188
0t
0s
0r
1y
1c
0i
#589221239045
1t
0s
0r
1y
1c
1i
#589221239846
0t
0s
0r
1y
1c
1i
#589221240709
1t
0s
0r
1y
0c
1i
#589221241514
0t
0s
0r
1y
0c
0i
#589221242369
1t
0s
0r
1y
0c
0i
#589221243171
0t
0s
0r
1y
0c
0i
#589221244029
1t
0s
0r
1y
0c
0i
#589221244827
0t
0s
0r
1y
0c
0i
#589221245681
1t
0s
0r
1y
0c
0i
#589221246475
0t
0s
0r
1y
0c
0i
#589221247328
1t
0s
0r
1y
0c
0i
#589221248119
0t
0s
0r
1y
0c
0i
#589221248969
1t
0s
0r
1y
0c
0i
#589221249763
0t
0s
0r
1y
0c
0i
#589221250609
1t
0s
0r
1y
0c
0i
#589221251393
0t
0s
0r
1y
0c
0i
#589221252233
1t
0s
0r
1y
0c
0i
#589221253017
0t
0s
0r
1y
0c
0i
#589221253855
1t
0s
0r
1y
0c
0i
#589221254635
0t
0s
0r
1y
0c
0i
#589221255474
1t
0s
0r
1y
0c
0i
#589221256245
0t
0s
0r
1y
0c
0i
#589221257077
1t
0s
0r
1y
0c
0i
#589221257847
0t
0s
0r
1y
0c
0i
#589221258681
1t
0s
0r
1y
0c
0i
#589221259445
0t
0s
0r
1y
0c
0i
#589221260273
1t
0s
0r
1y
0c
0i
#589221261044
0t
0s
0r
1y
0c
0i
#589221261874
1t
0s
0r
1y
0c
0i
#589221262643
0t
0s
0r
1y
0c
0i
#589221263476
1t
0s
0r
1y
0c
0i
#589221264247
0t
0s
0r
1y
0c
0i
#589221265082
1t
0s
0r
1y
0c
0i
#589221265852
0t
0s
0r
1y
0c
0i
#589221266693
1t
0s
0r
1y
0c
0i
#589221267471
0t
0s
0r
1y
0c
0i
#589221268316
1t
0s
0r
1y
0c
0i
#589221269096
0t
0s
0r
1y
0c
0i
#589221269942
1t
0s
0r
1y
1c
0i
#589221270728
0t
0s
0r
1y
1c
0i
#589221271576
1t
0s
0r
1y
1c
1i
#589221272362
0t
0s
0r
1y
1c
1i
#589221273215
1t
0s
0r
1y
0c
1i
#589221273999
0t
0s
0r
1y
0c
0i
#589221274844
1t
0s
0r
1y
0c
0i
#589221275629
0t
0s
0r
1y
0c
0i
#589221276475
1t
0s
0r
1y
0c
0i
#589221277256
0t
0s
0r
1y
0c
0i
#589221278104
1t
0s
0r
1y
0c
0i
#589221281625
0t
0s
0r
1y
0c
0i
#589221282970
1t
0s
0r
1y
0c
0i
#589221283745
0t
0s
0r
1y
0c
0i
#589221284586
1t
0s
0r
1y
0c
0i
#589221285360
0t
0s
0r
1y
0c
0i
#589221286197
1t
0s
0r
1y
0c
0i
#589221286971
0t
0s
0r
1y
0c
0i
#589221287809
1t
0s
0r
1y
0c
0i
#589221288581
0t
0s
0r
1y
0c
0i
#589221289417
1t
0s
0r
1y
0c
0i
#589221290188
0t
0s
0r
1y
0c
0i
#589221291017
1t
0s
0r
1y
0c
0i
#589221291787
0t
0s
0r
1y
0c
0i
#589221292614
1t
0s
0r
1y
0c
0i
#589221293383
0t
0s
0r
1y
0c
0i
#589221294211
1t
0s
0r
1y
0c
0i
#589221294979
0t
0s
0r
1y
0c
0i
#589221295809
1t
0s
0r
1y
0c
0i
#589221296578
0t
0s
0r
1y
0c
0i
#589221297410
1t
0s
0r
1y
0c
0i
#589221298181
0t
0s
0r
1y
0c
0i
#589221299014
1t
0s
0r
1y
0c
0i
#589221299787
0t
0s
0r
1y
0c
0i
#589221300625
1t
0s
0r
1y
0c
0i
#589221301404
0t
0s
0r
1y
0c
0i
#589221302243
1t
0s
0r
1y
1c
0i
#589221303021
0t
0s
0r
1y
1c
0i
#589221303861
1t
0s
0r
1y
1c
1i
#589221304645
0t
0s
0r
1y
1c
1i
#589221305486
1t
0s
0r
1y
0c
1i
#589221306268
0t
0s
0r
1y
0c
0i
#589221307109
1t
0s
0r
1y
0c
0i
#589221307887
0t
0s
0r
1y
0c
0i
#589221308727
1t
0s
0r
1y
0c
0i
#589221309505
0t
0s
0r
1y
0c
0i
#589221310339
1t
0s
0r
1y
0c
0i
#589221311117
0t
0s
0r
1y
0c
0i
#589221311953
1t
0s
0r
1y
0c
0i
#589221312724
0t
0s
0r
1y
0c
0i
#589221313558
1t
0s
0r
1y
0c
0i
#589221314324
0t
0s
0r
1y
0c
0i
#589221315150
1t
0s
0r
1y
0c
0i
#589221315917
0t
0s
0r
1y
0c
0i
#589221316741
1t
0s
0r
1y
0c
0i
#589221317503
0t
0s
0r
1y
0c
0i
#589221318321
1t
0s
0r
1y
0c
0i
#589221319076
0t
0s
0r
1y
0c
0i
#589221319893
1t
0s
0r
1y
0c
0i
#589221320645
0t
0s
0r
1y
0c
0i
#589221321456
1t
0s
0r
1y
0c
0i
#589221322207
0t
0s
0r
1y
0c
0i
#589221323013
1t
0s
0r
1y
0c
0i
#589221323765
0t
0s
0r
1y
0c
0i
#589221324571
1t
0s
0r
1y
0c
0i
#589221325320
0t
0s
0r
1y
0c
0i
#589221326128
1t
0s
0r
1y
0c
0i
#589221326882
0t
0s
0r
1y
0c
0i
#589221327692
1t
0s
0r
1y
0c
0i
#589221328449
0t
0s
0r
1y
0c
0i
#589221329256
1t
0s
0r
1y
0c
0i
#589221330014
0t
0s
0r
1y
0c
0i
#589221330830
1t
0s
0r
1y
0c
0i
#589221331588
0t
0s
0r
1y
0c
0i
#589221332404
1t
0s
0r
1y
0c
0i
#589221333171
0t
0s
0r
1y
0c
0i
#589221333991
1t
0s
0r
1y
1c
0i
#589221334756
0t
0s
0r
1y
1c
0i
#589221335576
1t
0s
0r
1y
1c
1i
#589221336345
0t
0s
0r
1y
1c
1i
#589221337167
1t
0s
0r
1y
0c
1i
#589221337937
0t
0s
0r
1y
0c
0i
#589221338754
1t
0s
0r
1y
0c
0i
#589221339523
0t
0s
0r
1y
0c
0i
#589221340341
1t
0s
0r
1y
0c
0i
#589221341106
0t
0s
0r
1y
0c
0i
#589221341922
1t
0s
0r
1y
0c
0i
#589221342679
0t
0s
0r
1y
0c
0i
#589221343494
1t
0s
0r
1y
0c
0i
#589221344254
0t
0s
0r
1y
0c
0i
#589221345070
1t
0s
0r
1y
0c
0i
#589221345826
0t
0s
0r
1y
0c
0i
#589221346630
0t
1s
0r
1y
0c
0i
#589221346630
0t
0s
0r
1y
0c
0i
#589221346639
1t
0s
0r
1y
0c
0i
#589221347392
0t
0s
0r
1y
0c
0i
#589221348201
1t
0s
0r
1y
0c
0i
#589221348951
0t
0s
0r
1y
0c
0i
#589221349758
1t
0s
0r
1y
0c
0i
#589221350509
0t
0s
0r
1y
0c
0i
#589221351321
1t
0s
0r
1y
0c
0i
#589221352064
0t
0s
0r
1y
0c
0i
#589221352874
1t
0s
0r
1y
0c
0i
#589221353615
0t
0s
0r
1y
0c
0i
#589221354415
1t
0s
0r
1y
0c
0i
#589221355157
0t
0s
0r
1y
0c
0i
#589221355958
1t
0s
0r
1y
0c
0i
#589221356704
0t
0s
0r
1y
0c
0i
#589221357502
1t
0s
0r
1y
0c
0i
#589221358247
0t
0s
0r
1y
0c
0i
#589221359052
1t
0s
0r
1y
0c
0i
#589221359796
0t
0s
0r
1y
0c
0i
#589221360599
1t
0s
0r
1y
0c
0i
#589221361342
0t
0s
0r
1y
0c
0i
#589221362152
1t
0s
0r
1y
0c
0i
#589221362902
0t
0s
0r
1y
0c
0i
#589221363716
1t
0s
0r
1y
0c
0i
#589221364463
0t
0s
0r
1y
0c
0i
#589221365277
1t
0s
0r
1y
1c
0i
#589221366030
0t
0s
0r
1y
1c
0i
#589221366847
1t
0s
0r
1y
1c
1i
#589221367603
0t
0s
0r
1y
1c
1i
#589221368421
1t
0s
0r
1y
0c
1i
#589221369174
0t
0s
0r
1y
0c
0i
#589221369985
1t
0s
0r
1y
0c
0i
#589221370419
1t
0s
1r
1y
0c
0i
#589221370421
1t
0s
0r
1y
0c
0i
#589221370737
0t
0s
0r
1y
0c
0i
#589221371552
1t
0s
0r
1y
0c
0i
#589221372299
0t
0s
0r
1y
0c
0i
#589221373113
1t
0s
0r
1y
0c
0i
#589221376516
0t
0s
0r
1y
0c
0i
#589221377788
1t
0s
0r
1y
0c
0i
#589221378535
0t
0s
0r
1y
0c
0i
#589221379337
1t
0s
0r
1y
0c
0i
#589221380085
0t
0s
0r
1y
0c
0i
#589221380889
1t
0s
0r
1y
0c
0i
#589221381637
0t
0s
0r
1y
0c
0i
#589221382441
1t
0s
0r
1y
0c
0i
#589221383182
0t
0s
0r
1y
0c
0i
#589221383982
1t
0s
0r
1y
0c
0i
#589221384727
0t
0s
0r
1y
0c
0i
#589221385530
1t
0s
0r
1y
0c
0i
#589221386269
0t
0s
0r
1y
0c
0i
#589221387070
1t
0s
0r
1y
0c
0i
#589221387806
0t
0s
0r
1y
0c
0i
#589221388607
1t
0s
0r
1y
0c
0i
#589221389347
0t
0s
0r
1y
0c
0i
#589221390148
1t
0s
0r
1y
0c
0i
#589221390887
0t
0s
0r
1y
0c
0i
#589221391692
1t
0s
0r
1y
0c
0i
#589221392432
0t
0s
0r
1y
0c
0i
#589221393236
1t
0s
0r
1y
0c
0i
#589221393983
0t
0s
0r
1y
0c
0i
#589221394789
1t
0s
0r
1y
0c
0i
#589221395540
0t
0s
0r
1y
0c
0i
#589221396347
1t
0s
0r
1y
1c
0i
#589221397099
0t
0s
0r
1y
1c
0i
#589221397913
1t
0s
0r
1y
1c
1i
#589221398667
0t
0s
0r
1y
1c
1i
#589221399477
1t
0s
0r
1y
0c
1i
#589221400233
0t
0s
0r
1y
0c
0i
#589221401049
1t
0s
0r
1y
0c
0i
#589221401795
0t
0s
0r
1y
0c
0i
#589221402604
1t
0s
0r
1y
0c
0i
#589221403354
0t
0s
0r
1y
0c
0i
#589221404162
1t
0s
0r
1y
0c
0i
#589221404909
0t
0s
0r
1y
0c
0i
#589221405715
1t
0s
0r
1y
0c
0i
#589221406462
0t
0s
0r
1y
0c
0i
#589221407264
1t
0s
0r
1y
0c
0i
#589221408009
0t
0s
0r
1y
0c
0i
#589221408813
1t
0s
0r
1y
0c
0i
#589221409554
0t
0s
0r
1y
0c
0i
#589221410353
1t
0s
0r
1y
0c
0i
#589221411094
0t
0s
0r
1y
0c
0i
#589221411893
1t
0s
0r
1y
0c
0i
#589221412629
0t
0s
0r
1y
0c
0i
#589221413427
1t
0s
0r
1y
0c
0i
#589221414162
0t
0s
0r
1y
0c
0i
#589221414954
1t
0s
0r
1y
0c
0i
#589221415687
0t
0s
0r
1y
0c
0i
#589221416474
1t
0s
0r
1y
0c
0i
#589221417206
0t
0s
0r
1y
0c
0i
#589221417991
1t
0s
0r
1y
0c
0i
#589221418725
0t
0s
0r
1y
0c
0i
#589221419513
1t
0s
0r
1y
0c
0i
#589221420244
0t
0s
0r
1y
0c
0i
#589221421032
1t
0s
0r
1y
0c
0i
#589221421769
0t
0s
0r
1y
0c
0i
#589221422553
1t
0s
0r
1y
0c
0i
#589221423291
0t
0s
0r
1y
0c
0i
#589221424082
1t
0s
0r
1y
0c
0i
#589221424822
0t
0s
0r
1y
0c
0i
#589221425618
1t
0s
0r
1y
0c
0i
#589221426357
0t
0s
0r
1y
0c
0i
#589221427153
1t
0s
0r
1y
1c
0i
#589221427898
0t
0s
0r
1y
1c
0i
#589221428693
1t
0s
0r
1y
1c
1i
#589221429440
0t
0s
0r
1y
1c
1i
#589221430242
1t
0s
0r
1y
0c
1i
#589221430987
0t
0s
0r
1y
0c
0i
#589221431782
1t
0s
0r
1y
0c
0i
#589221432530
0t
0s
0r
1y
0c
0i
#589221433324
1t
0s
0r
1y
0c
0i
