rusefi_bundle_mega100/rusefi.snapshot.mega100/console/logs/rusEFI_trigger_log_2024-11-10_20_44_33_473.vcd
$date
	Sun Nov 10 20:44:33 CET 2024
$end
$version
        1.0
$end
$timescale
        1ps
$end
$scope module test $end
$var wire 1 t PRI_TRG $end
$var wire 1 s SEC_TRG $end
$var wire 1 r TRG $end
$var wire 1 y SYNC $end
$var wire 1 c COIL $end
$var wire 1 i INJ $end
$upscope $end
$enddefinitions $end
$dumpvars
#4297096710
0t
1s
0r
0y
0c
0i
#4297096710
0t
0s
0r
0y
0c
0i
#4297096794
0t
1s
0r
0y
0c
0i
#4297096794
0t
0s
0r
0y
0c
0i
#4297096846
0t
1s
0r
0y
0c
0i
#4297096846
0t
0s
0r
0y
0c
0i
#4297096950
0t
1s
0r
0y
0c
0i
#4297096950
0t
0s
0r
0y
0c
0i
#4297097002
0t
1s
0r
0y
0c
0i
#4297097002
0t
0s
0r
0y
0c
0i
#4297097054
0t
1s
0r
0y
0c
0i
#4297097054
0t
0s
0r
0y
0c
0i
#4297136920
0t
1s
0r
0y
0c
0i
#4297136920
0t
0s
0r
0y
0c
0i
#4297137004
0t
1s
0r
0y
0c
0i
#4297137004
0t
0s
0r
0y
0c
0i
#4297137056
0t
1s
0r
0y
0c
0i
#4297137056
0t
0s
0r
0y
0c
0i
#4297137108
0t
1s
0r
0y
0c
0i
#4297137108
0t
0s
0r
0y
0c
0i
#4297137160
0t
1s
0r
0y
0c
0i
#4297137160
0t
0s
0r
0y
0c
0i
#4297137212
0t
1s
0r
0y
0c
0i
#4297137212
0t
0s
0r
0y
0c
0i
#4297137264
0t
1s
0r
0y
0c
0i
#4297137264
0t
0s
0r
0y
0c
0i
#4297137316
0t
1s
0r
0y
0c
0i
#4297137316
0t
0s
0r
0y
0c
0i
#4297137368
0t
1s
0r
0y
0c
0i
#4297137368
0t
0s
0r
0y
0c
0i
#4297137420
0t
1s
0r
0y
0c
0i
#4297137420
0t
0s
0r
0y
0c
0i
#4297137472
0t
1s
0r
0y
0c
0i
#4297137472
0t
0s
0r
0y
0c
0i
#4297137524
0t
1s
0r
0y
0c
0i
#4297137524
0t
0s
0r
0y
0c
0i
#4297137576
0t
1s
0r
0y
0c
0i
#4297137576
0t
0s
0r
0y
0c
0i
#4297137628
0t
1s
0r
0y
0c
0i
#4297137628
0t
0s
0r
0y
0c
0i
#4297137680
0t
1s
0r
0y
0c
0i
#4297137680
0t
0s
0r
0y
0c
0i
#4297137732
0t
1s
0r
0y
0c
0i
#4297137732
0t
0s
0r
0y
0c
0i
#4312475742
1t
0s
0r
0y
0c
0i
#4312515953
1t
0s
0r
0y
0c
0i
#4312534282
1t
0s
0r
0y
0c
0i
#4312534334
1t
0s
0r
0y
0c
0i
#4312534386
1t
0s
0r
0y
0c
0i
#4312534438
1t
0s
0r
0y
0c
0i
#4312534490
1t
0s
0r
0y
0c
0i
#4312534542
1t
0s
0r
0y
0c
0i
#4312534594
1t
0s
0r
0y
0c
0i
#4312534646
1t
0s
0r
0y
0c
0i
#4312534698
1t
0s
0r
0y
0c
0i
#4312534700
1t
0s
0r
0y
0c
0i
#4312537542
1t
0s
0r
0y
0c
0i
#4312555819
1t
0s
0r
0y
0c
0i
#4312574097
1t
0s
0r
0y
0c
0i
#4312574181
1t
0s
0r
0y
0c
0i
#4312574233
1t
0s
0r
0y
0c
0i
#4312574337
1t
0s
0r
0y
0c
0i
#4312574441
1t
0s
0r
0y
0c
0i
#4312574493
1t
0s
0r
0y
0c
0i
#4312574545
1t
0s
0r
0y
0c
0i
#4312574597
1t
0s
0r
0y
0c
0i
#4312574649
1t
0s
0r
0y
0c
0i
#4312574753
1t
0s
0r
0y
0c
0i
#4312574805
1t
0s
0r
0y
0c
0i
#4312574857
1t
0s
0r
0y
0c
0i
#4312574909
1t
0s
0r
0y
0c
0i
#4312577752
1t
0s
0r
0y
0c
0i
#4312577940
1t
0s
0r
0y
0c
0i
#4312593082
1t
0s
0r
0y
0c
0i
#4312593134
1t
0s
0r
0y
0c
0i
#4312593186
1t
0s
0r
0y
0c
0i
#4312596030
0t
0s
0r
0y
0c
0i
#4312596064
1t
0s
0r
0y
0c
0i
#4312596114
0t
0s
0r
0y
0c
0i
#4312596116
1t
0s
0r
0y
0c
0i
#4312596166
1t
0s
0r
0y
0c
0i
#4312596166
1t
0s
0r
0y
0c
0i
#4312596218
1t
0s
0r
0y
0c
0i
#4312596270
0t
0s
0r
0y
0c
0i
#4312596272
1t
0s
0r
0y
0c
0i
#4312596322
0t
0s
0r
0y
0c
0i
#4312596324
1t
0s
0r
0y
0c
0i
#4312596374
1t
0s
0r
0y
0c
0i
#4312596426
1t
0s
0r
0y
0c
0i
#4312596478
1t
0s
0r
0y
0c
0i
#4312596530
0t
0s
0r
0y
0c
0i
#4312596532
1t
0s
0r
0y
0c
0i
#4312596582
1t
0s
0r
0y
0c
0i
#4312596634
1t
0s
0r
0y
0c
0i
#4312596686
1t
0s
0r
0y
0c
0i
#4312596738
1t
0s
0r
0y
0c
0i
#4312596790
1t
0s
0r
0y
0c
0i
#4312596842
1t
0s
0r
0y
0c
0i
#4312614307
1t
0s
0r
0y
0c
0i
#4312614391
1t
0s
0r
0y
0c
0i
#4312614443
1t
0s
0r
0y
0c
0i
#4312614495
1t
0s
0r
0y
0c
0i
#4312614547
1t
0s
0r
0y
0c
0i
#4312614599
1t
0s
0r
0y
0c
0i
#4312614651
0t
0s
0r
0y
0c
0i
#4312614653
1t
0s
0r
0y
0c
0i
#4312614703
1t
0s
0r
0y
0c
0i
#4312614755
1t
0s
0r
0y
0c
0i
#4312614807
0t
0s
0r
0y
0c
0i
#4312614809
1t
0s
0r
0y
0c
0i
#4312614859
1t
0s
0r
0y
0c
0i
#4312614911
1t
0s
0r
0y
0c
0i
#4312614963
1t
0s
0r
0y
0c
0i
#4312615015
1t
0s
0r
0y
0c
0i
#4312615017
1t
0s
0r
0y
0c
0i
#4312615067
1t
0s
0r
0y
0c
0i
#4312615119
1t
0s
0r
0y
0c
0i
#4312615121
1t
0s
0r
0y
0c
0i
#4312633241
1t
0s
0r
0y
0c
0i
#4312636240
0t
0s
0r
0y
0c
0i
#4312636274
1t
0s
0r
0y
0c
0i
#4312636324
0t
0s
0r
0y
0c
0i
#4312636326
1t
0s
0r
0y
0c
0i
#4312636376
0t
0s
0r
0y
0c
0i
#4312636378
1t
0s
0r
0y
0c
0i
#4312636428
0t
0s
0r
0y
0c
0i
#4312636430
1t
0s
0r
0y
0c
0i
#4312636480
0t
0s
0r
0y
0c
0i
#4312636482
1t
0s
0r
0y
0c
0i
#4312636532
1t
0s
0r
0y
0c
0i
#4312636584
0t
0s
0r
0y
0c
0i
#4312636586
1t
0s
0r
0y
0c
0i
#4312636636
0t
0s
0r
0y
0c
0i
#4312636638
1t
0s
0r
0y
0c
0i
#4312636688
1t
0s
0r
0y
0c
0i
#4312636690
1t
0s
0r
0y
0c
0i
#4312636740
1t
0s
0r
0y
0c
0i
#4312636792
1t
0s
0r
0y
0c
0i
#4312636844
1t
0s
0r
0y
0c
0i
#4312636896
0t
0s
0r
0y
0c
0i
#4312636898
1t
0s
0r
0y
0c
0i
#4312636948
1t
0s
0r
0y
0c
0i
#4312637000
1t
0s
0r
0y
0c
0i
#4312637052
1t
0s
0r
0y
0c
0i
#4312654518
0t
0s
0r
0y
0c
0i
#4312654552
1t
0s
0r
0y
0c
0i
#4312654602
0t
0s
0r
0y
0c
0i
#4312654604
1t
0s
0r
0y
0c
0i
#4312654654
0t
0s
0r
0y
0c
0i
#4312654656
1t
0s
0r
0y
0c
0i
#4312654706
0t
0s
0r
0y
0c
0i
#4312654708
1t
0s
0r
0y
0c
0i
#4312654758
0t
0s
0r
0y
0c
0i
#4312654760
1t
0s
0r
0y
0c
0i
#4312654810
0t
0s
0r
0y
0c
0i
#4312654812
1t
0s
0r
0y
0c
0i
#4312654862
0t
0s
0r
0y
0c
0i
#4312654864
1t
0s
0r
0y
0c
0i
#4312654914
0t
0s
0r
0y
0c
0i
#4312654916
1t
0s
0r
0y
0c
0i
#4312654966
0t
0s
0r
0y
0c
0i
#4312654968
1t
0s
0r
0y
0c
0i
#4312655018
1t
0s
0r
0y
0c
0i
#4312655020
1t
0s
0r
0y
0c
0i
#4312655070
0t
0s
0r
0y
0c
0i
#4312655072
1t
0s
0r
0y
0c
0i
#4312655122
1t
0s
0r
0y
0c
0i
#4312655124
1t
0s
0r
0y
0c
0i
#4312655174
0t
0s
0r
0y
0c
0i
#4312655176
1t
0s
0r
0y
0c
0i
#4312655226
0t
0s
0r
0y
0c
0i
#4312655228
1t
0s
0r
0y
0c
0i
#4312655278
0t
0s
0r
0y
0c
0i
#4312655280
1t
0s
0r
0y
0c
0i
#4312655330
0t
0s
0r
0y
0c
0i
#4312655332
1t
0s
0r
0y
0c
0i
#4312673140
1t
0s
0r
0y
0c
0i
#4312673191
1t
0s
0r
0y
0c
0i
#4312673243
1t
0s
0r
0y
0c
0i
#4312673295
1t
0s
0r
0y
0c
0i
#4312673347
1t
0s
0r
0y
0c
0i
#4312673399
1t
0s
0r
0y
0c
0i
#4312673451
1t
0s
0r
0y
0c
0i
#4312673503
1t
0s
0r
0y
0c
0i
#4312673555
1t
0s
0r
0y
0c
0i
#4312673607
1t
0s
0r
0y
0c
0i
#4312676451
0t
0s
0r
0y
0c
0i
#4312676485
1t
0s
0r
0y
0c
0i
#4312676535
1t
0s
0r
0y
0c
0i
#4312676536
1t
0s
0r
0y
0c
0i
#4312676587
0t
0s
0r
0y
0c
0i
#4312676589
1t
0s
0r
0y
0c
0i
#4312676639
0t
0s
0r
0y
0c
0i
#4312676641
1t
0s
0r
0y
0c
0i
#4312676691
0t
0s
0r
0y
0c
0i
#4312676693
1t
0s
0r
0y
0c
0i
#4312676743
0t
0s
0r
0y
0c
0i
#4312676745
1t
0s
0r
0y
0c
0i
#4312676795
0t
0s
0r
0y
0c
0i
#4312676797
1t
0s
0r
0y
0c
0i
#4312676847
0t
0s
0r
0y
0c
0i
#4312676849
1t
0s
0r
0y
0c
0i
#4312676899
0t
0s
0r
0y
0c
0i
#4312676901
1t
0s
0r
0y
0c
0i
#4312676951
0t
0s
0r
0y
0c
0i
#4312676953
1t
0s
0r
0y
0c
0i
#4312677003
1t
0s
0r
0y
0c
0i
#4312677055
1t
0s
0r
0y
0c
0i
#4312677057
1t
0s
0r
0y
0c
0i
#4312677107
1t
0s
0r
0y
0c
0i
#4312677159
0t
0s
0r
0y
0c
0i
#4312677161
1t
0s
0r
0y
0c
0i
#4312677211
0t
0s
0r
0y
0c
0i
#4312677213
1t
0s
0r
0y
0c
0i
#4312677263
1t
0s
0r
0y
0c
0i
#4312677264
1t
0s
0r
0y
0c
0i
#4312694728
0t
0s
0r
0y
0c
0i
#4312694762
1t
0s
0r
0y
0c
0i
#4312694812
0t
0s
0r
0y
0c
0i
#4312694814
1t
0s
0r
0y
0c
0i
#4312694864
0t
0s
0r
0y
0c
0i
#4312694866
1t
0s
0r
0y
0c
0i
#4312694916
0t
0s
0r
0y
0c
0i
#4312694918
1t
0s
0r
0y
0c
0i
#4312694968
0t
0s
0r
0y
0c
0i
#4312694970
1t
0s
0r
0y
0c
0i
#4312695020
1t
0s
0r
0y
0c
0i
#4312695022
1t
0s
0r
0y
0c
0i
#4312695072
0t
0s
0r
0y
0c
0i
#4312695074
1t
0s
0r
0y
0c
0i
#4312695124
0t
0s
0r
0y
0c
0i
#4312695126
1t
0s
0r
0y
0c
0i
#4312695176
0t
0s
0r
0y
0c
0i
#4312695178
1t
0s
0r
0y
0c
0i
#4312695228
0t
0s
0r
0y
0c
0i
#4312695230
1t
0s
0r
0y
0c
0i
#4312695280
0t
0s
0r
0y
0c
0i
#4312695282
1t
0s
0r
0y
0c
0i
#4312695332
0t
0s
0r
0y
0c
0i
#4312695334
1t
0s
0r
0y
0c
0i
#4312695384
0t
0s
0r
0y
0c
0i
#4312695386
1t
0s
0r
0y
0c
0i
#4312695436
0t
0s
0r
0y
0c
0i
#4312695438
1t
0s
0r
0y
0c
0i
#4312695488
0t
0s
0r
0y
0c
0i
#4312695490
1t
0s
0r
0y
0c
0i
#4312695540
1t
0s
0r
0y
0c
0i
#4312695542
1t
0s
0r
0y
0c
0i
#4312713006
1t
0s
0r
0y
0c
0i
#4312713090
0t
0s
0r
0y
0c
0i
#4312713092
1t
0s
0r
0y
0c
0i
#4312713142
1t
0s
0r
0y
0c
0i
#4312713144
1t
0s
0r
0y
0c
0i
#4312713194
0t
0s
0r
0y
0c
0i
#4312713196
1t
0s
0r
0y
0c
0i
#4312713246
0t
0s
0r
0y
0c
0i
#4312713248
1t
0s
0r
0y
0c
0i
#4312713298
0t
0s
0r
0y
0c
0i
#4312713300
1t
0s
0r
0y
0c
0i
#4312713350
0t
0s
0r
0y
0c
0i
#4312713352
1t
0s
0r
0y
0c
0i
#4312713402
0t
0s
0r
0y
0c
0i
#4312713404
1t
0s
0r
0y
0c
0i
#4312713454
0t
0s
0r
0y
0c
0i
#4312713456
1t
0s
0r
0y
0c
0i
#4312713506
0t
0s
0r
0y
0c
0i
#4312713508
1t
0s
0r
0y
0c
0i
#4312713558
1t
0s
0r
0y
0c
0i
#4312713610
1t
0s
0r
0y
0c
0i
#4312713662
0t
0s
0r
0y
0c
0i
#4312713664
1t
0s
0r
0y
0c
0i
#4312713714
0t
0s
0r
0y
0c
0i
#4312713716
1t
0s
0r
0y
0c
0i
#4312713766
0t
0s
0r
0y
0c
0i
#4312713768
1t
0s
0r
0y
0c
0i
#4312713818
1t
0s
0r
0y
0c
0i
#4312716661
1t
0s
0r
0y
0c
0i
#4312716745
1t
0s
0r
0y
0c
0i
#4312716797
1t
0s
0r
0y
0c
0i
#4312716849
1t
0s
0r
0y
0c
0i
#4312716850
1t
0s
0r
0y
0c
0i
#4312716901
1t
0s
0r
0y
0c
0i
#4312716953
1t
0s
0r
0y
0c
0i
#4312717005
1t
0s
0r
0y
0c
0i
#4312717057
1t
0s
0r
0y
0c
0i
#4312717109
1t
0s
0r
0y
0c
0i
#4312717161
1t
0s
0r
0y
0c
0i
#4312717213
1t
0s
0r
0y
0c
0i
#4312717265
1t
0s
0r
0y
0c
0i
#4312717317
1t
0s
0r
0y
0c
0i
#4312717369
1t
0s
0r
0y
0c
0i
#4312717421
1t
0s
0r
0y
0c
0i
#4312717473
1t
0s
0r
0y
0c
0i
#4312734939
0t
0s
0r
0y
0c
0i
#4312734973
1t
0s
0r
0y
0c
0i
#4312735023
1t
0s
0r
0y
0c
0i
#4312735025
1t
0s
0r
0y
0c
0i
#4312735075
0t
0s
0r
0y
0c
0i
#4312735077
1t
0s
0r
0y
0c
0i
#4312735127
0t
0s
0r
0y
0c
0i
#4312735129
1t
0s
0r
0y
0c
0i
#4312735179
0t
0s
0r
0y
0c
0i
#4312735181
1t
0s
0r
0y
0c
0i
#4312735231
0t
0s
0r
0y
0c
0i
#4312735233
1t
0s
0r
0y
0c
0i
#4312735283
0t
0s
0r
0y
0c
0i
#4312735285
1t
0s
0r
0y
0c
0i
#4312735335
0t
0s
0r
0y
0c
0i
#4312735337
1t
0s
0r
0y
0c
0i
#4312735387
0t
0s
0r
0y
0c
0i
#4312735389
1t
0s
0r
0y
0c
0i
#4312735439
0t
0s
0r
0y
0c
0i
#4312735441
1t
0s
0r
0y
0c
0i
#4312735491
0t
0s
0r
0y
0c
0i
#4312735493
1t
0s
0r
0y
0c
0i
#4312735543
0t
0s
0r
0y
0c
0i
#4312735545
1t
0s
0r
0y
0c
0i
#4312735595
0t
0s
0r
0y
0c
0i
#4312735597
1t
0s
0r
0y
0c
0i
#4312735647
1t
0s
0r
0y
0c
0i
#4312735649
1t
0s
0r
0y
0c
0i
#4312735699
1t
0s
0r
0y
0c
0i
#4312735701
1t
0s
0r
0y
0c
0i
#4312735751
1t
0s
0r
0y
0c
0i
#4312735753
1t
0s
0r
0y
0c
0i
#4312753216
0t
0s
0r
0y
0c
0i
#4312753250
1t
0s
0r
0y
0c
0i
#4312753300
0t
0s
0r
0y
0c
0i
#4312753302
1t
0s
0r
0y
0c
0i
#4312753352
1t
0s
0r
0y
0c
0i
#4312753354
1t
0s
0r
0y
0c
0i
#4312753404
0t
0s
0r
0y
0c
0i
#4312753406
1t
0s
0r
0y
0c
0i
#4312753456
0t
0s
0r
0y
0c
0i
#4312753458
1t
0s
0r
0y
0c
0i
#4312753508
0t
0s
0r
0y
0c
0i
#4312753510
1t
0s
0r
0y
0c
0i
#4312753560
0t
0s
0r
0y
0c
0i
#4312753562
1t
0s
0r
0y
0c
0i
#4312753612
0t
0s
0r
0y
0c
0i
#4312753614
1t
0s
0r
0y
0c
0i
#4312753664
0t
0s
0r
0y
0c
0i
#4312753666
1t
0s
0r
0y
0c
0i
#4312753716
0t
0s
0r
0y
0c
0i
#4312753718
1t
0s
0r
0y
0c
0i
#4312753768
0t
0s
0r
0y
0c
0i
#4312753770
1t
0s
0r
0y
0c
0i
#4312753820
0t
0s
0r
0y
0c
0i
#4312753822
1t
0s
0r
0y
0c
0i
#4312753872
0t
0s
0r
0y
0c
0i
#4312753874
1t
0s
0r
0y
0c
0i
#4312753924
0t
0s
0r
0y
0c
0i
#4312753926
1t
0s
0r
0y
0c
0i
#4312753976
0t
0s
0r
0y
0c
0i
#4312753978
1t
0s
0r
0y
0c
0i
#4312754028
1t
0s
0r
0y
0c
0i
#4312754030
1t
0s
0r
0y
0c
0i
#4312756872
1t
0s
0r
0y
0c
0i
#4312756956
1t
0s
0r
0y
0c
0i
#4312757008
1t
0s
0r
0y
0c
0i
#4312757060
0t
0s
0r
0y
0c
0i
#4312757062
1t
0s
0r
0y
0c
0i
#4312757112
0t
0s
0r
0y
0c
0i
#4312757114
1t
0s
0r
0y
0c
0i
#4312757164
0t
0s
0r
0y
0c
0i
#4312757166
1t
0s
0r
0y
0c
0i
#4312757216
1t
0s
0r
0y
0c
0i
#4312757268
1t
0s
0r
0y
0c
0i
#4312757320
0t
0s
0r
0y
0c
0i
#4312757322
1t
0s
0r
0y
0c
0i
#4312757372
0t
0s
0r
0y
0c
0i
#4312757374
1t
0s
0r
0y
0c
0i
#4312757424
1t
0s
0r
0y
0c
0i
#4312757476
1t
0s
0r
0y
0c
0i
#4312757528
1t
0s
0r
0y
0c
0i
#4312757580
1t
0s
0r
0y
0c
0i
#4312757632
1t
0s
0r
0y
0c
0i
#4312757684
1t
0s
0r
0y
0c
0i
#4312775149
0t
0s
0r
0y
0c
0i
#4312775183
1t
0s
0r
0y
0c
0i
#4312775233
0t
0s
0r
0y
0c
0i
#4312775235
1t
0s
0r
0y
0c
0i
#4312775285
0t
0s
0r
0y
0c
0i
#4312775287
1t
0s
0r
0y
0c
0i
#4312775337
0t
0s
0r
0y
0c
0i
#4312775339
1t
0s
0r
0y
0c
0i
#4312775389
0t
0s
0r
0y
0c
0i
#4312775391
1t
0s
0r
0y
0c
0i
#4312775441
0t
0s
0r
0y
0c
0i
#4312775443
1t
0s
0r
0y
0c
0i
#4312775493
0t
0s
0r
0y
0c
0i
#4312775495
1t
0s
0r
0y
0c
0i
#4312775545
0t
0s
0r
0y
0c
0i
#4312775547
1t
0s
0r
0y
0c
0i
#4312775597
0t
0s
0r
0y
0c
0i
#4312775599
1t
0s
0r
0y
0c
0i
#4312775649
0t
0s
0r
0y
0c
0i
#4312775651
1t
0s
0r
0y
0c
0i
#4312775701
0t
0s
0r
0y
0c
0i
#4312775703
1t
0s
0r
0y
0c
0i
#4312775754
1t
0s
0r
0y
0c
0i
#4312775755
1t
0s
0r
0y
0c
0i
#4312775805
0t
0s
0r
0y
0c
0i
#4312775807
1t
0s
0r
0y
0c
0i
#4312775857
0t
0s
0r
0y
0c
0i
#4312775859
1t
0s
0r
0y
0c
0i
#4312775909
0t
0s
0r
0y
0c
0i
#4312775911
1t
0s
0r
0y
0c
0i
#4312775961
1t
0s
0r
0y
0c
0i
#4312775963
1t
0s
0r
0y
0c
0i
#4312793427
0t
0s
0r
0y
0c
0i
#4312793461
1t
0s
0r
0y
0c
0i
#4312793511
0t
0s
0r
0y
0c
0i
#4312793513
1t
0s
0r
0y
0c
0i
#4312793563
0t
0s
0r
0y
0c
0i
#4312793565
1t
0s
0r
0y
0c
0i
#4312793615
0t
0s
0r
0y
0c
0i
#4312793617
1t
0s
0r
0y
0c
0i
#4312793667
0t
0s
0r
0y
0c
0i
#4312793669
1t
0s
0r
0y
0c
0i
#4312793719
0t
0s
0r
0y
0c
0i
#4312793721
1t
0s
0r
0y
0c
0i
#4312793771
0t
0s
0r
0y
0c
0i
#4312793773
1t
0s
0r
0y
0c
0i
#4312793823
0t
0s
0r
0y
0c
0i
#4312793825
1t
0s
0r
0y
0c
0i
#4312793875
0t
0s
0r
0y
0c
0i
#4312793877
1t
0s
0r
0y
0c
0i
#4312793927
0t
0s
0r
0y
0c
0i
#4312793929
1t
0s
0r
0y
0c
0i
#4312793979
0t
0s
0r
0y
0c
0i
#4312793981
1t
0s
0r
0y
0c
0i
#4312794031
0t
0s
0r
0y
0c
0i
#4312794033
1t
0s
0r
0y
0c
0i
#4312794083
0t
0s
0r
0y
0c
0i
#4312794085
1t
0s
0r
0y
0c
0i
#4312794135
0t
0s
0r
0y
0c
0i
#4312794137
1t
0s
0r
0y
0c
0i
#4312794187
0t
0s
0r
0y
0c
0i
#4312794189
1t
0s
0r
0y
0c
0i
#4312794239
0t
0s
0r
0y
0c
0i
#4312794241
1t
0s
0r
0y
0c
0i
#4312797082
1t
0s
0r
0y
0c
0i
#4312797166
0t
0s
0r
0y
0c
0i
#4312797168
1t
0s
0r
0y
0c
0i
#4312797218
0t
0s
0r
0y
0c
0i
#4312797220
1t
0s
0r
0y
0c
0i
#4312797270
0t
0s
0r
0y
0c
0i
#4312797272
1t
0s
0r
0y
0c
0i
#4312797322
0t
0s
0r
0y
0c
0i
#4312797324
1t
0s
0r
0y
0c
0i
#4312797374
0t
0s
0r
0y
0c
0i
#4312797376
1t
0s
0r
0y
0c
0i
#4312797426
0t
0s
0r
0y
0c
0i
#4312797428
1t
0s
0r
0y
0c
0i
#4312797478
0t
0s
0r
0y
0c
0i
#4312797480
1t
0s
0r
0y
0c
0i
#4312797530
1t
0s
0r
0y
0c
0i
#4312797582
0t
0s
0r
0y
0c
0i
#4312797584
1t
0s
0r
0y
0c
0i
#4312797634
0t
0s
0r
0y
0c
0i
#4312797636
1t
0s
0r
0y
0c
0i
#4312797686
0t
0s
0r
0y
0c
0i
#4312797688
1t
0s
0r
0y
0c
0i
#4312797738
1t
0s
0r
0y
0c
0i
#4312797790
0t
0s
0r
0y
0c
0i
#4312797792
1t
0s
0r
0y
0c
0i
#4312797842
1t
0s
0r
0y
0c
0i
#4312797843
1t
0s
0r
0y
0c
0i
#4312797894
1t
0s
0r
0y
0c
0i
#4312811840
1t
0s
0r
0y
0c
0i
#4312811996
1t
0s
0r
0y
0c
0i
#4312812100
1t
0s
0r
0y
0c
0i
#4312812152
1t
0s
0r
0y
0c
0i
#4312812204
1t
0s
0r
0y
0c
0i
#4312812256
1t
0s
0r
0y
0c
0i
#4312812308
1t
0s
0r
0y
0c
0i
#4312812360
1t
0s
0r
0y
0c
0i
#4312812412
1t
0s
0r
0y
0c
0i
#4312812464
0t
0s
0r
0y
0c
0i
#4312812466
1t
0s
0r
0y
0c
0i
#4312812516
1t
0s
0r
0y
0c
0i
#4312812518
1t
0s
0r
0y
0c
0i
#4312815360
0t
0s
0r
0y
0c
0i
#4312815394
1t
0s
0r
0y
0c
0i
#4312815444
0t
0s
0r
0y
0c
0i
#4312815446
1t
0s
0r
0y
0c
0i
#4312815496
0t
0s
0r
0y
0c
0i
#4312815498
1t
0s
0r
0y
0c
0i
#4312815548
0t
0s
0r
0y
0c
0i
#4312815550
1t
0s
0r
0y
0c
0i
#4312815600
0t
0s
0r
0y
0c
0i
#4312815602
1t
0s
0r
0y
0c
0i
#4312815652
1t
0s
0r
0y
0c
0i
#4312815654
1t
0s
0r
0y
0c
0i
#4312815704
0t
0s
0r
0y
0c
0i
#4312815706
1t
0s
0r
0y
0c
0i
#4312815756
0t
0s
0r
0y
0c
0i
#4312815758
1t
0s
0r
0y
0c
0i
#4312815808
0t
0s
0r
0y
0c
0i
#4312815810
1t
0s
0r
0y
0c
0i
#4312815860
0t
0s
0r
0y
0c
0i
#4312815862
1t
0s
0r
0y
0c
0i
#4312815912
0t
0s
0r
0y
0c
0i
#4312815914
1t
0s
0r
0y
0c
0i
#4312815964
0t
0s
0r
0y
0c
0i
#4312815966
1t
0s
0r
0y
0c
0i
#4312816016
1t
0s
0r
0y
0c
0i
#4312816018
1t
0s
0r
0y
0c
0i
#4312816068
0t
0s
0r
0y
0c
0i
#4312816070
1t
0s
0r
0y
0c
0i
#4312816120
0t
0s
0r
0y
0c
0i
#4312816122
1t
0s
0r
0y
0c
0i
#4312816172
0t
0s
0r
0y
0c
0i
#4312816174
1t
0s
0r
0y
0c
0i
#4312833637
0t
0s
0r
0y
0c
0i
#4312833671
1t
0s
0r
0y
0c
0i
#4312833721
0t
0s
0r
0y
0c
0i
#4312833723
1t
0s
0r
0y
0c
0i
#4312833773
0t
0s
0r
0y
0c
0i
#4312833775
1t
0s
0r
0y
0c
0i
#4312833825
0t
0s
0r
0y
0c
0i
#4312833827
1t
0s
0r
0y
0c
0i
#4312833877
0t
0s
0r
0y
0c
0i
#4312833879
1t
0s
0r
0y
0c
0i
#4312833929
0t
0s
0r
0y
0c
0i
#4312833931
1t
0s
0r
0y
0c
0i
#4312833981
0t
0s
0r
0y
0c
0i
#4312833983
1t
0s
0r
0y
0c
0i
#4312834033
0t
0s
0r
0y
0c
0i
#4312834035
1t
0s
0r
0y
0c
0i
#4312834085
0t
0s
0r
0y
0c
0i
#4312834087
1t
0s
0r
0y
0c
0i
#4312834137
0t
0s
0r
0y
0c
0i
#4312834139
1t
0s
0r
0y
0c
0i
#4312834189
0t
0s
0r
0y
0c
0i
#4312834191
1t
0s
0r
0y
0c
0i
#4312834241
0t
0s
0r
0y
0c
0i
#4312834243
1t
0s
0r
0y
0c
0i
#4312834293
0t
0s
0r
0y
0c
0i
#4312834295
1t
0s
0r
0y
0c
0i
#4312834345
0t
0s
0r
0y
0c
0i
#4312834347
1t
0s
0r
0y
0c
0i
#4312834397
0t
0s
0r
0y
0c
0i
#4312834399
1t
0s
0r
0y
0c
0i
#4312834449
1t
0s
0r
0y
0c
0i
#4312834451
1t
0s
0r
0y
0c
0i
#4312837293
0t
0s
0r
0y
0c
0i
#4312837327
1t
0s
0r
0y
0c
0i
#4312837377
0t
0s
0r
0y
0c
0i
#4312837379
1t
0s
0r
0y
0c
0i
#4312837429
0t
0s
0r
0y
0c
0i
#4312837431
1t
0s
0r
0y
0c
0i
#4312837481
0t
0s
0r
0y
0c
0i
#4312837483
1t
0s
0r
0y
0c
0i
#4312837533
0t
0s
0r
0y
0c
0i
#4312837535
1t
0s
0r
0y
0c
0i
#4312837585
0t
0s
0r
0y
0c
0i
#4312837587
1t
0s
0r
0y
0c
0i
#4312837637
0t
0s
0r
0y
0c
0i
#4312837639
1t
0s
0r
0y
0c
0i
#4312837689
0t
0s
0r
0y
0c
0i
#4312837691
1t
0s
0r
0y
0c
0i
#4312837741
1t
0s
0r
0y
0c
0i
#4312837743
1t
0s
0r
0y
0c
0i
#4312837793
0t
0s
0r
0y
0c
0i
#4312837795
1t
0s
0r
0y
0c
0i
#4312837845
0t
0s
0r
0y
0c
0i
#4312837847
1t
0s
0r
0y
0c
0i
#4312837897
0t
0s
0r
0y
0c
0i
#4312837899
1t
0s
0r
0y
0c
0i
#4312837949
0t
0s
0r
0y
0c
0i
#4312837951
1t
0s
0r
0y
0c
0i
#4312838001
0t
0s
0r
0y
0c
0i
#4312838003
1t
0s
0r
0y
0c
0i
#4312838053
0t
0s
0r
0y
0c
0i
#4312838055
1t
0s
0r
0y
0c
0i
#4312838105
0t
0s
0r
0y
0c
0i
#4312838106
1t
0s
0r
0y
0c
0i
#4312851915
1t
0s
0r
0y
0c
0i
#4312851999
1t
0s
0r
0y
0c
0i
#4312852051
1t
0s
0r
0y
0c
0i
#4312852103
1t
0s
0r
0y
0c
0i
#4312852155
1t
0s
0r
0y
0c
0i
#4312852207
1t
0s
0r
0y
0c
0i
#4312852259
0t
0s
0r
0y
0c
0i
#4312852261
1t
0s
0r
0y
0c
0i
#4312852311
0t
0s
0r
0y
0c
0i
#4312852313
1t
0s
0r
0y
0c
0i
#4312852363
1t
0s
0r
0y
0c
0i
#4312852415
0t
0s
0r
0y
0c
0i
#4312852417
1t
0s
0r
0y
0c
0i
#4312852467
1t
0s
0r
0y
0c
0i
#4312852469
1t
0s
0r
0y
0c
0i
#4312852519
1t
0s
0r
0y
0c
0i
#4312852521
1t
0s
0r
0y
0c
0i
#4312852571
0t
0s
0r
0y
0c
0i
#4312852573
1t
0s
0r
0y
0c
0i
#4312852623
0t
0s
0r
0y
0c
0i
#4312852625
1t
0s
0r
0y
0c
0i
#4312852675
0t
0s
0r
0y
0c
0i
#4312852677
1t
0s
0r
0y
0c
0i
#4312852727
0t
0s
0r
0y
0c
0i
#4312852729
1t
0s
0r
0y
0c
0i
#4312855570
0t
0s
0r
0y
0c
0i
#4312855604
1t
0s
0r
0y
0c
0i
#4312855654
0t
0s
0r
0y
0c
0i
#4312855656
1t
0s
0r
0y
0c
0i
#4312855706
0t
0s
0r
0y
0c
0i
#4312855708
1t
0s
0r
0y
0c
0i
#4312855758
0t
0s
0r
0y
0c
0i
#4312855760
1t
0s
0r
0y
0c
0i
#4312855810
0t
0s
0r
0y
0c
0i
#4312855812
1t
0s
0r
0y
0c
0i
#4312855862
0t
0s
0r
0y
0c
0i
