rusefi_bundle_mega100/rusefi.snapshot.mega100/console/logs/rusEFI_trigger_log_2024-11-12_07_13_56_752.vcd
$date
	Tue Nov 12 07:13:56 CET 2024
$end
$version
        1.0
$end
$timescale
        1ps
$end
$scope module test $end
$var wire 1 t PRI_TRG $end
$var wire 1 s SEC_TRG $end
$var wire 1 r TRG $end
$var wire 1 y SYNC $end
$var wire 1 c COIL $end
$var wire 1 i INJ $end
$upscope $end
$enddefinitions $end
$dumpvars
#221435593
1t
0s
0r
0y
0c
0i
#221435753
1t
1s
0r
0y
0c
0i
#221435753
1t
0s
0r
0y
0c
0i
#221436255
1t
1s
0r
0y
0c
0i
#221436255
1t
0s
0r
0y
0c
0i
#230685256
0t
0s
0r
0y
0c
0i
#230693305
1t
0s
0r
0y
0c
0i
#230700204
0t
0s
0r
0y
0c
0i
#230706651
1t
0s
0r
0y
0c
0i
#230712836
0t
0s
0r
0y
0c
0i
#230718566
1t
0s
0r
0y
0c
0i
#230724151
0t
0s
0r
0y
0c
0i
#230729451
1t
0s
0r
0y
0c
0i
#230734613
0t
0s
0r
0y
0c
0i
#230739712
1t
0s
0r
0y
0c
0i
#230744585
0t
0s
0r
0y
0c
0i
#230749444
1t
0s
0r
0y
0c
0i
#230754117
0t
0s
0r
0y
0c
0i
#230758856
1t
0s
0r
0y
0c
0i
#230763366
0t
0s
0r
0y
0c
0i
#230767926
1t
0s
0r
0y
0c
0i
#230772261
0t
0s
0r
0y
0c
0i
#230776667
1t
0s
0r
0y
0c
0i
#230780855
0t
0s
0r
0y
0c
0i
#230785121
1t
0s
0r
0y
0c
0i
#230789174
0t
0s
0r
0y
0c
0i
#230793291
1t
0s
0r
0y
0c
0i
#230797215
0t
0s
0r
0y
0c
0i
#230801253
1t
0s
0r
0y
0c
0i
#230805055
0t
0s
0r
0y
0c
0i
#230808950
1t
0s
0r
0y
0c
0i
#230812661
0t
0s
0r
0y
0c
0i
#230816521
1t
0s
0r
0y
0c
0i
#230820164
0t
0s
0r
0y
0c
0i
#230823947
1t
0s
0r
0y
0c
0i
#230827528
0t
0s
0r
0y
0c
0i
#230831264
1t
0s
0r
0y
0c
0i
#230834837
0t
0s
0r
0y
0c
0i
#230838577
1t
0s
0r
0y
0c
0i
#230842155
0t
0s
0r
0y
0c
0i
#230845877
1t
0s
0r
0y
0c
0i
#230849438
0t
0s
0r
0y
0c
0i
#230853215
1t
0s
0r
0y
0c
0i
#230856790
0t
0s
0r
0y
0c
0i
#230860582
1t
0s
0r
0y
0c
0i
#230864235
0t
0s
0r
0y
0c
0i
#230868102
1t
0s
0r
0y
0c
0i
#230871830
0t
0s
0r
0y
0c
0i
#230875805
1t
0s
0r
0y
0c
0i
#230879623
0t
0s
0r
0y
0c
0i
#230883694
1t
0s
0r
0y
0c
0i
#230887616
0t
0s
0r
0y
0c
0i
#230891860
1t
0s
0r
0y
0c
0i
#230895927
0t
0s
0r
0y
0c
0i
#230900303
1t
0s
0r
0y
0c
0i
#230904577
0t
0s
0r
0y
0c
0i
#230909149
1t
0s
0r
0y
0c
0i
#230913543
0t
0s
0r
0y
0c
0i
#230918227
1t
0s
0r
0y
0c
0i
#230922701
0t
0s
0r
0y
0c
0i
#230927403
1t
0s
0r
0y
0c
0i
#230931820
0t
0s
0r
0y
0c
0i
#230936433
1t
0s
0r
0y
0c
0i
#230940714
0t
0s
0r
0y
0c
0i
#230945048
1t
0s
0r
0y
0c
0i
#230949093
0t
0s
0r
0y
0c
0i
#230953194
1t
0s
0r
0y
0c
0i
#230956891
0t
0s
0r
0y
0c
0i
#230960630
1t
0s
0r
0y
0c
0i
#230966055
0t
0s
0r
0y
0c
0i
#230979803
1t
0s
0r
0y
0c
0i
#230982762
0t
0s
0r
1y
0c
0i
#230985702
1t
0s
0r
1y
0c
0i
#230988596
0t
0s
0r
1y
0c
0i
#230991556
1t
0s
0r
1y
0c
0i
#230994457
0t
0s
0r
1y
0c
0i
#230997495
1t
0s
0r
1y
0c
0i
#231000479
0t
0s
0r
1y
0c
0i
#231003662
1t
0s
0r
1y
0c
0i
#231006822
0t
0s
0r
1y
0c
0i
#231010272
1t
0s
0r
1y
0c
0i
#231013756
0t
0s
0r
1y
0c
0i
#231017499
1t
0s
0r
1y
0c
0i
#231020841
0t
0s
0r
1y
0c
0i
#231023933
1t
0s
0r
1y
0c
0i
#231026911
0t
0s
0r
1y
0c
0i
#231030354
1t
0s
0r
1y
0c
0i
#231033566
0t
0s
0r
1y
0c
0i
#231036951
1t
0s
0r
1y
0c
0i
#231040179
0t
0s
0r
1y
0c
1i
#231043692
1t
0s
0r
1y
0c
1i
#231047080
0t
0s
0r
1y
0c
1i
#231050665
1t
0s
0r
1y
1c
1i
#231054061
0t
0s
0r
1y
0c
1i
#231057704
1t
0s
0r
1y
0c
1i
#231061195
0t
0s
0r
1y
0c
1i
#231064977
1t
0s
0r
1y
0c
1i
#231068599
0t
0s
0r
1y
0c
1i
#231072239
1t
0s
0r
1y
0c
1i
#231075513
0t
0s
0r
1y
0c
1i
#231078771
1t
0s
0r
1y
0c
0i
#231081543
0t
0s
0r
1y
0c
0i
#231084147
1t
0s
0r
1y
0c
0i
#231086356
0t
0s
0r
1y
0c
0i
#231088476
1t
0s
0r
1y
0c
0i
#231090329
0t
0s
0r
1y
0c
0i
#231092150
1t
0s
0r
1y
0c
0i
#231093765
0t
0s
0r
1y
0c
0i
#231095396
1t
0s
0r
1y
0c
0i
#231096883
0t
0s
0r
1y
0c
0i
#231098402
1t
0s
0r
1y
0c
0i
#231099819
0t
0s
0r
1y
0c
0i
#231101280
1t
0s
0r
1y
0c
0i
#231102645
0t
0s
0r
1y
0c
0i
#231104074
1t
0s
0r
1y
0c
0i
#231105413
0t
0s
0r
1y
0c
0i
#231106820
1t
0s
0r
1y
0c
0i
#231108133
0t
0s
0r
1y
0c
0i
#231109518
1t
0s
0r
1y
0c
0i
#231110817
0t
0s
0r
1y
0c
0i
#231112186
1t
0s
0r
1y
0c
0i
#231113476
0t
0s
0r
1y
0c
0i
#231114842
1t
0s
0r
1y
0c
0i
#231116133
0t
0s
0r
1y
0c
0i
#231117507
1t
0s
0r
1y
0c
0i
#231118807
0t
0s
0r
1y
0c
0i
#231120196
1t
0s
0r
1y
0c
0i
#231121515
0t
0s
0r
1y
0c
0i
#231122927
1t
0s
0r
1y
0c
0i
#231124279
0t
0s
0r
1y
0c
1i
#231125722
1t
0s
0r
1y
0c
1i
#231127109
0t
0s
0r
1y
0c
1i
#231128602
1t
0s
0r
1y
1c
1i
#231130023
0t
0s
0r
1y
0c
1i
#231131555
1t
0s
0r
1y
0c
1i
#231133013
0t
0s
0r
1y
0c
1i
#231134575
1t
0s
0r
1y
0c
1i
#231136047
0t
0s
0r
1y
0c
1i
#231137602
1t
0s
0r
1y
0c
1i
#231139049
0t
0s
0r
1y
0c
1i
#231140557
1t
0s
0r
1y
0c
1i
#231141962
0t
0s
0r
1y
0c
1i
#231143405
1t
0s
0r
1y
0c
1i
#231144730
0t
0s
0r
1y
0c
1i
#231146104
1t
0s
0r
1y
0c
1i
#231147351
0t
0s
0r
1y
0c
1i
#231148641
1t
0s
0r
1y
0c
1i
#231149820
0t
0s
0r
1y
0c
1i
#231151033
1t
0s
0r
1y
0c
1i
#231152138
0t
0s
0r
1y
0c
1i
#231153278
1t
0s
0r
1y
0c
1i
#231153537
1t
1s
0r
1y
0c
1i
#231153537
1t
0s
0r
1y
0c
1i
#231154319
0t
0s
0r
1y
0c
1i
#231155392
1t
0s
0r
1y
0c
1i
#231156388
0t
0s
0r
1y
0c
1i
#231157429
1t
0s
0r
1y
0c
1i
#231158410
0t
0s
0r
1y
0c
1i
#231159440
1t
0s
0r
1y
0c
1i
#231160408
0t
0s
0r
1y
0c
1i
#231161439
1t
0s
0r
1y
0c
1i
#231162405
0t
0s
0r
1y
0c
0i
#231163438
1t
0s
0r
1y
0c
0i
#231164417
0t
0s
0r
1y
0c
0i
#231165464
1t
0s
0r
1y
0c
0i
#231166452
0t
0s
0r
1y
0c
0i
#231167512
1t
0s
0r
1y
0c
0i
#231168512
0t
0s
0r
1y
0c
0i
#231169587
1t
0s
0r
1y
0c
0i
#231170594
0t
0s
0r
1y
0c
0i
#231171688
1t
0s
0r
1y
0c
0i
#231172699
0t
0s
0r
1y
0c
1i
#231173806
1t
0s
0r
1y
0c
1i
#231174841
0t
0s
0r
1y
0c
1i
#231175957
1t
0s
0r
1y
1c
1i
#231177004
0t
0s
0r
1y
0c
1i
#231178129
1t
0s
0r
1y
0c
1i
#231179184
0t
0s
0r
1y
0c
1i
#231180313
1t
0s
0r
1y
0c
1i
#231181362
0t
0s
0r
1y
0c
1i
#231182484
1t
0s
0r
1y
0c
1i
#231183516
0t
0s
0r
1y
0c
1i
#231184613
1t
0s
0r
1y
0c
1i
#231185618
0t
0s
0r
1y
0c
1i
#231186681
1t
0s
0r
1y
0c
1i
#231187649
0t
0s
0r
1y
0c
1i
#231188670
1t
0s
0r
1y
0c
1i
#231192727
0t
0s
0r
1y
0c
1i
#231194192
1t
0s
0r
1y
0c
1i
#231195019
0t
0s
0r
1y
0c
1i
#231195895
1t
0s
0r
1y
0c
1i
#231196702
0t
0s
0r
1y
0c
1i
#231197556
1t
0s
0r
1y
0c
1i
#231198349
0t
0s
0r
1y
0c
1i
#231199193
1t
0s
0r
1y
0c
1i
#231199977
0t
0s
0r
1y
0c
1i
#231200811
1t
0s
0r
1y
0c
1i
#231201592
0t
0s
0r
1y
0c
1i
#231202426
1t
0s
0r
1y
0c
1i
#231203210
0t
0s
0r
1y
0c
1i
#231204048
1t
0s
0r
1y
0c
1i
#231204835
0t
0s
0r
1y
0c
1i
#231205684
1t
0s
0r
1y
0c
1i
#231206475
0t
0s
0r
1y
0c
1i
#231207335
1t
0s
0r
1y
0c
1i
#231208126
0t
0s
0r
1y
0c
1i
#231208989
1t
0s
0r
1y
0c
1i
#231209799
0t
0s
0r
1y
0c
1i
#231210672
1t
0s
0r
1y
0c
0i
#231211486
0t
0s
0r
1y
0c
0i
#231212366
1t
0s
0r
1y
1c
0i
#231213191
0t
0s
0r
1y
0c
0i
#231214076
1t
0s
0r
1y
0c
0i
#231214906
0t
0s
0r
1y
0c
0i
#231215797
1t
0s
0r
1y
0c
0i
#231216630
0t
0s
0r
1y
0c
0i
#231217518
1t
0s
0r
1y
0c
0i
#231218345
0t
0s
0r
1y
0c
0i
#231219226
1t
0s
0r
1y
0c
0i
#231220036
0t
0s
0r
1y
0c
0i
#231220884
1t
0s
0r
1y
0c
0i
#231221654
0t
0s
0r
1y
0c
0i
#231222447
1t
0s
0r
1y
0c
0i
#231223168
0t
0s
0r
1y
0c
0i
#231223911
1t
0s
0r
1y
0c
0i
#231224588
0t
0s
0r
1y
0c
0i
#231225291
1t
0s
0r
1y
0c
0i
#231225941
0t
0s
0r
1y
0c
0i
#231226616
1t
0s
0r
1y
0c
0i
#231227247
0t
0s
0r
1y
0c
0i
#231227907
1t
0s
0r
1y
0c
0i
#231228523
0t
0s
0r
1y
0c
0i
#231229175
1t
0s
0r
1y
0c
0i
#231229785
0t
0s
0r
1y
0c
0i
#231230436
1t
0s
0r
1y
0c
0i
#231231044
0t
0s
0r
1y
0c
0i
#231231693
1t
0s
0r
1y
0c
0i
#231232300
0t
0s
0r
1y
0c
0i
#231232952
1t
0s
0r
1y
0c
0i
#231233568
0t
0s
0r
1y
0c
0i
#231234224
1t
0s
0r
1y
0c
0i
#231234844
0t
0s
0r
1y
0c
0i
#231235509
1t
0s
0r
1y
0c
0i
#231236138
0t
0s
0r
1y
0c
0i
#231236812
1t
0s
0r
1y
0c
0i
#231237449
0t
0s
0r
1y
0c
0i
#231238130
1t
0s
0r
1y
0c
0i
#231238774
0t
0s
0r
1y
0c
1i
#231239465
1t
0s
0r
1y
0c
1i
#231240115
0t
0s
0r
1y
0c
1i
#231240813
1t
0s
0r
1y
1c
1i
#231241472
0t
0s
0r
1y
0c
1i
#231242176
1t
0s
0r
1y
0c
1i
#231242837
0t
0s
0r
1y
0c
1i
#231243546
1t
0s
0r
1y
0c
1i
#231244214
0t
0s
0r
1y
0c
1i
#231244922
1t
0s
0r
1y
0c
1i
#231245587
0t
0s
0r
1y
0c
1i
#231246290
1t
0s
0r
1y
0c
1i
#231246951
0t
0s
0r
1y
0c
1i
#231247642
1t
0s
0r
1y
0c
1i
#231248286
0t
0s
0r
1y
0c
1i
#231248956
1t
0s
0r
1y
0c
1i
#231249572
0t
0s
0r
1y
0c
1i
#231250209
1t
0s
0r
1y
0c
1i
#231250797
0t
0s
0r
1y
0c
1i
#231251410
1t
0s
0r
1y
0c
1i
#231251976
0t
0s
0r
1y
0c
1i
#231252564
1t
0s
0r
1y
0c
1i
#231253108
0t
0s
0r
1y
0c
1i
#231253678
1t
0s
0r
1y
0c
1i
#231254211
0t
0s
0r
1y
0c
1i
#231254772
1t
0s
0r
1y
0c
1i
#231255299
0t
0s
0r
1y
0c
1i
#231255858
1t
0s
0r
1y
0c
1i
#231256380
0t
0s
0r
1y
0c
1i
#231256938
1t
0s
0r
1y
0c
0i
#231257455
0t
0s
0r
1y
0c
0i
#231258013
1t
0s
0r
1y
0c
0i
#231258532
0t
0s
0r
1y
0c
0i
#231259091
1t
0s
0r
1y
0c
0i
#231259615
0t
0s
0r
1y
0c
0i
#231260178
1t
0s
0r
1y
0c
0i
#231260705
0t
0s
0r
1y
0c
0i
#231261273
1t
0s
0r
1y
0c
0i
#231261808
0t
0s
0r
1y
0c
0i
#231262384
1t
0s
0r
1y
0c
0i
#231262920
0t
0s
0r
1y
0c
1i
#231263504
1t
0s
0r
1y
0c
1i
#231264049
0t
0s
0r
1y
0c
1i
#231264638
1t
0s
0r
1y
1c
1i
#231265189
0t
0s
0r
1y
0c
1i
#231265779
1t
0s
0r
1y
0c
1i
#231266337
0t
0s
0r
1y
0c
1i
#231266936
1t
0s
0r
1y
0c
1i
#231267492
0t
0s
0r
1y
0c
1i
#231268092
1t
0s
0r
1y
0c
1i
#231268652
0t
0s
0r
1y
0c
1i
#231269251
1t
0s
0r
1y
0c
1i
#231269806
0t
0s
0r
1y
0c
1i
#231270402
1t
0s
0r
1y
0c
1i
#231270951
0t
0s
0r
1y
0c
1i
#231271542
1t
0s
0r
1y
0c
1i
#231273908
0t
0s
0r
1y
0c
1i
#231274757
1t
0s
0r
1y
0c
1i
#231275246
0t
0s
0r
1y
0c
1i
#231275770
1t
0s
0r
1y
0c
1i
#231276247
0t
0s
0r
1y
0c
1i
#231276757
1t
0s
0r
1y
0c
1i
#231277232
0t
0s
0r
1y
0c
1i
#231277738
1t
0s
0r
1y
0c
1i
#231278210
0t
0s
0r
1y
0c
1i
#231278715
1t
0s
0r
1y
0c
1i
#231279185
0t
0s
0r
1y
0c
1i
#231279691
1t
0s
0r
1y
0c
1i
#231280162
0t
0s
0r
1y
0c
0i
#231280666
1t
0s
0r
1y
0c
0i
#231281136
0t
0s
0r
1y
0c
0i
#231281642
1t
0s
0r
1y
0c
0i
#231282116
0t
0s
0r
1y
0c
0i
#231282629
1t
0s
0r
1y
0c
0i
#231283104
0t
0s
0r
1y
0c
1i
#231283621
1t
0s
0r
1y
0c
1i
#231284100
0t
0s
0r
1y
0c
1i
#231284616
1t
0s
0r
1y
0c
1i
#231285102
0t
0s
0r
1y
1c
1i
#231285624
1t
0s
0r
1y
1c
1i
#231286112
0t
0s
0r
1y
0c
1i
#231286635
1t
0s
0r
1y
0c
1i
#231287125
0t
0s
0r
1y
0c
1i
#231287654
1t
0s
0r
1y
0c
1i
#231288144
0t
0s
0r
1y
0c
1i
#231288672
1t
0s
0r
1y
0c
1i
#231289163
0t
0s
0r
1y
0c
1i
#231289692
1t
0s
0r
1y
0c
1i
#231290183
0t
0s
0r
1y
0c
1i
#231290709
1t
0s
0r
1y
0c
1i
#231291200
0t
0s
0r
1y
0c
1i
#231291719
1t
0s
0r
1y
0c
1i
#231292205
0t
0s
0r
1y
0c
1i
#231292724
1t
0s
0r
1y
0c
1i
#231293204
0t
0s
0r
1y
0c
1i
#231293714
1t
0s
0r
1y
0c
1i
#231294188
0t
0s
0r
1y
0c
1i
#231294690
1t
0s
0r
1y
0c
1i
#231295156
0t
0s
0r
1y
0c
1i
#231295651
1t
0s
0r
1y
0c
1i
#231296110
0t
0s
0r
1y
0c
1i
#231296601
1t
0s
0r
1y
0c
1i
#231297052
0t
0s
0r
1y
0c
1i
#231297536
1t
0s
0r
1y
0c
1i
#231297986
0t
0s
0r
1y
0c
1i
#231298465
1t
0s
0r
1y
0c
1i
#231298911
0t
0s
0r
1y
0c
1i
#231299387
1t
0s
0r
1y
0c
0i
#231299832
0t
0s
0r
1y
0c
0i
#231300307
1t
0s
0r
1y
0c
0i
#231300752
0t
0s
0r
1y
0c
0i
#231301230
1t
0s
0r
1y
0c
0i
#231301674
0t
0s
0r
1y
0c
0i
#231302149
1t
0s
0r
1y
0c
0i
#231302598
0t
0s
0r
1y
0c
0i
#231303073
1t
0s
0r
1y
0c
0i
#231303524
0t
0s
0r
1y
0c
0i
#231304004
1t
0s
0r
1y
1c
0i
#231304456
0t
0s
0r
1y
1c
0i
#231304938
1t
0s
0r
1y
1c
0i
#231305391
0t
0s
0r
1y
0c
0i
#231305875
1t
0s
0r
1y
0c
0i
#231306329
0t
0s
0r
1y
0c
0i
#231306814
1t
0s
0r
1y
0c
0i
#231307271
0t
0s
0r
1y
0c
0i
#231307758
1t
0s
0r
1y
0c
0i
#231308215
0t
0s
0r
1y
0c
0i
#231308699
1t
0s
0r
1y
0c
0i
#231309158
0t
0s
0r
1y
0c
0i
#231309641
1t
0s
0r
1y
0c
0i
#231310096
0t
0s
0r
1y
0c
0i
#231310580
1t
0s
0r
1y
0c
0i
#231311031
0t
0s
0r
1y
0c
0i
#231311513
1t
0s
0r
1y
0c
0i
#231311962
0t
0s
0r
1y
0c
0i
#231312440
1t
0s
0r
1y
0c
0i
#231312887
0t
0s
0r
1y
0c
0i
#231313361
1t
0s
0r
1y
0c
0i
#231313603
1t
1s
0r
1y
0c
0i
#231313603
1t
0s
0r
1y
0c
0i
#231313804
0t
0s
0r
1y
0c
0i
#231314274
1t
0s
0r
1y
0c
1i
#231314714
0t
0s
0r
1y
0c
1i
#231315180
1t
0s
0r
1y
0c
1i
#231315618
0t
0s
0r
1y
0c
1i
#231316083
1t
0s
0r
1y
0c
1i
#231316515
0t
0s
0r
1y
0c
1i
#231316977
1t
0s
0r
1y
0c
1i
#231317408
0t
0s
0r
1y
0c
1i
#231317869
1t
0s
0r
1y
0c
1i
#231318299
0t
0s
0r
1y
0c
1i
#231318756
1t
0s
0r
1y
0c
1i
#231319185
0t
0s
0r
1y
0c
1i
#231319643
1t
0s
0r
1y
0c
1i
#231320073
0t
0s
0r
1y
0c
1i
#231320532
1t
0s
0r
1y
0c
1i
#231320960
0t
0s
0r
1y
0c
1i
#231321423
1t
0s
0r
1y
1c
1i
#231321849
0t
0s
0r
1y
1c
1i
#231322311
1t
0s
0r
1y
1c
1i
#231322744
0t
0s
0r
1y
1c
1i
#231323207
1t
0s
0r
1y
1c
1i
#231323640
0t
0s
0r
1y
1c
1i
#231324102
1t
0s
0r
1y
0c
1i
#231324536
0t
0s
0r
1y
0c
0i
#231325002
1t
0s
0r
1y
0c
0i
#231325435
0t
0s
0r
1y
0c
0i
#231325902
1t
0s
0r
1y
0c
0i
#231326334
0t
0s
0r
1y
0c
0i
#231326799
1t
0s
0r
1y
0c
0i
#231327233
0t
0s
0r
1y
0c
0i
#231327697
1t
0s
0r
1y
0c
0i
#231328128
0t
0s
0r
1y
0c
0i
#231328591
1t
0s
0r
1y
0c
0i
#231330454
0t
0s
0r
1y
0c
1i
#231331253
1t
0s
0r
1y
0c
1i
#231331672
0t
0s
0r
1y
0c
1i
#231332125
1t
0s
0r
1y
0c
1i
#231332543
0t
0s
0r
1y
0c
1i
#231332991
1t
0s
0r
1y
0c
1i
#231333407
0t
0s
0r
1y
0c
1i
#231333855
1t
0s
0r
1y
0c
1i
#231334269
0t
0s
0r
1y
0c
1i
#231334713
1t
0s
0r
1y
0c
1i
#231335045
1t
0s
1r
1y
0c
1i
#231335047
1t
0s
0r
1y
0c
1i
#231335125
0t
0s
0r
1y
0c
1i
#231335567
1t
0s
0r
1y
0c
1i
#231335978
0t
0s
0r
1y
0c
1i
#231336419
1t
0s
0r
1y
0c
1i
#231336829
0t
0s
0r
1y
0c
1i
#231337269
1t
0s
0r
1y
0c
1i
#231337679
0t
0s
0r
1y
0c
1i
#231338123
1t
0s
0r
1y
0c
1i
#231338532
0t
0s
0r
1y
0c
1i
#231338976
1t
0s
0r
1y
0c
1i
#231339390
0t
0s
0r
1y
0c
0i
#231339833
1t
0s
0r
1y
1c
0i
#231340248
0t
0s
0r
1y
1c
0i
#231340694
1t
0s
0r
1y
1c
0i
#231341110
0t
0s
0r
1y
1c
0i
#231341557
1t
0s
0r
1y
0c
0i
#231341975
0t
0s
0r
1y
0c
0i
#231342421
1t
0s
0r
1y
0c
0i
#231342841
0t
0s
0r
1y
0c
0i
#231343290
1t
0s
0r
1y
0c
0i
#231343709
0t
0s
0r
1y
0c
0i
#231344160
1t
0s
0r
1y
0c
0i
#231344579
0t
0s
0r
1y
0c
0i
#231345026
1t
0s
0r
1y
0c
0i
#231345443
0t
0s
0r
1y
0c
0i
#231345890
1t
0s
0r
1y
0c
0i
#231346304
0t
0s
0r
1y
0c
0i
#231346748
1t
0s
0r
1y
0c
0i
#231347159
0t
0s
0r
1y
0c
0i
#231347599
1t
0s
0r
1y
0c
0i
#231348002
0t
0s
0r
1y
0c
0i
#231348435
1t
0s
0r
1y
0c
1i
#231348834
0t
0s
0r
1y
0c
1i
#231349262
1t
0s
0r
1y
0c
1i
#231349658
0t
0s
0r
1y
0c
1i
#231350082
1t
0s
0r
1y
0c
1i
#231350478
0t
0s
0r
1y
0c
1i
#231350899
1t
0s
0r
1y
0c
1i
#231351294
0t
0s
0r
1y
0c
1i
#231351714
1t
0s
0r
1y
0c
1i
#231352107
0t
0s
0r
1y
0c
1i
#231352527
1t
0s
0r
1y
0c
1i
#231352921
0t
0s
0r
1y
0c
1i
#231353341
1t
0s
0r
1y
0c
1i
#231353735
0t
0s
0r
1y
0c
1i
#231354157
1t
0s
0r
1y
0c
1i
#231354553
0t
0s
0r
1y
0c
1i
#231354975
1t
0s
0r
1y
0c
1i
#231355372
0t
0s
0r
1y
0c
1i
#231355795
1t
0s
0r
1y
0c
1i
#231356192
0t
0s
0r
1y
1c
1i
#231356617
1t
0s
0r
1y
1c
1i
#231357016
0t
0s
0r
1y
1c
0i
#231357442
1t
0s
0r
1y
1c
0i
#231357843
0t
0s
0r
1y
1c
0i
#231358271
1t
0s
0r
1y
0c
0i
#231358672
0t
0s
0r
1y
0c
0i
#231359100
1t
0s
0r
1y
0c
0i
#231359502
0t
0s
0r
1y
0c
0i
#231359931
1t
0s
0r
1y
0c
0i
#231360335
0t
0s
0r
1y
0c
0i
#231360764
1t
0s
0r
1y
0c
0i
#231361168
0t
0s
0r
1y
0c
0i
#231361596
1t
0s
0r
1y
0c
0i
#231361998
0t
0s
0r
1y
0c
0i
#231362423
1t
0s
0r
1y
0c
0i
#231362821
0t
0s
0r
1y
0c
0i
#231363244
1t
0s
0r
1y
0c
0i
#231363638
0t
0s
0r
1y
0c
0i
#231364055
1t
0s
0r
1y
0c
1i
#231364443
0t
0s
0r
1y
0c
1i
#231364856
1t
0s
0r
1y
0c
1i
#231365242
0t
0s
0r
1y
0c
1i
#231365649
1t
0s
0r
1y
0c
1i
#231366033
0t
0s
0r
1y
0c
1i
#231366440
1t
0s
0r
1y
0c
1i
#231366821
0t
0s
0r
1y
0c
1i
#231367227
1t
0s
0r
1y
0c
1i
#231367605
0t
0s
0r
1y
0c
1i
#231368010
1t
0s
0r
1y
0c
1i
#231368386
0t
0s
0r
1y
0c
1i
#231368793
1t
0s
0r
1y
0c
1i
#231369170
0t
0s
0r
1y
0c
1i
#231369575
1t
0s
0r
1y
0c
1i
#231369953
0t
0s
0r
1y
0c
1i
#231370360
1t
0s
0r
1y
0c
1i
#231370737
0t
0s
0r
1y
0c
1i
#231371145
1t
0s
0r
1y
0c
1i
#231371523
0t
0s
0r
1y
0c
1i
#231371932
1t
0s
0r
1y
1c
1i
#231372312
0t
0s
0r
1y
1c
0i
#231372722
1t
0s
0r
1y
1c
0i
#231373106
0t
0s
0r
1y
1c
0i
#231373517
1t
0s
0r
1y
1c
0i
#231373901
0t
0s
0r
1y
1c
0i
#231374313
1t
0s
0r
1y
0c
0i
#231374698
0t
0s
0r
1y
0c
0i
#231375112
1t
0s
0r
1y
0c
0i
#231375497
0t
0s
0r
1y
0c
0i
#231375913
1t
0s
0r
1y
0c
0i
#231376299
0t
0s
0r
1y
0c
0i
#231376712
1t
0s
0r
1y
0c
0i
#231377098
0t
0s
0r
1y
0c
0i
#231377514
1t
0s
0r
1y
0c
0i
#231377897
0t
0s
0r
1y
0c
0i
#231378312
1t
0s
0r
1y
0c
0i
#231380002
0t
0s
0r
1y
0c
0i
#231380678
1t
0s
0r
1y
0c
0i
#231381048
0t
0s
0r
1y
0c
0i
#231381449
1t
0s
0r
1y
0c
0i
#231381817
0t
0s
0r
1y
0c
0i
#231382213
1t
0s
0r
1y
0c
0i
#231382583
0t
0s
0r
1y
0c
0i
#231382979
1t
0s
0r
1y
0c
1i
#231383347
0t
0s
0r
1y
0c
1i
#231383742
1t
0s
0r
1y
0c
1i
#231384110
0t
0s
0r
1y
0c
1i
#231384504
1t
0s
0r
1y
0c
1i
#231384870
0t
0s
0r
1y
0c
1i
#231385264
1t
0s
0r
1y
0c
1i
#231385631
0t
0s
0r
1y
0c
1i
#231386027
1t
0s
0r
1y
0c
1i
#231386394
0t
0s
0r
1y
0c
1i
#231386792
1t
0s
0r
1y
0c
1i
#231387159
0t
0s
0r
1y
1c
1i
#231387555
1t
0s
0r
1y
1c
1i
#231387926
0t
0s
0r
1y
1c
1i
#231388322
1t
0s
0r
1y
1c
1i
#231388694
0t
0s
0r
1y
1c
1i
#231389092
1t
0s
0r
1y
1c
1i
#231389464
0t
0s
0r
1y
1c
1i
#231389865
1t
0s
0r
1y
0c
1i
#231390237
0t
0s
0r
1y
0c
1i
#231390638
1t
0s
0r
1y
0c
1i
#231391013
0t
0s
0r
1y
0c
0i
#231391414
1t
0s
0r
1y
0c
0i
#231391787
0t
0s
0r
1y
0c
0i
#231392188
1t
0s
0r
1y
0c
0i
#231392563
0t
0s
0r
1y
0c
0i
#231392965
1t
0s
0r
1y
0c
0i
#231393338
0t
0s
0r
1y
0c
0i
#231393737
1t
0s
0r
1y
0c
0i
#231394112
0t
0s
0r
1y
0c
0i
#231394511
1t
0s
0r
1y
0c
0i
#231394882
0t
0s
0r
1y
0c
0i
#231395279
1t
0s
0r
1y
0c
0i
#231395647
0t
0s
0r
1y
0c
0i
#231396041
1t
0s
0r
1y
0c
0i
#231396410
0t
0s
0r
1y
0c
0i
#231396801
1t
0s
0r
1y
0c
0i
#231397165
0t
0s
0r
1y
0c
0i
#231397556
1t
0s
0r
1y
0c
0i
#231397919
0t
0s
0r
1y
0c
0i
#231398306
1t
0s
0r
1y
0c
1i
#231398670
0t
0s
0r
1y
0c
1i
#231399057
1t
0s
0r
1y
0c
1i
#231399416
0t
0s
0r
1y
0c
1i
#231399801
1t
0s
0r
1y
0c
1i
#231400162
0t
0s
0r
1y
0c
1i
#231400546
1t
0s
0r
1y
0c
1i
#231400908
0t
0s
0r
1y
0c
1i
#231401293
1t
0s
0r
1y
0c
1i
#231401654
0t
0s
0r
1y
0c
1i
#231402040
1t
0s
0r
1y
1c
1i
#231402401
0t
0s
0r
1y
1c
1i
#231402785
1t
0s
0r
1y
1c
1i
#231403147
0t
0s
0r
1y
1c
1i
#231403534
1t
0s
0r
1y
1c
1i
#231403897
0t
0s
0r
1y
1c
1i
#231404284
1t
0s
0r
1y
1c
1i
#231404648
0t
0s
0r
1y
0c
1i
#231405037
1t
0s
0r
1y
0c
1i
#231405402
0t
0s
0r
1y
0c
1i
#231405789
1t
0s
0r
1y
0c
0i
#231406155
0t
0s
0r
1y
0c
0i
#231406543
1t
0s
0r
1y
0c
0i
#231406909
0t
0s
0r
1y
0c
0i
#231407298
1t
0s
0r
1y
0c
0i
#231407664
0t
0s
0r
1y
0c
0i
#231408053
1t
0s
0r
1y
0c
0i
#231408419
0t
0s
0r
1y
0c
0i
#231408807
1t
0s
0r
1y
0c
0i
#231409009
1t
0s
1r
1y
0c
0i
#231409012
1t
0s
0r
1y
0c
0i
#231409171
0t
0s
0r
1y
0c
0i
#231409559
1t
0s
0r
1y
0c
0i
#231409921
0t
0s
0r
1y
0c
0i
#231410308
1t
0s
0r
1y
0c
0i
#231410668
0t
0s
0r
1y
0c
0i
#231411052
1t
0s
0r
1y
0c
0i
#231411226
1t
1s
0r
1y
0c
0i
#231411226
1t
0s
0r
1y
0c
0i
#231411411
0t
0s
0r
1y
0c
0i
#231411792
1t
0s
0r
1y
0c
0i
#231412148
0t
0s
0r
1y
0c
0i
#231412527
1t
0s
0r
1y
0c
0i
#231412883
0t
0s
0r
1y
0c
0i
#231413263
1t
0s
0r
1y
0c
0i
#231413617
0t
0s
0r
1y
0c
0i
#231413997
1t
0s
0r
1y
0c
1i
#231414350
0t
0s
0r
1y
0c
1i
#231414729
1t
0s
0r
1y
0c
1i
#231415081
0t
0s
0r
1y
0c
1i
#231415459
1t
0s
0r
1y
0c
1i
#231415811
0t
0s
0r
1y
0c
1i
#231416189
1t
0s
0r
1y
0c
1i
#231416542
0t
0s
0r
1y
0c
1i
#231416922
1t
0s
0r
1y
1c
1i
