rusefi_bundle_mega100/rusefi.snapshot.mega100/console/logs/rusEFI_trigger_log_2024-12-19_13_57_37_112.vcd
$date
	Thu Dec 19 13:57:37 CET 2024
$end
$version
        1.0
$end
$timescale
        1ps
$end
$scope module test $end
$var wire 1 t PRI_TRG $end
$var wire 1 s SEC_TRG $end
$var wire 1 r TRG $end
$var wire 1 y SYNC $end
$var wire 1 c COIL $end
$var wire 1 i INJ $end
$upscope $end
$enddefinitions $end
$dumpvars
#30744038982
0t
0s
0r
0y
0c
0i
#30744136693
1t
0s
0r
0y
0c
0i
#30744148330
0t
0s
0r
0y
0c
0i
#30751399209
1t
0s
0r
0y
0c
0i
#30751399344
1t
1s
0r
0y
0c
0i
#30751399344
1t
0s
0r
0y
0c
0i
#30751399820
1t
1s
0r
0y
0c
0i
#30751399820
1t
0s
0r
0y
0c
0i
#30752085515
0t
0s
0r
0y
0c
0i
#30752098770
1t
0s
0r
0y
0c
0i
#30752104954
0t
0s
0r
0y
0c
0i
#30752113295
1t
0s
0r
0y
0c
0i
#30752118911
0t
0s
0r
0y
0c
0i
#30752125356
1t
0s
0r
0y
0c
0i
#30752130593
0t
0s
0r
0y
0c
0i
#30752136272
1t
0s
0r
0y
0c
0i
#30752141194
0t
0s
0r
0y
0c
0i
#30752146426
1t
0s
0r
0y
0c
0i
#30752151083
0t
0s
0r
0y
0c
0i
#30752155956
1t
0s
0r
0y
0c
0i
#30752160424
0t
0s
0r
0y
0c
0i
#30752165096
1t
0s
0r
0y
0c
0i
#30752169430
0t
0s
0r
0y
0c
0i
#30752173929
1t
0s
0r
0y
0c
0i
#30752178138
0t
0s
0r
0y
0c
0i
#30752182522
1t
0s
0r
0y
0c
0i
#30752186594
0t
0s
0r
0y
0c
0i
#30752190853
1t
0s
0r
0y
0c
0i
#30752194840
0t
0s
0r
0y
0c
0i
#30752199010
1t
0s
0r
0y
0c
0i
#30752202861
0t
0s
0r
0y
0c
0i
#30752206858
1t
0s
0r
0y
0c
0i
#30752210586
0t
0s
0r
0y
0c
0i
#30752214424
1t
0s
0r
0y
0c
0i
#30752218046
0t
0s
0r
0y
0c
0i
#30752221792
1t
0s
0r
0y
0c
0i
#30752225281
0t
0s
0r
0y
0c
0i
#30752228904
1t
0s
0r
0y
0c
0i
#30752232264
0t
0s
0r
0y
0c
0i
#30752235784
1t
0s
0r
0y
0c
0i
#30752239085
0t
0s
0r
0y
0c
0i
#30752242514
1t
0s
0r
0y
0c
0i
#30752245711
0t
0s
0r
0y
0c
0i
#30752249079
1t
0s
0r
0y
0c
0i
#30752252243
0t
0s
0r
0y
0c
0i
#30752255538
1t
0s
0r
0y
0c
0i
#30752258666
0t
0s
0r
0y
0c
0i
#30752261943
1t
0s
0r
0y
0c
0i
#30752265025
0t
0s
0r
0y
0c
0i
#30752268297
1t
0s
0r
0y
0c
0i
#30752271362
0t
0s
0r
0y
0c
0i
#30752274606
1t
0s
0r
0y
0c
0i
#30752277651
0t
0s
0r
0y
0c
0i
#30752280902
1t
0s
0r
0y
0c
0i
#30752283987
0t
0s
0r
0y
0c
0i
#30752287238
1t
0s
0r
0y
0c
0i
#30752290341
0t
0s
0r
0y
0c
0i
#30752293653
1t
0s
0r
0y
0c
0i
#30752296781
0t
0s
0r
0y
0c
0i
#30752300145
1t
0s
0r
0y
0c
0i
#30752303316
0t
0s
0r
0y
0c
0i
#30752306711
1t
0s
0r
0y
0c
0i
#30752309932
0t
0s
0r
0y
0c
0i
#30752313426
1t
0s
0r
0y
0c
0i
#30752316698
0t
0s
0r
0y
0c
0i
#30752320226
1t
0s
0r
0y
0c
0i
#30752323596
0t
0s
0r
0y
0c
0i
#30752327173
1t
0s
0r
0y
0c
0i
#30752330562
0t
0s
0r
0y
0c
0i
#30752334149
1t
0s
0r
0y
0c
0i
#30752337519
0t
0s
0r
0y
0c
0i
#30752341049
1t
0s
0r
0y
0c
0i
#30752344323
0t
0s
0r
0y
0c
0i
#30752347734
1t
0s
0r
0y
0c
0i
#30752350905
0t
0s
0r
0y
0c
0i
#30752354176
1t
0s
0r
0y
0c
0i
#30752357129
0t
0s
0r
0y
0c
0i
#30752360165
1t
0s
0r
0y
0c
0i
#30752365043
0t
0s
0r
0y
0c
0i
#30752376196
1t
0s
0r
0y
0c
0i
#30752378676
0t
0s
0r
1y
0c
0i
#30752381199
1t
0s
0r
1y
0c
0i
#30752383622
0t
0s
0r
1y
0c
0i
#30752386140
1t
0s
0r
1y
0c
0i
#30752388565
0t
0s
0r
1y
0c
0i
#30752391112
1t
0s
0r
1y
0c
0i
#30752393581
0t
0s
0r
1y
0c
0i
#30752396210
1t
0s
0r
1y
0c
0i
#30752398758
0t
0s
0r
1y
0c
0i
#30752401514
1t
0s
0r
1y
0c
0i
#30752404188
0t
0s
0r
1y
0c
0i
#30752407126
1t
0s
0r
1y
0c
0i
#30752410042
0t
0s
0r
1y
0c
0i
#30752413266
1t
0s
0r
1y
0c
0i
#30752416364
0t
0s
0r
1y
0c
0i
#30752419426
1t
0s
0r
1y
0c
0i
#30752421906
0t
0s
0r
1y
0c
0i
#30752424586
1t
0s
0r
1y
0c
0i
#30752427341
0t
0s
0r
1y
0c
0i
#30752430430
1t
0s
0r
1y
0c
0i
#30752433202
0t
0s
0r
1y
0c
0i
#30752436045
1t
0s
0r
1y
0c
0i
#30752438806
0t
0s
0r
1y
0c
0i
#30752441831
1t
0s
0r
1y
0c
0i
#30752444688
0t
0s
0r
1y
0c
0i
#30752447669
1t
0s
0r
1y
0c
0i
#30752450460
0t
0s
0r
1y
0c
0i
#30752453412
1t
0s
0r
1y
0c
0i
#30752456176
0t
0s
0r
1y
0c
0i
#30752459083
1t
0s
0r
1y
0c
0i
#30752461770
0t
0s
0r
1y
0c
0i
#30752464525
1t
0s
0r
1y
0c
0i
#30752467014
0t
0s
0r
1y
0c
0i
#30752469559
1t
0s
0r
1y
0c
0i
#30752471887
0t
0s
0r
1y
0c
0i
#30752474294
1t
0s
0r
1y
0c
0i
#30752476526
0t
0s
0r
1y
0c
0i
#30752478879
1t
0s
0r
1y
0c
0i
#30752481093
0t
0s
0r
1y
0c
0i
#30752483424
1t
0s
0r
1y
0c
0i
#30752485597
0t
0s
0r
1y
0c
0i
#30752487888
1t
0s
0r
1y
0c
0i
#30752490024
0t
0s
0r
1y
0c
0i
#30752492295
1t
0s
0r
1y
0c
0i
#30752494426
0t
0s
0r
1y
0c
0i
#30752496710
1t
0s
0r
1y
0c
0i
#30752498878
0t
0s
0r
1y
0c
0i
#30752501210
1t
0s
0r
1y
0c
0i
#30752503445
0t
0s
0r
1y
0c
0i
#30752505871
1t
0s
0r
1y
0c
0i
#30752508200
0t
0s
0r
1y
0c
0i
#30752510746
1t
0s
0r
1y
0c
0i
#30752513227
0t
0s
0r
1y
0c
0i
#30752515975
1t
0s
0r
1y
0c
0i
#30752518659
0t
0s
0r
1y
0c
0i
#30752521652
1t
0s
0r
1y
0c
0i
#30752524487
0t
0s
0r
1y
0c
0i
#30752527162
1t
0s
0r
1y
0c
0i
#30752529472
0t
0s
0r
1y
0c
1i
#30752531987
1t
0s
0r
1y
0c
1i
#30752534540
0t
0s
0r
1y
0c
1i
#30752537373
1t
0s
0r
1y
1c
1i
#30752539907
0t
0s
0r
1y
0c
1i
#30752542520
1t
0s
0r
1y
0c
1i
#30752545007
0t
0s
0r
1y
0c
1i
#30752547710
1t
0s
0r
1y
0c
1i
#30752550301
0t
0s
0r
1y
0c
0i
#30752553040
1t
0s
0r
1y
0c
0i
#30752555585
0t
0s
0r
1y
0c
0i
#30752558233
1t
0s
0r
1y
0c
0i
#30752560705
0t
0s
0r
1y
0c
0i
#30752563225
1t
0s
0r
1y
0c
0i
#30752565499
0t
0s
0r
1y
0c
0i
#30752567748
1t
0s
0r
1y
0c
0i
#30752569740
0t
0s
0r
1y
0c
0i
#30752571703
1t
0s
0r
1y
0c
0i
#30752573449
0t
0s
0r
1y
0c
0i
#30752575190
1t
0s
0r
1y
0c
0i
#30752576767
0t
0s
0r
1y
0c
0i
#30752578372
1t
0s
0r
1y
0c
0i
#30752578488
1t
1s
0r
1y
0c
0i
#30752578488
1t
0s
0r
1y
0c
0i
#30752579848
0t
0s
0r
1y
0c
0i
#30752581371
1t
0s
0r
1y
0c
0i
#30752582794
0t
0s
0r
1y
0c
0i
#30752584288
1t
0s
0r
1y
0c
0i
#30752585684
0t
0s
0r
1y
0c
0i
#30752587172
1t
0s
0r
1y
0c
0i
#30752588560
0t
0s
0r
1y
0c
0i
#30752590052
1t
0s
0r
1y
0c
0i
#30752591447
0t
0s
0r
1y
0c
0i
#30752592958
1t
0s
0r
1y
0c
0i
#30752594368
0t
0s
0r
1y
0c
0i
#30752595883
1t
0s
0r
1y
0c
0i
#30752597310
0t
0s
0r
1y
0c
0i
#30752598851
1t
0s
0r
1y
0c
0i
#30752600293
0t
0s
0r
1y
0c
0i
#30752601860
1t
0s
0r
1y
0c
0i
#30752603335
0t
0s
0r
1y
0c
0i
#30752604944
1t
0s
0r
1y
0c
0i
#30752606465
0t
0s
0r
1y
0c
1i
#30752608129
1t
0s
0r
1y
0c
1i
#30752609705
0t
0s
0r
1y
0c
1i
#30752611432
1t
0s
0r
1y
1c
1i
#30752613055
0t
0s
0r
1y
0c
1i
#30752614818
1t
0s
0r
1y
0c
1i
#30752616483
0t
0s
0r
1y
0c
1i
#30752618272
1t
0s
0r
1y
0c
1i
#30752619935
0t
0s
0r
1y
0c
1i
#30752621710
1t
0s
0r
1y
0c
1i
#30752623333
0t
0s
0r
1y
0c
1i
#30752625038
1t
0s
0r
1y
0c
1i
#30752626572
0t
0s
0r
1y
0c
1i
#30752628155
1t
0s
0r
1y
0c
0i
#30752629554
0t
0s
0r
1y
0c
0i
#30752630997
1t
0s
0r
1y
0c
0i
#30752636146
0t
0s
0r
1y
0c
0i
#30752637877
1t
0s
0r
1y
0c
0i
#30752638839
0t
0s
0r
1y
0c
0i
#30752639849
1t
0s
0r
1y
0c
0i
#30752640779
0t
0s
0r
1y
0c
0i
#30752641766
1t
0s
0r
1y
0c
0i
#30752642687
0t
0s
0r
1y
0c
0i
#30752643660
1t
0s
0r
1y
0c
0i
#30752644586
0t
0s
0r
1y
0c
0i
#30752645578
1t
0s
0r
1y
0c
0i
#30752646510
0t
0s
0r
1y
0c
0i
#30752647513
1t
0s
0r
1y
0c
0i
#30752648467
0t
0s
0r
1y
0c
0i
#30752649500
1t
0s
0r
1y
0c
0i
#30752650479
0t
0s
0r
1y
0c
0i
#30752651544
1t
0s
0r
1y
0c
0i
#30752652564
0t
0s
0r
1y
0c
0i
#30752653665
1t
0s
0r
1y
0c
0i
#30752654706
0t
0s
0r
1y
0c
0i
#30752655842
1t
0s
0r
1y
0c
0i
#30752656921
0t
0s
0r
1y
0c
0i
#30752658089
1t
0s
0r
1y
0c
1i
#30752659204
0t
0s
0r
1y
0c
1i
#30752660411
1t
0s
0r
1y
1c
1i
#30752661546
0t
0s
0r
1y
0c
1i
#30752662777
1t
0s
0r
1y
0c
1i
#30752663939
0t
0s
0r
1y
0c
1i
#30752665185
1t
0s
0r
1y
0c
1i
#30752666348
0t
0s
0r
1y
0c
1i
#30752667586
1t
0s
0r
1y
0c
1i
#30752668721
0t
0s
0r
1y
0c
1i
#30752669921
1t
0s
0r
1y
0c
1i
#30752671016
0t
0s
0r
1y
0c
1i
#30752672166
1t
0s
0r
1y
0c
1i
#30752673205
0t
0s
0r
1y
0c
1i
#30752674294
1t
0s
0r
1y
0c
1i
#30752675282
0t
0s
0r
1y
0c
1i
#30752676307
1t
0s
0r
1y
0c
1i
#30752677235
0t
0s
0r
1y
0c
1i
#30752678207
1t
0s
0r
1y
0c
0i
#30752679091
0t
0s
0r
1y
0c
0i
#30752680015
1t
0s
0r
1y
0c
0i
#30752680864
0t
0s
0r
1y
0c
0i
#30752681744
1t
0s
0r
1y
0c
0i
#30752682559
0t
0s
0r
1y
0c
0i
#30752683412
1t
0s
0r
1y
0c
0i
#30752684204
0t
0s
0r
1y
0c
0i
#30752685033
1t
0s
0r
1y
0c
0i
#30752685808
0t
0s
0r
1y
0c
0i
#30752686629
1t
0s
0r
1y
0c
0i
#30752687392
0t
0s
0r
1y
0c
0i
#30752688207
1t
0s
0r
1y
0c
0i
#30752688971
0t
0s
0r
1y
0c
0i
#30752689787
1t
0s
0r
1y
0c
0i
#30752690559
0t
0s
0r
1y
0c
0i
#30752691381
1t
0s
0r
1y
0c
0i
#30752692161
0t
0s
0r
1y
0c
0i
#30752692999
1t
0s
0r
1y
0c
0i
#30752693790
0t
0s
0r
1y
0c
0i
#30752694643
1t
0s
0r
1y
0c
0i
#30752695453
0t
0s
0r
1y
0c
0i
#30752696323
1t
0s
0r
1y
0c
1i
#30752697149
0t
0s
0r
1y
0c
1i
#30752698036
1t
0s
0r
1y
1c
1i
#30752698873
0t
0s
0r
1y
1c
1i
#30752699775
1t
0s
0r
1y
0c
1i
#30752700620
0t
0s
0r
1y
0c
1i
#30752701533
1t
0s
0r
1y
0c
1i
#30752702384
0t
0s
0r
1y
0c
1i
#30752703294
1t
0s
0r
1y
0c
1i
#30752704145
0t
0s
0r
1y
0c
1i
#30752705048
1t
0s
0r
1y
0c
1i
#30752705895
0t
0s
0r
1y
0c
1i
#30752706782
1t
0s
0r
1y
0c
1i
#30752707611
0t
0s
0r
1y
0c
1i
#30752708488
1t
0s
0r
1y
0c
0i
#30752709296
0t
0s
0r
1y
0c
0i
#30752710156
1t
0s
0r
1y
0c
0i
#30752710947
0t
0s
0r
1y
0c
0i
#30752711791
1t
0s
0r
1y
0c
0i
#30752712571
0t
0s
0r
1y
0c
0i
#30752713403
1t
0s
0r
1y
0c
0i
#30752714174
0t
0s
0r
1y
0c
0i
#30752714995
1t
0s
0r
1y
0c
0i
#30752715761
0t
0s
0r
1y
0c
0i
#30752716579
1t
0s
0r
1y
0c
0i
#30752717343
0t
0s
0r
1y
0c
0i
#30752718164
1t
0s
0r
1y
0c
0i
#30752718929
0t
0s
0r
1y
0c
0i
#30752719747
1t
0s
0r
1y
0c
0i
#30752720509
0t
0s
0r
1y
0c
0i
#30752721328
1t
0s
0r
1y
0c
0i
#30752722088
0t
0s
0r
1y
0c
0i
#30752722909
1t
0s
0r
1y
0c
0i
#30752723667
0t
0s
0r
1y
0c
0i
#30752724486
1t
0s
0r
1y
0c
0i
#30752725244
0t
0s
0r
1y
0c
0i
#30752726065
1t
0s
0r
1y
0c
0i
#30752726825
0t
0s
0r
1y
0c
0i
#30752727646
1t
0s
0r
1y
0c
1i
#30752728405
0t
0s
0r
1y
0c
1i
#30752729228
1t
0s
0r
1y
0c
1i
#30752729995
0t
0s
0r
1y
0c
1i
#30752730818
1t
0s
0r
1y
1c
1i
#30752731586
0t
0s
0r
1y
1c
1i
#30752732410
1t
0s
0r
1y
0c
1i
#30752733178
0t
0s
0r
1y
0c
1i
#30752733999
1t
0s
0r
1y
0c
1i
#30752734762
0t
0s
0r
1y
0c
1i
#30752735586
1t
0s
0r
1y
0c
1i
#30752736339
0t
0s
0r
1y
0c
1i
#30752737148
1t
0s
0r
1y
0c
1i
#30752737897
0t
0s
0r
1y
0c
1i
#30752738695
1t
0s
0r
1y
0c
1i
#30752739432
0t
0s
0r
1y
0c
1i
#30752740222
1t
0s
0r
1y
0c
0i
#30752743392
0t
0s
0r
1y
0c
0i
#30752744668
1t
0s
0r
1y
0c
0i
#30752745364
0t
0s
0r
1y
0c
0i
#30752746109
1t
0s
0r
1y
0c
0i
#30752746798
0t
0s
0r
1y
0c
0i
#30752747531
1t
0s
0r
1y
0c
0i
#30752748212
0t
0s
0r
1y
0c
0i
#30752748937
1t
0s
0r
1y
0c
0i
#30752749616
0t
0s
0r
1y
0c
0i
#30752750334
1t
0s
0r
1y
0c
0i
#30752751001
0t
0s
0r
1y
0c
0i
#30752751710
1t
0s
0r
1y
0c
0i
#30752752372
0t
0s
0r
1y
0c
0i
#30752753078
1t
0s
0r
1y
0c
0i
#30752753735
0t
0s
0r
1y
0c
0i
#30752754436
1t
0s
0r
1y
0c
0i
#30752755094
0t
0s
0r
1y
0c
0i
#30752755796
1t
0s
0r
1y
0c
0i
#30752756450
0t
0s
0r
1y
0c
0i
#30752757158
1t
0s
0r
1y
0c
0i
#30752757815
0t
0s
0r
1y
0c
1i
#30752758524
1t
0s
0r
1y
0c
1i
#30752759186
0t
0s
0r
1y
0c
1i
#30752759894
1t
0s
0r
1y
1c
1i
#30752760562
0t
0s
0r
1y
1c
1i
#30752761271
1t
0s
0r
1y
0c
1i
#30752761940
0t
0s
0r
1y
0c
1i
#30752762655
1t
0s
0r
1y
0c
1i
#30752763323
0t
0s
0r
1y
0c
1i
#30752764036
1t
0s
0r
1y
0c
1i
#30752764699
0t
0s
0r
1y
0c
1i
#30752765411
1t
0s
0r
1y
0c
1i
#30752766069
0t
0s
0r
1y
0c
1i
#30752766771
1t
0s
0r
1y
0c
1i
#30752767419
0t
0s
0r
1y
0c
1i
#30752768111
1t
0s
0r
1y
0c
1i
#30752768748
0t
0s
0r
1y
0c
0i
#30752769422
1t
0s
0r
1y
0c
0i
#30752770048
0t
0s
0r
1y
0c
0i
#30752770710
1t
0s
0r
1y
0c
0i
#30752771323
0t
0s
0r
1y
0c
0i
#30752771972
1t
0s
0r
1y
0c
0i
#30752772573
0t
0s
0r
1y
0c
0i
#30752773204
1t
0s
0r
1y
0c
0i
#30752773792
0t
0s
0r
1y
0c
0i
#30752774414
1t
0s
0r
1y
0c
0i
#30752774993
0t
0s
0r
1y
0c
0i
#30752775606
1t
0s
0r
1y
0c
0i
#30752776177
0t
0s
0r
1y
0c
0i
#30752776785
1t
0s
0r
1y
0c
0i
#30752777348
0t
0s
0r
1y
0c
0i
#30752777950
1t
0s
0r
1y
0c
0i
#30752778513
0t
0s
0r
1y
0c
0i
#30752779110
1t
0s
0r
1y
0c
0i
#30752779676
0t
0s
0r
1y
0c
0i
#30752780278
1t
0s
0r
1y
0c
0i
#30752780842
0t
0s
0r
1y
0c
0i
#30752781445
1t
0s
0r
1y
0c
0i
#30752782010
0t
0s
0r
1y
0c
0i
#30752782615
1t
0s
0r
1y
0c
0i
#30752783187
0t
0s
0r
1y
0c
0i
#30752783798
1t
0s
0r
1y
0c
1i
#30752784371
0t
0s
0r
1y
1c
1i
#30752784987
1t
0s
0r
1y
1c
1i
#30752785563
0t
0s
0r
1y
0c
1i
#30752786183
1t
0s
0r
1y
0c
1i
#30752786763
0t
0s
0r
1y
0c
1i
#30752787383
1t
0s
0r
1y
0c
1i
#30752787966
0t
0s
0r
1y
0c
1i
#30752788587
1t
0s
0r
1y
0c
1i
#30752789171
0t
0s
0r
1y
0c
1i
#30752789790
1t
0s
0r
1y
0c
1i
#30752790370
0t
0s
0r
1y
0c
1i
#30752790980
1t
0s
0r
1y
0c
1i
#30752791548
0t
0s
0r
1y
0c
1i
#30752792142
1t
0s
0r
1y
0c
1i
#30752792686
0t
0s
0r
1y
0c
1i
#30752793257
1t
0s
0r
1y
0c
1i
#30752793787
0t
0s
0r
1y
0c
1i
#30752794342
1t
0s
0r
1y
0c
0i
#30752794855
0t
0s
0r
1y
0c
0i
#30752795396
1t
0s
0r
1y
0c
0i
#30752795612
1t
1s
0r
1y
0c
0i
#30752795612
1t
0s
0r
1y
0c
0i
#30752795897
0t
0s
0r
1y
0c
0i
#30752796426
1t
0s
0r
1y
0c
0i
#30752796920
0t
0s
0r
1y
0c
0i
#30752797444
1t
0s
0r
1y
0c
0i
#30752797931
0t
0s
0r
1y
0c
0i
#30752798452
1t
0s
0r
1y
0c
0i
#30752798938
0t
0s
0r
1y
0c
0i
#30752799458
1t
0s
0r
1y
0c
0i
#30752799940
0t
0s
0r
1y
0c
0i
#30752800459
1t
0s
0r
1y
0c
0i
#30752800945
0t
0s
0r
1y
0c
0i
#30752801467
1t
0s
0r
1y
0c
0i
#30752801951
0t
0s
0r
1y
0c
0i
#30752802473
1t
0s
0r
1y
0c
0i
#30752802960
0t
0s
0r
1y
0c
1i
#30752803486
1t
0s
0r
1y
0c
1i
#30752803980
0t
0s
0r
1y
0c
1i
#30752804512
1t
0s
0r
1y
0c
1i
#30752805006
0t
0s
0r
1y
0c
1i
#30752805543
1t
0s
0r
1y
1c
1i
#30752806043
0t
0s
0r
1y
1c
1i
#30752806583
1t
0s
0r
1y
1c
1i
#30752807084
0t
0s
0r
1y
0c
1i
#30752807626
1t
0s
0r
1y
0c
1i
#30752808133
0t
0s
0r
1y
0c
1i
#30752808677
1t
0s
0r
1y
0c
1i
#30752809188
0t
0s
0r
1y
0c
1i
#30752809736
1t
0s
0r
1y
0c
1i
#30752810243
0t
0s
0r
1y
0c
1i
#30752810790
1t
0s
0r
1y
0c
1i
#30752811294
0t
0s
0r
1y
0c
1i
#30752811833
1t
0s
0r
1y
0c
1i
#30752812331
0t
0s
0r
1y
0c
1i
#30752812859
1t
0s
0r
1y
0c
0i
#30752814999
0t
0s
0r
1y
0c
0i
#30752815808
1t
0s
0r
1y
0c
0i
#30752816261
0t
0s
0r
1y
0c
0i
#30752816747
1t
0s
0r
1y
0c
0i
#30752817197
0t
0s
0r
1y
0c
0i
#30752817680
1t
0s
0r
1y
0c
0i
#30752818128
0t
0s
0r
1y
0c
0i
#30752818608
1t
0s
0r
1y
0c
0i
#30752819053
0t
0s
0r
1y
0c
0i
#30752819529
1t
0s
0r
1y
0c
0i
#30752819974
0t
0s
0r
1y
0c
0i
#30752820450
1t
0s
0r
1y
0c
1i
#30752820892
0t
0s
0r
1y
0c
1i
#30752821372
1t
0s
0r
1y
0c
1i
#30752821814
0t
0s
0r
1y
0c
1i
#30752822292
1t
0s
0r
1y
0c
1i
#30752822737
0t
0s
0r
1y
0c
1i
#30752823218
1t
0s
0r
1y
0c
1i
#30752823665
0t
0s
0r
1y
0c
1i
#30752824147
1t
0s
0r
1y
1c
1i
#30752824597
0t
0s
0r
1y
1c
1i
#30752825082
1t
0s
0r
1y
1c
1i
#30752825538
0t
0s
0r
1y
1c
1i
#30752826028
1t
0s
0r
1y
1c
1i
#30752826483
0t
0s
0r
1y
0c
1i
#30752826972
1t
0s
0r
1y
0c
1i
#30752827432
0t
0s
0r
1y
0c
1i
#30752827926
1t
0s
0r
1y
0c
1i
#30752828384
0t
0s
0r
1y
0c
0i
#30752828699
0t
0s
1r
1y
0c
0i
#30752828702
0t
0s
0r
1y
0c
0i
#30752828881
1t
0s
0r
1y
0c
0i
#30752829342
0t
0s
0r
1y
0c
0i
#30752829837
1t
0s
0r
1y
0c
0i
#30752830298
0t
0s
0r
1y
0c
0i
#30752830792
1t
0s
0r
1y
0c
0i
#30752831249
0t
0s
0r
1y
0c
0i
#30752831737
1t
0s
0r
1y
0c
0i
#30752832191
0t
0s
0r
1y
0c
0i
#30752832671
1t
0s
0r
1y
0c
0i
#30752833115
0t
0s
0r
1y
0c
0i
#30752833585
1t
0s
0r
1y
0c
0i
#30752834016
0t
0s
0r
1y
0c
0i
#30752834474
1t
0s
0r
1y
0c
0i
#30752834901
0t
0s
0r
1y
0c
0i
#30752835352
1t
0s
0r
1y
0c
0i
#30752835773
0t
0s
0r
1y
0c
0i
#30752836220
1t
0s
0r
1y
0c
0i
#30752836638
0t
0s
0r
1y
0c
0i
#30752837083
1t
0s
0r
1y
0c
0i
#30752837496
0t
0s
0r
1y
0c
0i
#30752837939
1t
0s
0r
1y
0c
0i
#30752838352
0t
0s
0r
1y
0c
0i
#30752838794
1t
0s
0r
1y
0c
0i
#30752839203
0t
0s
0r
1y
0c
0i
#30752839642
1t
0s
0r
1y
0c
0i
#30752840057
0t
0s
0r
1y
0c
0i
#30752840499
1t
0s
0r
1y
0c
1i
#30752840911
0t
0s
0r
1y
0c
1i
#30752841355
1t
0s
0r
1y
0c
1i
#30752841770
0t
0s
0r
1y
0c
1i
#30752842213
1t
0s
0r
1y
0c
1i
#30752842629
0t
0s
0r
1y
0c
1i
#30752843074
1t
0s
0r
1y
1c
1i
#30752843492
0t
0s
0r
1y
1c
1i
#30752843939
1t
0s
0r
1y
1c
1i
#30752844360
0t
0s
0r
1y
1c
1i
#30752844808
1t
0s
0r
1y
0c
1i
#30752845229
0t
0s
0r
1y
0c
1i
#30752845677
1t
0s
0r
1y
0c
1i
#30752846103
0t
0s
0r
1y
0c
1i
#30752846553
1t
0s
0r
1y
0c
1i
#30752846978
0t
0s
0r
1y
0c
1i
#30752847428
1t
0s
0r
1y
0c
0i
#30752944609
0t
0s
0r
1y
0c
0i
#30752944957
1t
0s
0r
1y
0c
0i
#30752945283
0t
0s
0r
1y
0c
0i
#30752945630
1t
0s
0r
1y
0c
0i
#30752945952
0t
0s
0r
1y
0c
0i
#30752946297
1t
0s
0r
1y
0c
0i
#30752946620
0t
0s
0r
1y
0c
0i
#30752946967
1t
0s
0r
1y
0c
0i
#30752947287
0t
0s
0r
1y
0c
0i
#30752947633
1t
0s
0r
1y
0c
1i
#30752947954
0t
0s
0r
1y
1c
1i
#30752948301
1t
0s
0r
1y
1c
1i
#30752948623
0t
0s
0r
1y
1c
1i
#30752948970
1t
0s
0r
1y
1c
1i
#30752949291
0t
0s
0r
1y
1c
1i
#30752949639
1t
0s
0r
1y
1c
1i
#30752949962
0t
0s
0r
1y
1c
1i
#30752950311
1t
0s
0r
1y
1c
1i
#30752950633
0t
0s
0r
1y
0c
1i
#30752950983
1t
0s
0r
1y
0c
1i
#30752951305
0t
0s
0r
1y
0c
1i
#30752951654
1t
0s
0r
1y
0c
1i
#30752951979
0t
0s
0r
1y
0c
1i
#30752952329
1t
0s
0r
1y
0c
0i
#30752952656
0t
0s
0r
1y
0c
0i
#30752953004
1t
0s
0r
1y
0c
0i
#30752953328
0t
0s
0r
1y
0c
0i
#30752953677
1t
0s
0r
1y
0c
0i
#30752954002
0t
0s
0r
1y
0c
0i
#30752954352
1t
0s
0r
1y
0c
0i
#30752955340
0t
0s
0r
1y
0c
0i
#30752956355
1t
0s
0r
1y
0c
0i
#30752956672
0t
0s
0r
1y
0c
0i
#30752957013
1t
0s
0r
1y
0c
0i
#30752957329
0t
0s
0r
1y
0c
0i
#30752957669
1t
0s
0r
1y
0c
0i
#30752957983
0t
0s
0r
1y
0c
0i
#30752958323
1t
0s
0r
1y
0c
0i
#30752958637
0t
0s
0r
1y
0c
0i
#30752958975
1t
0s
0r
1y
0c
0i
#30752959289
0t
0s
0r
1y
0c
0i
#30752959628
1t
0s
0r
1y
0c
0i
#30752959941
0t
0s
0r
1y
0c
0i
#30752960277
1t
0s
0r
1y
0c
0i
#30752960591
0t
0s
0r
1y
0c
0i
#30752960928
1t
0s
0r
1y
0c
1i
#30752961241
0t
0s
0r
1y
1c
1i
#30752961580
1t
0s
0r
1y
1c
1i
#30752961892
0t
0s
0r
1y
1c
1i
#30752962230
1t
0s
0r
1y
1c
1i
#30752962545
0t
0s
0r
1y
1c
1i
#30752962882
1t
0s
0r
1y
1c
1i
#30752963199
0t
0s
0r
1y
1c
1i
#30752963536
1t
0s
0r
1y
1c
1i
#30752963853
0t
0s
0r
1y
0c
1i
#30752964193
1t
0s
0r
1y
0c
1i
#30752964509
0t
0s
0r
1y
0c
1i
#30752964849
1t
0s
0r
1y
0c
1i
#30752965165
0t
0s
0r
1y
0c
1i
#30752965504
1t
0s
0r
1y
0c
0i
#30752965823
0t
0s
0r
1y
0c
0i
#30752966161
1t
0s
0r
1y
0c
0i
#30752966478
0t
0s
0r
1y
0c
0i
#30752966819
1t
0s
0r
1y
0c
0i
#30752967135
0t
0s
0r
1y
0c
0i
#30752967473
1t
0s
0r
1y
0c
0i
#30752967791
0t
0s
0r
1y
0c
0i
#30752968129
1t
0s
0r
1y
0c
0i
#30752968443
0t
0s
0r
1y
0c
0i
#30752968777
1t
0s
0r
1y
0c
0i
#30752969092
0t
0s
0r
1y
0c
0i
#30752969428
1t
0s
0r
1y
0c
0i
#30752969740
0t
0s
0r
1y
0c
0i
#30752970072
1t
0s
0r
1y
0c
0i
#30752970384
0t
0s
0r
1y
0c
0i
#30752970718
1t
0s
0r
1y
0c
0i
#30752971027
0t
0s
0r
1y
0c
0i
#30752971360
1t
0s
0r
1y
0c
0i
#30752971669
0t
0s
0r
1y
0c
0i
#30752972000
1t
0s
0r
1y
0c
0i
#30752972310
0t
0s
0r
1y
0c
0i
#30752972639
1t
0s
0r
1y
0c
0i
#30752972947
0t
0s
0r
1y
0c
0i
#30752973278
1t
0s
0r
1y
0c
0i
#30752973586
0t
0s
0r
1y
0c
0i
#30752973917
1t
0s
0r
1y
1c
1i
#30752974226
0t
0s
0r
1y
1c
1i
#30752974554
1t
0s
0r
1y
1c
1i
#30752974865
0t
0s
0r
1y
1c
1i
#30752975194
1t
0s
0r
1y
1c
1i
#30752975503
0t
0s
0r
1y
1c
1i
#30752975833
1t
0s
0r
1y
1c
1i
#30752976143
0t
0s
0r
1y
1c
1i
#30752976475
1t
0s
0r
1y
1c
1i
#30752976784
0t
0s
0r
1y
0c
1i
#30752977115
1t
0s
0r
1y
0c
1i
#30752977425
0t
0s
0r
1y
0c
1i
#30752977758
1t
0s
0r
1y
0c
1i
#30752978068
0t
0s
0r
1y
0c
1i
#30752978398
1t
0s
0r
1y
0c
1i
#30752978711
0t
0s
0r
1y
0c
0i
#30752979042
1t
0s
0r
1y
0c
0i
#30752979354
0t
0s
0r
1y
0c
0i
#30752979686
1t
0s
0r
1y
0c
0i
#30752979997
0t
0s
0r
1y
0c
0i
#30752980329
1t
0s
0r
1y
0c
0i
#30752980636
0t
0s
0r
1y
0c
0i
#30752980966
1t
0s
0r
1y
0c
0i
#30752981274
0t
0s
0r
1y
0c
0i
#30752981602
1t
0s
0r
1y
0c
0i
#30752981908
0t
0s
0r
1y
0c
0i
