rusefi_bundle_mega100/rusefi.snapshot.mega100/console/logs/rusEFI_trigger_log_2024-11-11_00_23_01_223.vcd
$date
	Mon Nov 11 00:23:01 CET 2024
$end
$version
        1.0
$end
$timescale
        1ps
$end
$scope module test $end
$var wire 1 t PRI_TRG $end
$var wire 1 s SEC_TRG $end
$var wire 1 r TRG $end
$var wire 1 y SYNC $end
$var wire 1 c COIL $end
$var wire 1 i INJ $end
$upscope $end
$enddefinitions $end
$dumpvars
#481409706826
1t
0s
0r
1y
0c
0i
#481409707409
0t
0s
0r
1y
0c
0i
#481409708037
1t
0s
0r
1y
0c
0i
#481409708621
0t
0s
0r
1y
0c
0i
#481409709247
1t
0s
0r
1y
0c
0i
#481409709828
0t
0s
0r
1y
0c
0i
#481409710454
1t
0s
0r
1y
0c
0i
#481409711034
0t
0s
0r
1y
0c
0i
#481409711659
1t
0s
0r
1y
0c
0i
#481409712238
0t
0s
0r
1y
0c
0i
#481409712859
1t
0s
0r
1y
0c
0i
#481409713439
0t
0s
0r
1y
0c
0i
#481409714058
1t
0s
0r
1y
0c
0i
#481409714640
0t
0s
0r
1y
0c
0i
#481409715260
1t
0s
0r
1y
0c
0i
#481409715842
0t
0s
0r
1y
0c
0i
#481409716463
1t
0s
0r
1y
0c
0i
#481409717045
0t
0s
0r
1y
0c
0i
#481409717665
1t
0s
0r
1y
0c
0i
#481409718245
0t
0s
0r
1y
0c
0i
#481409718870
1t
0s
0r
1y
0c
0i
#481409719449
0t
0s
0r
1y
1c
0i
#481409720079
1t
0s
0r
1y
1c
0i
#481409720658
0t
0s
0r
1y
1c
0i
#481409721285
1t
0s
0r
1y
1c
0i
#481409721866
0t
0s
0r
1y
1c
1i
#481409722490
1t
0s
0r
1y
0c
1i
#481409723078
0t
0s
0r
1y
0c
1i
#481409723703
1t
0s
0r
1y
0c
0i
#481409724289
0t
0s
0r
1y
0c
0i
#481409724914
1t
0s
0r
1y
0c
0i
#481409725501
0t
0s
0r
1y
0c
0i
#481409726126
1t
0s
0r
1y
0c
0i
#481409726712
0t
0s
0r
1y
0c
0i
#481409727336
1t
0s
0r
1y
0c
0i
#481409727918
0t
0s
0r
1y
0c
0i
#481409728545
1t
0s
0r
1y
0c
0i
#481409729128
0t
0s
0r
1y
0c
0i
#481409729754
1t
0s
0r
1y
0c
0i
#481409730338
0t
0s
0r
1y
0c
0i
#481409730964
1t
0s
0r
1y
0c
0i
#481409731543
0t
0s
0r
1y
0c
0i
#481409732169
1t
0s
0r
1y
0c
0i
#481409732750
0t
0s
0r
1y
0c
0i
#481409733375
1t
0s
0r
1y
0c
0i
#481409733957
0t
0s
0r
1y
0c
0i
#481409734585
1t
0s
0r
1y
0c
0i
#481409735165
0t
0s
0r
1y
0c
0i
#481409735793
1t
0s
0r
1y
0c
0i
#481409736373
0t
0s
0r
1y
0c
0i
#481409736999
1t
0s
0r
1y
0c
0i
#481409737579
0t
0s
0r
1y
0c
0i
#481409738206
1t
0s
0r
1y
0c
0i
#481409738786
0t
0s
0r
1y
0c
0i
#481409739412
1t
0s
0r
1y
0c
0i
#481409739993
0t
0s
0r
1y
0c
0i
#481409740620
1t
0s
0r
1y
0c
0i
#481409741200
0t
0s
0r
1y
0c
0i
#481409741828
1t
0s
0r
1y
0c
0i
#481409742406
0t
0s
0r
1y
0c
0i
#481409743038
1t
0s
0r
1y
0c
0i
#481409743619
0t
0s
0r
1y
1c
0i
#481409744252
1t
0s
0r
1y
1c
0i
#481409744837
0t
0s
0r
1y
1c
0i
#481409745467
1t
0s
0r
1y
1c
0i
#481409746053
0t
0s
0r
1y
1c
1i
#481409746687
1t
0s
0r
1y
1c
1i
#481409747271
0t
0s
0r
1y
0c
1i
#481409747908
1t
0s
0r
1y
0c
0i
#481409748492
0t
0s
0r
1y
0c
0i
#481409749127
1t
0s
0r
1y
0c
0i
#481409749709
0t
0s
0r
1y
0c
0i
#481409750344
1t
0s
0r
1y
0c
0i
#481409750927
0t
0s
0r
1y
0c
0i
#481409751564
1t
0s
0r
1y
0c
0i
#481409754202
0t
0s
0r
1y
0c
0i
#481409755223
1t
0s
0r
1y
0c
0i
#481409755804
0t
0s
0r
1y
0c
0i
#481409756438
1t
0s
0r
1y
0c
0i
#481409757022
0t
0s
0r
1y
0c
0i
#481409757651
1t
0s
0r
1y
0c
0i
#481409758237
0t
0s
0r
1y
0c
0i
#481409758869
1t
0s
0r
1y
0c
0i
#481409759453
0t
0s
0r
1y
0c
0i
#481409760083
1t
0s
0r
1y
0c
0i
#481409760668
0t
0s
0r
1y
0c
0i
#481409761299
1t
0s
0r
1y
0c
0i
#481409761881
0t
0s
0r
1y
0c
0i
#481409762512
1t
0s
0r
1y
0c
0i
#481409763092
0t
0s
0r
1y
0c
0i
#481409763724
1t
0s
0r
1y
0c
0i
#481409764304
0t
0s
0r
1y
0c
0i
#481409764935
1t
0s
0r
1y
0c
0i
#481409765516
0t
0s
0r
1y
0c
0i
#481409766148
1t
0s
0r
1y
0c
0i
#481409766734
0t
0s
0r
1y
0c
0i
#481409767364
1t
0s
0r
1y
0c
0i
#481409767950
0t
0s
0r
1y
1c
0i
#481409768581
1t
0s
0r
1y
1c
0i
#481409769168
0t
0s
0r
1y
1c
0i
#481409769799
1t
0s
0r
1y
1c
0i
#481409770390
0t
0s
0r
1y
1c
1i
#481409771023
1t
0s
0r
1y
1c
1i
#481409771612
0t
0s
0r
1y
0c
1i
#481409772245
1t
0s
0r
1y
0c
0i
#481409772834
0t
0s
0r
1y
0c
0i
#481409773471
1t
0s
0r
1y
0c
0i
#481409774059
0t
0s
0r
1y
0c
0i
#481409774692
1t
0s
0r
1y
0c
0i
#481409775282
0t
0s
0r
1y
0c
0i
#481409775915
1t
0s
0r
1y
0c
0i
#481409776504
0t
0s
0r
1y
0c
0i
#481409777139
1t
0s
0r
1y
0c
0i
#481409777724
0t
0s
0r
1y
0c
0i
#481409778360
1t
0s
0r
1y
0c
0i
#481409778943
0t
0s
0r
1y
0c
0i
#481409779576
1t
0s
0r
1y
0c
0i
#481409780161
0t
0s
0r
1y
0c
0i
#481409780792
1t
0s
0r
1y
0c
0i
#481409781375
0t
0s
0r
1y
0c
0i
#481409782002
1t
0s
0r
1y
0c
0i
#481409782584
0t
0s
0r
1y
0c
0i
#481409783213
1t
0s
0r
1y
0c
0i
#481409783794
0t
0s
0r
1y
0c
0i
#481409784418
1t
0s
0r
1y
0c
0i
#481409785001
0t
0s
0r
1y
0c
0i
#481409785624
1t
0s
0r
1y
0c
0i
#481409786203
0t
0s
0r
1y
0c
0i
#481409786825
1t
0s
0r
1y
0c
0i
#481409787409
0t
0s
0r
1y
0c
0i
#481409788034
1t
0s
0r
1y
0c
0i
#481409788615
0t
0s
0r
1y
0c
0i
#481409789238
1t
0s
0r
1y
0c
0i
#481409789823
0t
0s
0r
1y
0c
0i
#481409790444
1t
0s
0r
1y
0c
0i
#481409791027
0t
0s
0r
1y
0c
0i
#481409791653
1t
0s
0r
1y
0c
0i
#481409792236
0t
0s
0r
1y
0c
0i
#481409792864
1t
0s
0r
1y
1c
0i
#481409793447
0t
0s
0r
1y
1c
0i
#481409794077
1t
0s
0r
1y
1c
0i
#481409794661
0t
0s
0r
1y
1c
1i
#481409795289
1t
0s
0r
1y
1c
1i
#481409795876
0t
0s
0r
1y
0c
1i
#481409796504
1t
0s
0r
1y
0c
1i
#481409797092
0t
0s
0r
1y
0c
0i
#481409797719
1t
0s
0r
1y
0c
0i
#481409798308
0t
0s
0r
1y
0c
0i
#481409798935
1t
0s
0r
1y
0c
0i
#481409799522
0t
0s
0r
1y
0c
0i
#481409800150
1t
0s
0r
1y
0c
0i
#481409800733
0t
0s
0r
1y
0c
0i
#481409801361
1t
0s
0r
1y
0c
0i
#481409801948
0t
0s
0r
1y
0c
0i
#481409802576
1t
0s
0r
1y
0c
0i
#481409803159
0t
0s
0r
1y
0c
0i
#481409803788
1t
0s
0r
1y
0c
0i
#481409803864
1t
1s
0r
1y
0c
0i
#481409803864
1t
0s
0r
1y
0c
0i
#481409804372
0t
0s
0r
1y
0c
0i
#481409804996
1t
0s
0r
1y
0c
0i
#481409805581
0t
0s
0r
1y
0c
0i
#481409806206
1t
0s
0r
1y
0c
0i
#481409806792
0t
0s
0r
1y
0c
0i
#481409807421
1t
0s
0r
1y
0c
0i
#481409808004
0t
0s
0r
1y
0c
0i
#481409808635
1t
0s
0r
1y
0c
0i
#481409809217
0t
0s
0r
1y
0c
0i
#481409809842
1t
0s
0r
1y
0c
0i
#481409810429
0t
0s
0r
1y
0c
0i
#481409811056
1t
0s
0r
1y
0c
0i
#481409811637
0t
0s
0r
1y
0c
0i
#481409812264
1t
0s
0r
1y
0c
0i
#481409812850
0t
0s
0r
1y
0c
0i
#481409813478
1t
0s
0r
1y
0c
0i
#481409814061
0t
0s
0r
1y
0c
0i
#481409814692
1t
0s
0r
1y
0c
0i
#481409815273
0t
0s
0r
1y
0c
0i
#481409815906
1t
0s
0r
1y
0c
0i
#481409816492
0t
0s
0r
1y
1c
0i
#481409817123
1t
0s
0r
1y
1c
0i
#481409817711
0t
0s
0r
1y
1c
0i
#481409818343
1t
0s
0r
1y
1c
0i
#481409818928
0t
0s
0r
1y
1c
1i
#481409819564
1t
0s
0r
1y
1c
1i
#481409820150
0t
0s
0r
1y
0c
1i
#481409820787
1t
0s
0r
1y
0c
0i
#481409820840
1t
0s
1r
1y
0c
0i
#481409820843
1t
0s
0r
1y
0c
0i
#481409821372
0t
0s
0r
1y
0c
0i
#481409822007
1t
0s
0r
1y
0c
0i
#481409822592
0t
0s
0r
1y
0c
0i
#481409823228
1t
0s
0r
1y
0c
0i
#481409823812
0t
0s
0r
1y
0c
0i
#481409824445
1t
0s
0r
1y
0c
0i
#481409827098
0t
0s
0r
1y
0c
0i
#481409828115
1t
0s
0r
1y
0c
0i
#481409828702
0t
0s
0r
1y
0c
0i
#481409829339
1t
0s
0r
1y
0c
0i
#481409829923
0t
0s
0r
1y
0c
0i
#481409830558
1t
0s
0r
1y
0c
0i
#481409831146
0t
0s
0r
1y
0c
0i
#481409831782
1t
0s
0r
1y
0c
0i
#481409832371
0t
0s
0r
1y
0c
0i
#481409833009
1t
0s
0r
1y
0c
0i
#481409833595
0t
0s
0r
1y
0c
0i
#481409834232
1t
0s
0r
1y
0c
0i
#481409834820
0t
0s
0r
1y
0c
0i
#481409835457
1t
0s
0r
1y
0c
0i
#481409836046
0t
0s
0r
1y
0c
0i
#481409836681
1t
0s
0r
1y
0c
0i
#481409837271
0t
0s
0r
1y
0c
0i
#481409837910
1t
0s
0r
1y
0c
0i
#481409838497
0t
0s
0r
1y
0c
0i
#481409839138
1t
0s
0r
1y
0c
0i
#481409839729
0t
0s
0r
1y
0c
0i
#481409840370
1t
0s
0r
1y
0c
0i
#481409840964
0t
0s
0r
1y
0c
0i
#481409841605
1t
0s
0r
1y
1c
0i
#481409842201
0t
0s
0r
1y
1c
0i
#481409842840
1t
0s
0r
1y
1c
0i
#481409843438
0t
0s
0r
1y
1c
1i
#481409844082
1t
0s
0r
1y
1c
1i
#481409844680
0t
0s
0r
1y
0c
1i
#481409845324
1t
0s
0r
1y
0c
0i
#481409845923
0t
0s
0r
1y
0c
0i
#481409846569
1t
0s
0r
1y
0c
0i
#481409847165
0t
0s
0r
1y
0c
0i
#481409847810
1t
0s
0r
1y
0c
0i
#481409848408
0t
0s
0r
1y
0c
0i
#481409849050
1t
0s
0r
1y
0c
0i
#481409849648
0t
0s
0r
1y
0c
0i
#481409850292
1t
0s
0r
1y
0c
0i
#481409850889
0t
0s
0r
1y
0c
0i
#481409851530
1t
0s
0r
1y
0c
0i
#481409852126
0t
0s
0r
1y
0c
0i
#481409852766
1t
0s
0r
1y
0c
0i
#481409853363
0t
0s
0r
1y
0c
0i
#481409854003
1t
0s
0r
1y
0c
0i
#481409854598
0t
0s
0r
1y
0c
0i
#481409855233
1t
0s
0r
1y
0c
0i
#481409855829
0t
0s
0r
1y
0c
0i
#481409856467
1t
0s
0r
1y
0c
0i
#481409857059
0t
0s
0r
1y
0c
0i
#481409857695
1t
0s
0r
1y
0c
0i
#481409858286
0t
0s
0r
1y
0c
0i
#481409858921
1t
0s
0r
1y
0c
0i
#481409859511
0t
0s
0r
1y
0c
0i
#481409860144
1t
0s
0r
1y
0c
0i
#481409860735
0t
0s
0r
1y
0c
0i
#481409861370
1t
0s
0r
1y
0c
0i
#481409861960
0t
0s
0r
1y
0c
0i
#481409862596
1t
0s
0r
1y
0c
0i
#481409863189
0t
0s
0r
1y
0c
0i
#481409863820
1t
0s
0r
1y
0c
0i
#481409864414
0t
0s
0r
1y
0c
0i
#481409865050
1t
0s
0r
1y
0c
0i
#481409865643
0t
0s
0r
1y
0c
0i
#481409866278
1t
0s
0r
1y
1c
0i
#481409866874
0t
0s
0r
1y
1c
0i
#481409867511
1t
0s
0r
1y
1c
0i
#481409868107
0t
0s
0r
1y
1c
1i
#481409868745
1t
0s
0r
1y
1c
1i
#481409869340
0t
0s
0r
1y
0c
1i
#481409869981
1t
0s
0r
1y
0c
0i
#481409870576
0t
0s
0r
1y
0c
0i
#481409871214
1t
0s
0r
1y
0c
0i
#481409871812
0t
0s
0r
1y
0c
0i
#481409872451
1t
0s
0r
1y
0c
0i
#481409873047
0t
0s
0r
1y
0c
0i
#481409873687
1t
0s
0r
1y
0c
0i
#481409874279
0t
0s
0r
1y
0c
0i
#481409874918
1t
0s
0r
1y
0c
0i
#481409875512
0t
0s
0r
1y
0c
0i
#481409876149
1t
0s
0r
1y
0c
0i
#481409876745
0t
0s
0r
1y
0c
0i
#481409877382
1t
0s
0r
1y
0c
0i
#481409877977
0t
0s
0r
1y
0c
0i
#481409878612
1t
0s
0r
1y
0c
0i
#481409879206
0t
0s
0r
1y
0c
0i
#481409879843
1t
0s
0r
1y
0c
0i
#481409880439
0t
0s
0r
1y
0c
0i
#481409881078
1t
0s
0r
1y
0c
0i
#481409881671
0t
0s
0r
1y
0c
0i
#481409882311
1t
0s
0r
1y
0c
0i
#481409882903
0t
0s
0r
1y
0c
0i
#481409883544
1t
0s
0r
1y
0c
0i
#481409884134
0t
0s
0r
1y
0c
0i
#481409884773
1t
0s
0r
1y
0c
0i
#481409885366
0t
0s
0r
1y
0c
0i
#481409886004
1t
0s
0r
1y
0c
0i
#481409886597
0t
0s
0r
1y
0c
0i
#481409887237
1t
0s
0r
1y
0c
0i
#481409887828
0t
0s
0r
1y
0c
0i
#481409888471
1t
0s
0r
1y
0c
0i
#481409889062
0t
0s
0r
1y
0c
0i
#481409889707
1t
0s
0r
1y
0c
0i
#481409890302
0t
0s
0r
1y
0c
0i
#481409890945
1t
0s
0r
1y
1c
0i
#481409891542
0t
0s
0r
1y
1c
0i
#481409892187
1t
0s
0r
1y
1c
0i
#481409892785
0t
0s
0r
1y
1c
1i
#481409893433
1t
0s
0r
1y
1c
1i
#481409894029
0t
0s
0r
1y
0c
1i
#481409894678
1t
0s
0r
1y
0c
0i
#481409895277
0t
0s
0r
1y
0c
0i
#481409895924
1t
0s
0r
1y
0c
0i
#481409896520
0t
0s
0r
1y
0c
0i
#481409897166
1t
0s
0r
1y
0c
0i
#481409897763
0t
0s
0r
1y
0c
0i
#481409898413
1t
0s
0r
1y
0c
0i
#481409901102
0t
0s
0r
1y
0c
0i
#481409902140
1t
0s
0r
1y
0c
0i
#481409902732
0t
0s
0r
1y
0c
0i
#481409903376
1t
0s
0r
1y
0c
0i
#481409903966
0t
0s
0r
1y
0c
0i
#481409904605
1t
0s
0r
1y
0c
0i
#481409905197
0t
0s
0r
1y
0c
0i
#481409905834
1t
0s
0r
1y
0c
0i
#481409906425
0t
0s
0r
1y
0c
0i
#481409907063
1t
0s
0r
1y
0c
0i
#481409907651
0t
0s
0r
1y
0c
0i
#481409908286
1t
0s
0r
1y
0c
0i
#481409908874
0t
0s
0r
1y
0c
0i
#481409909507
1t
0s
0r
1y
0c
0i
#481409910097
0t
0s
0r
1y
0c
0i
#481409910731
1t
0s
0r
1y
0c
0i
#481409911320
0t
0s
0r
1y
0c
0i
#481409911958
1t
0s
0r
1y
0c
0i
#481409912545
0t
0s
0r
1y
0c
0i
#481409913184
1t
0s
0r
1y
0c
0i
#481409913772
0t
0s
0r
1y
0c
0i
#481409914413
1t
0s
0r
1y
0c
0i
#481409915002
0t
0s
0r
1y
0c
0i
#481409915640
1t
0s
0r
1y
1c
0i
#481409916234
0t
0s
0r
1y
1c
0i
#481409916874
1t
0s
0r
1y
1c
0i
#481409917469
0t
0s
0r
1y
1c
1i
#481409918110
1t
0s
0r
1y
1c
1i
#481409918706
0t
0s
0r
1y
0c
1i
#481409919347
1t
0s
0r
1y
0c
0i
#481409919943
0t
0s
0r
1y
0c
0i
#481409920585
1t
0s
0r
1y
0c
0i
#481409921181
0t
0s
0r
1y
0c
0i
#481409921820
1t
0s
0r
1y
0c
0i
#481409922417
0t
0s
0r
1y
0c
0i
#481409923058
1t
0s
0r
1y
0c
0i
#481409923654
0t
0s
0r
1y
0c
0i
#481409924294
1t
0s
0r
1y
0c
0i
#481409924889
0t
0s
0r
1y
0c
0i
#481409925530
1t
0s
0r
1y
0c
0i
#481409926125
0t
0s
0r
1y
0c
0i
#481409926763
1t
0s
0r
1y
0c
0i
#481409927359
0t
0s
0r
1y
0c
0i
#481409927994
1t
0s
0r
1y
0c
0i
#481409928590
0t
0s
0r
1y
0c
0i
#481409929228
1t
0s
0r
1y
0c
0i
#481409929820
0t
0s
0r
1y
0c
0i
#481409930459
1t
0s
0r
1y
0c
0i
#481409931048
0t
0s
0r
1y
0c
0i
#481409931684
1t
0s
0r
1y
0c
0i
#481409932274
0t
0s
0r
1y
0c
0i
#481409932908
1t
0s
0r
1y
0c
0i
#481409933498
0t
0s
0r
1y
0c
0i
#481409934132
1t
0s
0r
1y
0c
0i
#481409934722
0t
0s
0r
1y
0c
0i
#481409935357
1t
0s
0r
1y
0c
0i
#481409935947
0t
0s
0r
1y
0c
0i
#481409936581
1t
0s
0r
1y
0c
0i
#481409937171
0t
0s
0r
1y
0c
0i
#481409937802
1t
0s
0r
1y
0c
0i
#481409938396
0t
0s
0r
1y
0c
0i
#481409939028
1t
0s
0r
1y
0c
0i
#481409939623
0t
0s
0r
1y
0c
0i
#481409940258
1t
0s
0r
1y
1c
0i
#481409940852
0t
0s
0r
1y
1c
0i
#481409941490
1t
0s
0r
1y
1c
0i
#481409942083
0t
0s
0r
1y
1c
1i
#481409942720
1t
0s
0r
1y
1c
1i
#481409943315
0t
0s
0r
1y
0c
1i
#481409943955
1t
0s
0r
1y
0c
0i
#481409944550
0t
0s
0r
1y
0c
0i
#481409945187
1t
0s
0r
1y
0c
0i
#481409945784
0t
0s
0r
1y
0c
0i
#481409946422
1t
0s
0r
1y
0c
0i
#481409947016
0t
0s
0r
1y
0c
0i
#481409947651
1t
0s
0r
1y
0c
0i
#481409948246
0t
0s
0r
1y
0c
0i
#481409948882
1t
0s
0r
1y
0c
0i
#481409949477
0t
0s
0r
1y
0c
0i
#481409950114
1t
0s
0r
1y
0c
0i
#481409950708
0t
0s
0r
1y
0c
0i
#481409951343
1t
0s
0r
1y
0c
0i
#481409951409
1t
1s
0r
1y
0c
0i
#481409951409
1t
0s
0r
1y
0c
0i
#481409951938
0t
0s
0r
1y
0c
0i
#481409952570
1t
0s
0r
1y
0c
0i
#481409953165
0t
0s
0r
1y
0c
0i
#481409953800
1t
0s
0r
1y
0c
0i
#481409954395
0t
0s
0r
1y
0c
0i
#481409955034
1t
0s
0r
1y
0c
0i
#481409955625
0t
0s
0r
1y
0c
0i
#481409956266
1t
0s
0r
1y
0c
0i
#481409956855
0t
0s
0r
1y
0c
0i
#481409957495
1t
0s
0r
1y
0c
0i
#481409958087
0t
0s
0r
1y
0c
0i
#481409958724
1t
0s
0r
1y
0c
0i
#481409959315
0t
0s
0r
1y
0c
0i
#481409959954
1t
0s
0r
1y
0c
0i
#481409960545
0t
0s
0r
1y
0c
0i
#481409961184
1t
0s
0r
1y
0c
0i
#481409961777
0t
0s
0r
1y
0c
0i
#481409962420
1t
0s
0r
1y
0c
0i
#481409963006
0t
0s
0r
1y
0c
0i
#481409963648
1t
0s
0r
1y
0c
0i
#481409964242
0t
0s
0r
1y
0c
0i
#481409964887
1t
0s
0r
1y
1c
0i
#481409965479
0t
0s
0r
1y
1c
0i
#481409966123
1t
0s
0r
1y
1c
0i
#481409966716
0t
0s
0r
1y
1c
1i
#481409967359
1t
0s
0r
1y
1c
1i
#481409967956
0t
0s
0r
1y
0c
1i
#481409968601
1t
0s
0r
1y
0c
0i
#481409969093
1t
0s
1r
1y
0c
0i
#481409969096
1t
0s
0r
1y
0c
0i
#481409969198
0t
0s
0r
1y
0c
0i
#481409969838
1t
0s
0r
1y
0c
0i
#481409970434
0t
0s
0r
1y
0c
0i
#481409971081
1t
0s
0r
1y
0c
0i
#481409971671
0t
0s
0r
1y
0c
0i
#481409972318
1t
0s
0r
1y
0c
0i
#481409975009
0t
0s
0r
1y
0c
0i
#481409976040
1t
0s
0r
1y
0c
0i
#481409976638
0t
0s
0r
1y
0c
0i
#481409977287
1t
0s
0r
1y
0c
0i
#481409977879
0t
0s
0r
1y
0c
0i
#481409978526
1t
0s
0r
1y
0c
0i
#481409979124
0t
0s
0r
1y
0c
0i
#481409979771
1t
0s
0r
1y
0c
0i
#481409980368
0t
0s
0r
1y
0c
0i
#481409981018
1t
0s
0r
1y
0c
0i
#481409981615
0t
0s
0r
1y
0c
0i
#481409982262
1t
0s
0r
1y
0c
0i
#481409982859
0t
0s
0r
1y
0c
0i
#481409983508
1t
0s
0r
1y
0c
0i
#481409984108
0t
0s
0r
1y
0c
0i
#481409984755
1t
0s
0r
1y
0c
0i
#481409985357
0t
0s
0r
1y
0c
0i
#481409986008
1t
0s
0r
1y
0c
0i
#481409986605
0t
0s
0r
1y
0c
0i
#481409987256
1t
0s
0r
1y
0c
0i
#481409987859
0t
0s
0r
1y
0c
0i
#481409988510
1t
0s
0r
1y
0c
0i
#481409989116
0t
0s
0r
1y
0c
0i
#481409989768
1t
0s
0r
1y
1c
0i
#481409990375
0t
0s
0r
1y
1c
0i
#481409991029
1t
0s
0r
1y
1c
0i
#481409991636
0t
0s
0r
1y
1c
1i
#481409992290
1t
0s
0r
1y
1c
1i
#481409992900
0t
0s
0r
1y
0c
1i
#481409993557
1t
0s
0r
1y
0c
0i
#481409994165
0t
0s
0r
1y
0c
0i
#481409994822
1t
0s
0r
1y
0c
0i
#481409995430
0t
0s
0r
1y
0c
0i
#481409996084
1t
0s
0r
1y
0c
0i
#481409996694
0t
0s
0r
1y
0c
0i
#481409997348
1t
0s
0r
1y
0c
0i
#481409997956
0t
0s
0r
1y
0c
0i
#481409998611
1t
0s
0r
1y
0c
0i
#481409999216
0t
0s
0r
1y
0c
0i
#481409999870
1t
0s
0r
1y
0c
0i
#481410000476
0t
0s
0r
1y
0c
0i
#481410001130
1t
0s
0r
1y
0c
0i
#481410001733
0t
0s
0r
1y
0c
0i
#481410002385
1t
0s
0r
1y
0c
0i
#481410002988
0t
0s
0r
1y
0c
0i
#481410003639
1t
0s
0r
1y
0c
0i
#481410004242
0t
0s
0r
1y
0c
0i
#481410004890
1t
0s
0r
1y
0c
0i
#481410005493
0t
0s
0r
1y
0c
0i
#481410006141
1t
0s
0r
1y
0c
0i
#481410006742
0t
0s
0r
1y
0c
0i
#481410007390
1t
0s
0r
1y
0c
0i
#481410007989
0t
0s
0r
1y
0c
0i
#481410008634
1t
0s
0r
1y
0c
0i
#481410009236
0t
0s
0r
1y
0c
0i
#481410009883
1t
0s
0r
1y
0c
0i
#481410010484
0t
0s
0r
1y
0c
0i
#481410011132
1t
0s
0r
1y
0c
0i
#481410011732
0t
0s
0r
1y
0c
0i
#481410012375
1t
0s
0r
1y
0c
0i
#481410012980
0t
0s
0r
1y
0c
0i
#481410013625
1t
0s
0r
1y
0c
0i
#481410014229
0t
0s
0r
1y
0c
0i
#481410014879
1t
0s
0r
1y
1c
0i
#481410015484
0t
0s
0r
1y
1c
0i
#481410016132
1t
0s
0r
1y
1c
0i
#481410016737
0t
0s
0r
1y
1c
1i
#481410017385
1t
0s
0r
1y
1c
1i
#481410017993
0t
0s
0r
1y
0c
1i
#481410018644
1t
0s
0r
1y
0c
0i
#481410019251
0t
0s
0r
1y
0c
0i
#481410019899
1t
0s
0r
1y
0c
0i
#481410020508
0t
0s
0r
1y
0c
0i
#481410021156
1t
0s
0r
1y
0c
0i
#481410021765
0t
0s
0r
1y
0c
0i
#481410022412
1t
0s
0r
1y
0c
0i
#481410023018
0t
0s
0r
1y
0c
0i
#481410023664
1t
0s
0r
1y
0c
0i
#481410024272
0t
0s
0r
1y
0c
0i
#481410024922
1t
0s
0r
1y
0c
0i
#481410025526
0t
0s
0r
1y
0c
0i
#481410026175
1t
0s
0r
1y
0c
0i
#481410026779
0t
0s
0r
1y
0c
0i
#481410027426
1t
0s
0r
1y
0c
0i
#481410028030
0t
0s
0r
1y
0c
0i
#481410028678
1t
0s
0r
1y
0c
0i
#481410029283
0t
0s
0r
1y
0c
0i
#481410029931
1t
0s
0r
1y
0c
0i
#481410030536
0t
0s
0r
1y
0c
0i
#481410031188
1t
0s
0r
1y
0c
0i
#481410031791
0t
0s
0r
1y
0c
0i
#481410032439
1t
0s
0r
1y
0c
0i
#481410033042
0t
0s
0r
1y
0c
0i
#481410033692
1t
0s
0r
1y
0c
0i
#481410034294
0t
0s
0r
1y
0c
0i
#481410034944
1t
0s
0r
1y
0c
0i
#481410035545
0t
0s
0r
1y
0c
0i
#481410036194
1t
0s
0r
1y
0c
0i
#481410036798
0t
0s
0r
1y
0c
0i
#481410037452
1t
0s
0r
1y
0c
0i
#481410038050
0t
0s
0r
1y
0c
0i
#481410038706
1t
0s
0r
1y
0c
0i
#481410039312
0t
0s
0r
1y
0c
0i
#481410039965
1t
0s
0r
1y
1c
0i
#481410040573
0t
0s
0r
1y
1c
0i
#481410041227
1t
0s
0r
1y
1c
0i
#481410041833
0t
0s
0r
1y
1c
1i
#481410042493
1t
0s
0r
1y
1c
1i
#481410043100
0t
0s
0r
1y
0c
1i
#481410043758
1t
0s
0r
1y
0c
0i
#481410044367
0t
0s
0r
1y
0c
0i
#481410045023
1t
0s
0r
1y
0c
0i
#481410045631
0t
0s
0r
1y
0c
0i
#481410046286
1t
0s
0r
1y
0c
0i
#481410046894
0t
0s
0r
1y
0c
0i
#481410047550
1t
0s
0r
1y
0c
0i
#481410050287
0t
0s
0r
1y
0c
0i
#481410051343
1t
0s
0r
1y
0c
0i
#481410051949
0t
0s
0r
1y
0c
0i
#481410052607
1t
0s
0r
1y
0c
0i
#481410053210
0t
0s
0r
1y
0c
0i
#481410053864
1t
0s
0r
1y
0c
0i
#481410054470
0t
0s
0r
1y
0c
0i
#481410055122
1t
0s
0r
1y
0c
0i
#481410055728
0t
0s
0r
1y
0c
0i
#481410056385
1t
0s
0r
1y
0c
0i
#481410056989
0t
0s
0r
1y
0c
0i
#481410057641
1t
0s
0r
1y
0c
0i
#481410058243
0t
0s
0r
1y
0c
0i
#481410058894
1t
0s
0r
1y
0c
0i
#481410059498
0t
0s
0r
1y
0c
0i
#481410060151
1t
0s
0r
1y
0c
0i
#481410060754
0t
0s
0r
1y
0c
0i
#481410061406
1t
0s
0r
1y
0c
0i
#481410062007
0t
0s
0r
1y
0c
0i
#481410062661
1t
0s
0r
1y
0c
0i
#481410063267
0t
0s
0r
1y
0c
0i
#481410063920
1t
0s
0r
1y
0c
0i
#481410064527
0t
0s
0r
1y
0c
0i
#481410065181
1t
0s
0r
1y
1c
0i
#481410065789
0t
0s
0r
1y
1c
0i
#481410066446
1t
0s
0r
1y
1c
0i
#481410067052
0t
0s
0r
1y
1c
1i
#481410067709
1t
0s
0r
1y
1c
1i
#481410068318
0t
0s
0r
1y
0c
1i
#481410068974
1t
0s
0r
1y
0c
0i
#481410069587
0t
0s
0r
1y
0c
0i
#481410070242
1t
0s
0r
1y
0c
0i
#481410070853
0t
0s
0r
1y
0c
0i
#481410071509
1t
0s
0r
1y
0c
0i
#481410072118
0t
0s
0r
1y
0c
0i
#481410072774
1t
0s
0r
1y
0c
0i
#481410073382
0t
0s
0r
1y
0c
0i
#481410074039
1t
0s
0r
1y
0c
0i
#481410074644
0t
0s
0r
1y
0c
0i
#481410075297
1t
0s
0r
1y
0c
0i
#481410075907
0t
0s
0r
1y
0c
0i
#481410076561
1t
0s
0r
1y
0c
0i
#481410077166
0t
0s
0r
1y
0c
0i
#481410077820
1t
0s
0r
1y
0c
0i
#481410078422
0t
0s
0r
1y
0c
0i
#481410079072
1t
0s
0r
1y
0c
0i
#481410079678
0t
0s
0r
1y
0c
0i
#481410080328
1t
0s
0r
1y
0c
0i
#481410080929
0t
0s
0r
1y
0c
0i
#481410081576
1t
0s
0r
1y
0c
0i
#481410082181
0t
0s
0r
1y
0c
0i
#481410082827
1t
0s
0r
1y
0c
0i
#481410083428
0t
0s
0r
1y
0c
0i
#481410084073
1t
0s
0r
1y
0c
0i
#481410084675
0t
0s
0r
1y
0c
0i
#481410085320
1t
0s
0r
1y
0c
0i
#481410085922
0t
0s
0r
1y
0c
0i
#481410086569
1t
0s
0r
1y
0c
0i
#481410087172
0t
0s
0r
1y
0c
0i
#481410087816
1t
0s
0r
1y
0c
0i
#481410088421
0t
0s
0r
1y
0c
0i
#481410089068
1t
0s
0r
1y
0c
0i
#481410089672
0t
0s
0r
1y
0c
0i
#481410090321
1t
0s
0r
1y
1c
0i
#481410090928
0t
0s
0r
1y
1c
0i
#481410091579
1t
0s
0r
1y
1c
0i
#481410092184
0t
0s
0r
1y
1c
1i
#481410092835
1t
0s
0r
1y
1c
1i
