rusefi_bundle_mega100/rusefi.snapshot.mega100/console/logs/rusEFI_trigger_log_2024-11-25_17_36_27_928.vcd
$date
	Mon Nov 25 17:36:27 CET 2024
$end
$version
        1.0
$end
$timescale
        1ps
$end
$scope module test $end
$var wire 1 t PRI_TRG $end
$var wire 1 s SEC_TRG $end
$var wire 1 r TRG $end
$var wire 1 y SYNC $end
$var wire 1 c COIL $end
$var wire 1 i INJ $end
$upscope $end
$enddefinitions $end
$dumpvars
#232156961796
0t
0s
0r
1y
0c
0i
#232156962478
1t
0s
0r
1y
0c
0i
#232156963238
0t
0s
0r
1y
0c
0i
#232156963911
1t
0s
0r
1y
0c
0i
#232156964680
0t
0s
0r
1y
0c
0i
#232156965345
1t
0s
0r
1y
0c
0i
#232156966117
0t
0s
0r
1y
0c
0i
#232156966780
1t
0s
0r
1y
0c
0i
#232156967549
0t
0s
0r
1y
0c
0i
#232156968213
1t
0s
0r
1y
0c
0i
#232156968982
0t
0s
0r
1y
0c
0i
#232156969647
1t
0s
0r
1y
0c
0i
#232156970412
0t
0s
0r
1y
0c
0i
#232156971080
1t
0s
0r
1y
0c
0i
#232156971846
0t
0s
0r
1y
0c
0i
#232156972512
1t
0s
0r
1y
0c
0i
#232156973282
0t
0s
0r
1y
0c
0i
#232156973951
1t
0s
0r
1y
0c
0i
#232156974717
0t
0s
0r
1y
0c
0i
#232156975388
1t
0s
0r
1y
0c
0i
#232156976157
0t
0s
0r
1y
0c
0i
#232156976832
1t
0s
0r
1y
0c
0i
#232156977603
0t
0s
0r
1y
0c
0i
#232156978281
1t
0s
0r
1y
0c
0i
#232156979055
0t
0s
0r
1y
0c
0i
#232156979735
1t
0s
0r
1y
0c
0i
#232156980512
0t
0s
0r
1y
1c
0i
#232156981199
1t
0s
0r
1y
1c
0i
#232156981979
0t
0s
0r
1y
1c
0i
#232156982208
0t
0s
1r
1y
1c
1i
#232156982211
0t
0s
0r
1y
1c
1i
#232156982670
1t
0s
0r
1y
1c
1i
#232156983455
0t
0s
0r
1y
0c
1i
#232156984150
1t
0s
0r
1y
0c
1i
#232156984937
0t
0s
0r
1y
0c
1i
#232156985636
1t
0s
0r
1y
0c
1i
#232156986424
0t
0s
0r
1y
0c
0i
#232156987128
1t
0s
0r
1y
0c
0i
#232156987915
0t
0s
0r
1y
0c
0i
#232156988622
1t
0s
0r
1y
0c
0i
#232156989407
0t
0s
0r
1y
0c
0i
#232156990118
1t
0s
0r
1y
0c
0i
#232156990898
0t
0s
0r
1y
0c
0i
#232156991612
1t
0s
0r
1y
0c
0i
#232156992389
0t
0s
0r
1y
0c
0i
#232156993103
1t
0s
0r
1y
0c
0i
#232156993876
0t
0s
0r
1y
0c
0i
#232156994591
1t
0s
0r
1y
0c
0i
#232156995359
0t
0s
0r
1y
0c
0i
#232156996076
1t
0s
0r
1y
0c
0i
#232156996844
0t
0s
0r
1y
0c
0i
#232156997559
1t
0s
0r
1y
0c
0i
#232156998325
0t
0s
0r
1y
0c
0i
#232156999047
1t
0s
0r
1y
0c
0i
#232156999795
0t
0s
0r
1y
0c
0i
#232157000533
1t
0s
0r
1y
0c
0i
#232157001279
0t
0s
0r
1y
0c
0i
#232157002019
1t
0s
0r
1y
0c
0i
#232157002768
0t
0s
0r
1y
0c
0i
#232157003508
1t
0s
0r
1y
0c
0i
#232157004257
0t
0s
0r
1y
0c
0i
#232157005001
1t
0s
0r
1y
0c
0i
#232157005757
0t
0s
0r
1y
0c
0i
#232157006500
1t
0s
0r
1y
0c
0i
#232157007260
0t
0s
0r
1y
0c
0i
#232157008007
1t
0s
0r
1y
0c
0i
#232157008768
0t
0s
0r
1y
0c
0i
#232157009509
1t
0s
0r
1y
0c
0i
#232157010280
0t
0s
0r
1y
0c
0i
#232157011023
1t
0s
0r
1y
0c
0i
#232157011805
0t
0s
0r
1y
0c
0i
#232157012534
1t
0s
0r
1y
0c
0i
#232157013317
0t
0s
0r
1y
0c
0i
#232157014057
1t
0s
0r
1y
0c
0i
#232157014845
0t
0s
0r
1y
0c
0i
#232157015584
1t
0s
0r
1y
0c
0i
#232157016375
0t
0s
0r
1y
0c
0i
#232157017117
1t
0s
0r
1y
0c
0i
#232157017919
0t
0s
0r
1y
0c
0i
#232157018655
1t
0s
0r
1y
0c
0i
#232157019465
0t
0s
0r
1y
0c
0i
#232157020202
1t
0s
0r
1y
0c
0i
#232157021018
0t
0s
0r
1y
0c
0i
#232157021756
1t
0s
0r
1y
0c
0i
#232157022580
0t
0s
0r
1y
0c
0i
#232157023318
1t
0s
0r
1y
0c
0i
#232157024149
0t
0s
0r
1y
0c
0i
#232157024890
1t
0s
0r
1y
0c
0i
#232157025732
0t
0s
0r
1y
1c
0i
#232157026474
1t
0s
0r
1y
1c
0i
#232157027325
0t
0s
0r
1y
1c
0i
#232157028071
1t
0s
0r
1y
1c
1i
#232157028930
0t
0s
0r
1y
0c
1i
#232157029684
1t
0s
0r
1y
0c
1i
#232157030549
0t
0s
0r
1y
0c
1i
#232157031306
1t
0s
0r
1y
0c
1i
#232157032178
0t
0s
0r
1y
0c
1i
#232157032937
1t
0s
0r
1y
0c
0i
#232157033813
0t
0s
0r
1y
0c
0i
#232157034572
1t
0s
0r
1y
0c
0i
#232157035447
0t
0s
0r
1y
0c
0i
#232157036205
1t
0s
0r
1y
0c
0i
#232157037077
0t
0s
0r
1y
0c
0i
#232157037829
1t
0s
0r
1y
0c
0i
#232157038702
0t
0s
0r
1y
0c
0i
#232157039444
1t
0s
0r
1y
0c
0i
#232157040297
0t
0s
0r
1y
0c
0i
#232157041030
1t
0s
0r
1y
0c
0i
#232157041866
0t
0s
0r
1y
0c
0i
#232157042592
1t
0s
0r
1y
0c
0i
#232157043406
0t
0s
0r
1y
0c
0i
#232157044126
1t
0s
0r
1y
0c
0i
#232157044914
0t
0s
0r
1y
0c
0i
#232157045634
1t
0s
0r
1y
0c
0i
#232157046377
0t
0s
0r
1y
0c
0i
#232157050024
1t
0s
0r
1y
0c
0i
#232157050774
0t
0s
0r
1y
0c
0i
#232157051455
1t
0s
0r
1y
0c
0i
#232157052196
0t
0s
0r
1y
0c
0i
#232157052871
1t
0s
0r
1y
0c
0i
#232157053617
0t
0s
0r
1y
0c
0i
#232157054282
1t
0s
0r
1y
0c
0i
#232157055035
0t
0s
0r
1y
0c
0i
#232157055688
1t
0s
0r
1y
0c
0i
#232157056442
0t
0s
0r
1y
0c
0i
#232157057093
1t
0s
0r
1y
0c
0i
#232157057843
0t
0s
0r
1y
0c
0i
#232157058494
1t
0s
0r
1y
0c
0i
#232157059242
0t
0s
0r
1y
0c
0i
#232157059893
1t
0s
0r
1y
0c
0i
#232157060637
0t
0s
0r
1y
0c
0i
#232157061290
1t
0s
0r
1y
0c
0i
#232157062034
0t
0s
0r
1y
0c
0i
#232157062686
1t
0s
0r
1y
0c
0i
#232157063431
0t
0s
0r
1y
0c
0i
#232157064084
1t
0s
0r
1y
0c
0i
#232157064827
0t
0s
0r
1y
0c
0i
#232157065485
1t
0s
0r
1y
0c
0i
#232157066227
0t
0s
0r
1y
0c
0i
#232157066886
1t
0s
0r
1y
0c
0i
#232157067631
0t
0s
0r
1y
0c
0i
#232157068294
1t
0s
0r
1y
0c
0i
#232157069039
0t
0s
0r
1y
0c
0i
#232157069708
1t
0s
0r
1y
0c
0i
#232157070455
0t
0s
0r
1y
1c
0i
#232157071130
1t
0s
0r
1y
1c
0i
#232157071883
0t
0s
0r
1y
1c
0i
#232157072558
1t
0s
0r
1y
1c
1i
#232157073315
0t
0s
0r
1y
0c
1i
#232157073996
1t
0s
0r
1y
0c
1i
#232157074753
0t
0s
0r
1y
0c
1i
#232157075440
1t
0s
0r
1y
0c
1i
#232157076199
0t
0s
0r
1y
0c
1i
#232157076889
1t
0s
0r
1y
0c
0i
#232157077647
0t
0s
0r
1y
0c
0i
#232157078342
1t
0s
0r
1y
0c
0i
#232157079097
0t
0s
0r
1y
0c
0i
#232157079794
1t
0s
0r
1y
0c
0i
#232157080544
0t
0s
0r
1y
0c
0i
#232157081242
1t
0s
0r
1y
0c
0i
#232157081988
0t
0s
0r
1y
0c
0i
#232157082687
1t
0s
0r
1y
0c
0i
#232157083427
0t
0s
0r
1y
0c
0i
#232157084125
1t
0s
0r
1y
0c
0i
#232157084865
0t
0s
0r
1y
0c
0i
#232157085559
1t
0s
0r
1y
0c
0i
#232157086296
0t
0s
0r
1y
0c
0i
#232157086989
1t
0s
0r
1y
0c
0i
#232157087725
0t
0s
0r
1y
0c
0i
#232157088424
1t
0s
0r
1y
0c
0i
#232157089139
0t
0s
0r
1y
0c
0i
#232157089850
1t
0s
0r
1y
0c
0i
#232157090563
0t
0s
0r
1y
0c
0i
#232157091276
1t
0s
0r
1y
0c
0i
#232157091991
0t
0s
0r
1y
0c
0i
#232157092704
1t
0s
0r
1y
0c
0i
#232157093417
0t
0s
0r
1y
0c
0i
#232157094131
1t
0s
0r
1y
0c
0i
#232157094851
0t
0s
0r
1y
0c
0i
#232157095562
1t
0s
0r
1y
0c
0i
#232157096286
0t
0s
0r
1y
0c
0i
#232157096999
1t
0s
0r
1y
0c
0i
#232157097724
0t
0s
0r
1y
0c
0i
#232157098429
1t
0s
0r
1y
0c
0i
#232157099163
0t
0s
0r
1y
0c
0i
#232157099873
1t
0s
0r
1y
0c
0i
#232157100613
0t
0s
0r
1y
0c
0i
#232157101308
1t
0s
0r
1y
0c
0i
#232157102051
0t
0s
0r
1y
0c
0i
#232157102755
1t
0s
0r
1y
0c
0i
#232157103501
0t
0s
0r
1y
0c
0i
#232157104205
1t
0s
0r
1y
0c
0i
#232157104955
0t
0s
0r
1y
0c
0i
#232157105657
1t
0s
0r
1y
0c
0i
#232157106416
0t
0s
0r
1y
0c
0i
#232157107116
1t
0s
0r
1y
0c
0i
#232157107882
0t
0s
0r
1y
0c
0i
#232157108578
1t
0s
0r
1y
0c
0i
#232157109351
0t
0s
0r
1y
0c
0i
#232157110047
1t
0s
0r
1y
0c
0i
#232157110825
0t
0s
0r
1y
0c
0i
#232157111523
1t
0s
0r
1y
0c
0i
#232157112308
0t
0s
0r
1y
0c
0i
#232157113006
1t
0s
0r
1y
0c
0i
#232157113799
0t
0s
0r
1y
1c
0i
#232157114497
1t
0s
0r
1y
1c
0i
#232157115301
0t
0s
0r
1y
1c
0i
#232157116003
1t
0s
0r
1y
1c
1i
#232157116811
0t
0s
0r
1y
0c
1i
#232157117517
1t
0s
0r
1y
0c
1i
#232157118333
0t
0s
0r
1y
0c
1i
#232157119040
1t
0s
0r
1y
0c
1i
#232157119861
0t
0s
0r
1y
0c
1i
#232157120572
1t
0s
0r
1y
0c
0i
#232157121394
0t
0s
0r
1y
0c
0i
#232157122107
1t
0s
0r
1y
0c
0i
#232157122929
0t
0s
0r
1y
0c
0i
#232157123642
1t
0s
0r
1y
0c
0i
#232157124463
0t
0s
0r
1y
0c
0i
#232157125168
1t
0s
0r
1y
0c
0i
#232157125992
0t
0s
0r
1y
0c
0i
#232157126693
1t
0s
0r
1y
0c
0i
#232157127425
1t
1s
0r
1y
0c
0i
#232157127425
1t
0s
0r
1y
0c
0i
#232157127501
0t
0s
0r
1y
0c
0i
#232157128197
1t
0s
0r
1y
0c
0i
#232157128994
0t
0s
0r
1y
0c
0i
#232157129690
1t
0s
0r
1y
0c
0i
#232157130471
0t
0s
0r
1y
0c
0i
#232157131163
1t
0s
0r
1y
0c
0i
#232157131924
0t
0s
0r
1y
0c
0i
#232157132619
1t
0s
0r
1y
0c
0i
#232157133340
0t
0s
0r
1y
0c
0i
#232157136890
1t
0s
0r
1y
0c
0i
#232157137624
0t
0s
0r
1y
0c
0i
#232157138288
1t
0s
0r
1y
0c
0i
#232157139014
0t
0s
0r
1y
0c
0i
#232157139671
1t
0s
0r
1y
0c
0i
#232157140405
0t
0s
0r
1y
0c
0i
#232157141052
1t
0s
0r
1y
0c
0i
#232157141793
0t
0s
0r
1y
0c
0i
#232157142429
1t
0s
0r
1y
0c
0i
#232157143170
0t
0s
0r
1y
0c
0i
#232157143808
1t
0s
0r
1y
0c
0i
#232157144544
0t
0s
0r
1y
0c
0i
#232157145180
1t
0s
0r
1y
0c
0i
#232157145915
0t
0s
0r
1y
0c
0i
#232157146551
1t
0s
0r
1y
0c
0i
#232157147284
0t
0s
0r
1y
0c
0i
#232157147922
1t
0s
0r
1y
0c
0i
#236451398345
0t
0s
0r
1y
0c
0i
#236451399029
1t
0s
0r
1y
0c
0i
#236451399786
0t
0s
0r
1y
0c
0i
#236451400472
1t
0s
0r
1y
0c
0i
#236451401231
0t
0s
0r
1y
0c
0i
#236451401917
1t
0s
0r
1y
0c
0i
#236451402683
0t
0s
0r
1y
0c
0i
#236451403369
1t
0s
0r
1y
0c
0i
#236451404143
0t
0s
0r
1y
0c
0i
#236451404827
1t
0s
0r
1y
0c
0i
#236451405609
0t
0s
0r
1y
1c
0i
#236451406294
1t
0s
0r
1y
1c
0i
#236451407083
0t
0s
0r
1y
1c
1i
#236451407772
1t
0s
0r
1y
1c
1i
#236451408568
0t
0s
0r
1y
0c
1i
#236451409259
1t
0s
0r
1y
0c
1i
#236451410059
0t
0s
0r
1y
0c
1i
#236451410755
1t
0s
0r
1y
0c
1i
#236451411556
0t
0s
0r
1y
0c
0i
#236451412257
1t
0s
0r
1y
0c
0i
#236451413060
0t
0s
0r
1y
0c
0i
#236451413760
1t
0s
0r
1y
0c
0i
#236451414565
0t
0s
0r
1y
0c
0i
#236451415263
1t
0s
0r
1y
0c
0i
#236451416069
0t
0s
0r
1y
0c
0i
#236451416764
1t
0s
0r
1y
0c
0i
#236451417574
0t
0s
0r
1y
0c
0i
#236451418264
1t
0s
0r
1y
0c
0i
#236451419009
1t
1s
0r
1y
0c
0i
#236451419009
1t
0s
0r
1y
0c
0i
#236451419061
0t
0s
0r
1y
0c
0i
#236451419751
1t
0s
0r
1y
0c
0i
#236451420540
0t
0s
0r
1y
0c
0i
#236451421233
1t
0s
0r
1y
0c
0i
#236451422011
0t
0s
0r
1y
0c
0i
#236451422704
1t
0s
0r
1y
0c
0i
#236451423468
0t
0s
0r
1y
0c
0i
#236451424166
1t
0s
0r
1y
0c
0i
#236451424893
0t
0s
0r
1y
0c
0i
#236451428489
1t
0s
0r
1y
0c
0i
#236451429237
0t
0s
0r
1y
0c
0i
#236451429910
1t
0s
0r
1y
0c
0i
#236451430650
0t
0s
0r
1y
0c
0i
#236451431320
1t
0s
0r
1y
0c
0i
#236451432067
0t
0s
0r
1y
0c
0i
#236451432729
1t
0s
0r
1y
0c
0i
#236451433481
0t
0s
0r
1y
0c
0i
#236451434133
1t
0s
0r
1y
0c
0i
#236451434888
0t
0s
0r
1y
0c
0i
#236451435539
1t
0s
0r
1y
0c
0i
#236451436288
0t
0s
0r
1y
0c
0i
#236451436941
1t
0s
0r
1y
0c
0i
#236451437691
0t
0s
0r
1y
0c
0i
#236451438339
1t
0s
0r
1y
0c
0i
#236451439087
0t
0s
0r
1y
0c
0i
#236451439738
1t
0s
0r
1y
0c
0i
#236451440486
0t
0s
0r
1y
0c
0i
#236451441137
1t
0s
0r
1y
0c
0i
#236451441884
0t
0s
0r
1y
0c
0i
#236451442537
1t
0s
0r
1y
0c
0i
#236451443285
0t
0s
0r
1y
0c
0i
#236451443939
1t
0s
0r
1y
0c
0i
#236451444687
0t
0s
0r
1y
0c
0i
#236451445346
1t
0s
0r
1y
0c
0i
#236451446095
0t
0s
0r
1y
0c
0i
#236451446756
1t
0s
0r
1y
0c
0i
#236451447505
0t
0s
0r
1y
0c
0i
#236451448172
1t
0s
0r
1y
0c
0i
#236451448925
0t
0s
0r
1y
1c
0i
#236451449330
0t
0s
1r
1y
1c
0i
#236451449333
0t
0s
0r
1y
1c
0i
#236451449595
1t
0s
0r
1y
1c
0i
#236451450353
0t
0s
0r
1y
1c
1i
#236451451023
1t
0s
0r
1y
1c
1i
#236451451784
0t
0s
0r
1y
0c
1i
#236451452460
1t
0s
0r
1y
0c
1i
#236451453221
0t
0s
0r
1y
0c
1i
#236451453902
1t
0s
0r
1y
0c
1i
#236451454665
0t
0s
0r
1y
0c
0i
#236451455348
1t
0s
0r
1y
0c
0i
#236451456112
0t
0s
0r
1y
0c
0i
#236451456798
1t
0s
0r
1y
0c
0i
#236451457558
0t
0s
0r
1y
0c
0i
#236451458247
1t
0s
0r
1y
0c
0i
#236451459003
0t
0s
0r
1y
0c
0i
#236451459696
1t
0s
0r
1y
0c
0i
#236451460450
0t
0s
0r
1y
0c
0i
#236451461144
1t
0s
0r
1y
0c
0i
#236451461893
0t
0s
0r
1y
0c
0i
#236451462587
1t
0s
0r
1y
0c
0i
#236451463334
0t
0s
0r
1y
0c
0i
#236451464029
1t
0s
0r
1y
0c
0i
#236451464774
0t
0s
0r
1y
0c
0i
#236451465468
1t
0s
0r
1y
0c
0i
#236451466213
0t
0s
0r
1y
0c
0i
#236451466914
1t
0s
0r
1y
0c
0i
#236451467641
0t
0s
0r
1y
0c
0i
#236451468354
1t
0s
0r
1y
0c
0i
#236451469079
0t
0s
0r
1y
0c
0i
#236451469795
1t
0s
0r
1y
0c
0i
#236451470523
0t
0s
0r
1y
0c
0i
#236451471241
1t
0s
0r
1y
0c
0i
#236451471969
0t
0s
0r
1y
0c
0i
#236451472689
1t
0s
0r
1y
0c
0i
#236451473422
0t
0s
0r
1y
0c
0i
#236451474142
1t
0s
0r
1y
0c
0i
#236451474879
0t
0s
0r
1y
0c
0i
#236451475603
1t
0s
0r
1y
0c
0i
#236451476342
0t
0s
0r
1y
0c
0i
#236451477058
1t
0s
0r
1y
0c
0i
#236451477806
0t
0s
0r
1y
0c
0i
#236451478526
1t
0s
0r
1y
0c
0i
#236451479283
0t
0s
0r
1y
0c
0i
#236451479989
1t
0s
0r
1y
0c
0i
#236451480750
0t
0s
0r
1y
0c
0i
#236451481466
1t
0s
0r
1y
0c
0i
#236451482228
0t
0s
0r
1y
0c
0i
#236451482946
1t
0s
0r
1y
0c
0i
#236451483713
0t
0s
0r
1y
0c
0i
#236451484429
1t
0s
0r
1y
0c
0i
#236451485207
0t
0s
0r
1y
0c
0i
#236451485919
1t
0s
0r
1y
0c
0i
#236451486704
0t
0s
0r
1y
0c
0i
#236451487418
1t
0s
0r
1y
0c
0i
#236451488207
0t
0s
0r
1y
0c
0i
#236451488919
1t
0s
0r
1y
0c
0i
#236451489715
0t
0s
0r
1y
0c
0i
#236451490429
1t
0s
0r
1y
0c
0i
#236451491234
0t
0s
0r
1y
0c
0i
#236451491949
1t
0s
0r
1y
0c
0i
#236451492761
0t
0s
0r
1y
1c
0i
#236451493478
1t
0s
0r
1y
1c
0i
#236451494300
0t
0s
0r
1y
1c
0i
#236451495020
1t
0s
0r
1y
1c
1i
#236451495849
0t
0s
0r
1y
0c
1i
#236451496575
1t
0s
0r
1y
0c
1i
#236451497410
0t
0s
0r
1y
0c
1i
#236451498139
1t
0s
0r
1y
0c
1i
#236451498977
0t
0s
0r
1y
0c
0i
#236451499711
1t
0s
0r
1y
0c
0i
#236451500553
0t
0s
0r
1y
0c
0i
#236451501287
1t
0s
0r
1y
0c
0i
#236451502130
0t
0s
0r
1y
0c
0i
#236451502862
1t
0s
0r
1y
0c
0i
#236451503703
0t
0s
0r
1y
0c
0i
#236451504430
1t
0s
0r
1y
0c
0i
#236451505277
0t
0s
0r
1y
0c
0i
#236451505998
1t
0s
0r
1y
0c
0i
#236451506831
0t
0s
0r
1y
0c
0i
#236451507549
1t
0s
0r
1y
0c
0i
#236451508373
0t
0s
0r
1y
0c
0i
#236451509092
1t
0s
0r
1y
0c
0i
#236451509901
0t
0s
0r
1y
0c
0i
#236451510620
1t
0s
0r
1y
0c
0i
#236451511414
0t
0s
0r
1y
0c
0i
#236451512137
1t
0s
0r
1y
0c
0i
#236451512888
0t
0s
0r
1y
0c
0i
#236451516591
1t
0s
0r
1y
0c
0i
#236451517357
0t
0s
0r
1y
0c
0i
#236451518046
1t
0s
0r
1y
0c
0i
#236451518802
0t
0s
0r
1y
0c
0i
#236451519487
1t
0s
0r
1y
0c
0i
#236451520246
0t
0s
0r
1y
0c
0i
#236451520920
1t
0s
0r
1y
0c
0i
#236451521685
0t
0s
0r
1y
0c
0i
#236451522347
1t
0s
0r
1y
0c
0i
#236451523112
0t
0s
0r
1y
0c
0i
#236451523772
1t
0s
0r
1y
0c
0i
#236451524532
0t
0s
0r
1y
0c
0i
#236451525191
1t
0s
0r
1y
0c
0i
#236451525948
0t
0s
0r
1y
0c
0i
#236451526606
1t
0s
0r
1y
0c
0i
#236451527359
0t
0s
0r
1y
0c
0i
#236451528018
1t
0s
0r
1y
0c
0i
#236451528771
0t
0s
0r
1y
0c
0i
#236451529428
1t
0s
0r
1y
0c
0i
#236451530180
0t
0s
0r
1y
0c
0i
#236451530840
1t
0s
0r
1y
0c
0i
#236451531590
0t
0s
0r
1y
0c
0i
#236451532253
1t
0s
0r
1y
0c
0i
#236451533002
0t
0s
0r
1y
0c
0i
#236451533668
1t
0s
0r
1y
0c
0i
#236451534420
0t
0s
0r
1y
0c
0i
#236451535089
1t
0s
0r
1y
0c
0i
#236451535840
0t
0s
0r
1y
0c
0i
#236451536514
1t
0s
0r
1y
0c
0i
#236451537270
0t
0s
0r
1y
1c
0i
#236451537950
1t
0s
0r
1y
1c
0i
#236451538709
0t
0s
0r
1y
1c
0i
#236451539391
1t
0s
0r
1y
1c
1i
#236451540156
0t
0s
0r
1y
0c
1i
#236451540842
1t
0s
0r
1y
0c
1i
#236451541608
0t
0s
0r
1y
0c
1i
#236451542301
1t
0s
0r
1y
0c
1i
#236451543070
0t
0s
0r
1y
0c
1i
#236451543766
1t
0s
0r
1y
0c
0i
#236451544531
0t
0s
0r
1y
0c
0i
#236451545233
1t
0s
0r
1y
0c
0i
#236451545996
0t
0s
0r
1y
0c
0i
#236451546698
1t
0s
0r
1y
0c
0i
#236451547459
0t
0s
0r
1y
0c
0i
#236451548164
1t
0s
0r
1y
0c
0i
#236451548918
0t
0s
0r
1y
0c
0i
#236451549620
1t
0s
0r
1y
0c
0i
#236451550369
0t
0s
0r
1y
0c
0i
#236451551067
1t
0s
0r
1y
0c
0i
#236451551812
0t
0s
0r
1y
0c
0i
#236451552508
1t
0s
0r
1y
0c
0i
#236451553245
0t
0s
0r
1y
0c
0i
#236451553937
1t
0s
0r
1y
0c
0i
#236451554668
0t
0s
0r
1y
0c
0i
#236451555359
1t
0s
0r
1y
0c
0i
#236451556069
0t
0s
0r
1y
0c
0i
#236451556770
1t
0s
0r
1y
0c
0i
#236451557470
0t
0s
0r
1y
0c
0i
#236451558169
1t
0s
0r
1y
0c
0i
#236451558865
0t
0s
0r
1y
0c
0i
#236451559558
1t
0s
0r
1y
0c
0i
#236451560251
0t
0s
0r
1y
0c
0i
#236451560941
1t
0s
0r
1y
0c
0i
#236451561633
0t
0s
0r
1y
0c
0i
#236451562318
1t
0s
0r
1y
0c
0i
#236451563011
0t
0s
0r
1y
0c
0i
#236451563696
1t
0s
0r
1y
0c
0i
#236451564387
0t
0s
0r
1y
0c
0i
#236451565058
1t
0s
0r
1y
0c
0i
#236451565755
0t
0s
0r
1y
0c
0i
#236451566429
1t
0s
0r
1y
0c
0i
#236451567131
0t
0s
0r
1y
0c
0i
#236451567785
1t
0s
0r
1y
0c
0i
#236451568488
0t
0s
0r
1y
0c
0i
#236451569151
1t
0s
0r
1y
0c
0i
#236451569851
0t
0s
0r
1y
0c
0i
#236451570513
1t
0s
0r
1y
0c
0i
#236451571216
0t
0s
0r
1y
0c
0i
#236451571872
1t
0s
0r
1y
0c
0i
#236451572583
0t
0s
0r
1y
0c
0i
#236451573236
1t
0s
0r
1y
0c
0i
#236451573951
0t
0s
0r
1y
0c
0i
#236451574602
1t
0s
0r
1y
0c
0i
#236451575318
0t
0s
0r
1y
0c
0i
#236451575968
1t
0s
0r
1y
0c
0i
#236451576690
0t
0s
0r
1y
0c
0i
#236451577339
1t
0s
0r
1y
0c
0i
#236451578069
0t
0s
0r
1y
0c
0i
#236451578717
1t
0s
0r
1y
0c
0i
#236451579453
0t
0s
0r
1y
1c
0i
#236451580100
1t
0s
0r
1y
1c
0i
#236451580844
0t
0s
0r
1y
1c
0i
#236451581495
1t
0s
0r
1y
1c
1i
#236451582244
0t
0s
0r
1y
0c
1i
#236451582899
1t
0s
0r
1y
0c
1i
#236451583653
0t
0s
0r
1y
0c
1i
#236451584309
1t
0s
0r
1y
0c
1i
#236451585067
0t
0s
0r
1y
0c
1i
#236451585726
1t
0s
0r
1y
0c
0i
#236451586485
0t
0s
0r
1y
0c
0i
#236451587146
1t
0s
0r
1y
0c
0i
#236451587905
0t
0s
0r
1y
0c
0i
#236451588563
1t
0s
0r
1y
0c
0i
#236451589323
0t
0s
0r
1y
0c
0i
#236451589977
1t
0s
0r
1y
0c
0i
#236451590742
0t
0s
0r
1y
0c
0i
#236451591394
1t
0s
0r
1y
0c
0i
#236451592097
1t
1s
0r
1y
0c
0i
#236451592097
1t
0s
0r
1y
0c
0i
#236451592146
0t
0s
0r
1y
0c
0i
#236451592798
1t
0s
0r
1y
0c
0i
#236451593546
0t
0s
0r
1y
0c
0i
#236451594199
1t
0s
0r
1y
0c
0i
#236451594937
0t
0s
0r
1y
0c
0i
#236451595593
1t
0s
0r
1y
0c
0i
#236451596319
0t
0s
0r
1y
0c
0i
#236451596981
1t
0s
0r
1y
0c
0i
#236451597674
0t
0s
0r
1y
0c
0i
#236451601105
1t
0s
0r
1y
0c
0i
#236451601819
0t
0s
0r
1y
0c
0i
#236451602465
1t
0s
0r
1y
0c
0i
#236451603176
0t
0s
0r
1y
0c
0i
#236451603817
1t
0s
0r
1y
0c
0i
#236451604534
0t
0s
0r
1y
0c
0i
#236451605170
1t
0s
0r
1y
0c
0i
#236451605897
0t
0s
0r
1y
0c
0i
#236451606521
1t
0s
0r
1y
0c
0i
#236451607249
0t
0s
0r
1y
0c
0i
#236451607873
1t
0s
0r
1y
0c
0i
#236451608597
0t
0s
0r
1y
0c
0i
#236451609223
1t
0s
0r
1y
0c
0i
#236451609947
0t
0s
0r
1y
0c
0i
#236451610572
1t
0s
0r
1y
0c
0i
#236451611293
0t
0s
0r
1y
0c
0i
#236451611920
1t
0s
0r
1y
0c
0i
#236451612640
0t
0s
0r
1y
0c
0i
#236451613267
1t
0s
0r
1y
0c
0i
#236451613989
0t
0s
0r
1y
0c
0i
#236451614615
1t
0s
0r
1y
0c
0i
#236451615337
0t
0s
0r
1y
0c
0i
#236451615967
1t
0s
0r
1y
0c
0i
#236451616687
0t
0s
0r
1y
0c
0i
#236451617322
1t
0s
0r
1y
0c
0i
#236451618044
0t
0s
0r
1y
0c
0i
#236451618682
1t
0s
0r
1y
0c
0i
#236451619405
0t
0s
0r
1y
0c
0i
#236451620045
1t
0s
0r
1y
0c
0i
#236451620772
0t
0s
0r
1y
1c
0i
#236451621415
1t
0s
0r
1y
1c
0i
#236451622145
0t
0s
0r
1y
1c
0i
#236451622792
1t
0s
0r
1y
1c
1i
#236451623526
0t
0s
0r
1y
0c
1i
#236451624176
1t
0s
0r
1y
0c
1i
#236451624911
0t
0s
0r
1y
0c
1i
#236451625566
1t
0s
0r
1y
0c
1i
#236451626302
0t
0s
0r
1y
0c
1i
#236451626960
1t
0s
0r
1y
0c
0i
#236451627693
0t
0s
0r
1y
0c
0i
#236451628357
1t
0s
0r
1y
0c
0i
#236451629088
0t
0s
0r
1y
0c
0i
#236451629752
1t
0s
0r
1y
0c
0i
#236451630480
0t
0s
0r
1y
0c
0i
#236451631146
1t
0s
0r
1y
0c
0i
#236451631872
0t
0s
0r
1y
0c
0i
#236451632540
1t
0s
0r
1y
0c
0i
#236451633260
0t
0s
0r
1y
0c
0i
#236451633926
1t
0s
0r
1y
0c
0i
#236451634641
0t
0s
0r
1y
0c
0i
#236451635305
1t
0s
0r
1y
0c
0i
#236451636016
0t
0s
0r
1y
0c
0i
#236451636678
1t
0s
0r
1y
0c
0i
#236451637385
0t
0s
0r
1y
0c
0i
#236451638049
1t
0s
0r
1y
0c
0i
#236451638325
1t
0s
1r
1y
0c
0i
#236451638327
1t
0s
0r
1y
0c
0i
#236451638735
0t
0s
0r
1y
0c
0i
#236451639407
1t
0s
0r
1y
0c
0i
#236451640086
0t
0s
0r
1y
0c
0i
#236451640754
1t
0s
0r
1y
0c
0i
#236451641429
0t
0s
0r
1y
0c
0i
#236451642096
1t
0s
0r
1y
0c
0i
#236451642767
0t
0s
0r
1y
0c
0i
#236451643427
1t
0s
0r
1y
0c
0i
#236451644096
0t
0s
0r
1y
0c
0i
#236451644753
1t
0s
0r
1y
0c
0i
#236451645420
0t
0s
0r
1y
0c
0i
#236451646079
1t
0s
0r
1y
0c
0i
#236451646741
0t
0s
0r
1y
0c
0i
#236451647386
1t
0s
0r
1y
0c
0i
#236451648055
0t
0s
0r
1y
0c
0i
#236451648700
1t
0s
0r
1y
0c
0i
#236451649373
0t
0s
0r
1y
0c
0i
#236451650002
1t
0s
0r
1y
0c
0i
#236451650674
0t
0s
0r
1y
0c
0i
#236451651310
1t
0s
0r
1y
0c
0i
#236451651982
0t
0s
0r
1y
0c
0i
#236451652614
1t
0s
0r
1y
0c
0i
#236451653287
0t
0s
0r
1y
0c
0i
#236451653917
1t
0s
0r
1y
0c
0i
#236451654596
0t
0s
0r
1y
0c
0i
#236451655221
1t
0s
0r
1y
0c
0i
#236451655904
0t
0s
0r
1y
0c
0i
#236451656526
1t
0s
0r
1y
0c
0i
#236451657212
0t
0s
0r
1y
0c
0i
#236451657832
1t
0s
0r
1y
0c
0i
#236451658522
0t
0s
0r
1y
0c
0i
#236451659141
1t
0s
0r
1y
0c
0i
#236451659836
0t
0s
0r
1y
0c
0i
