rusefi_bundle_mega100/rusefi.snapshot.mega100/console/logs/rusEFI_trigger_log_2024-12-20_09_16_17_029.vcd
$date
	Fri Dec 20 09:16:17 CET 2024
$end
$version
        1.0
$end
$timescale
        1ps
$end
$scope module test $end
$var wire 1 t PRI_TRG $end
$var wire 1 s SEC_TRG $end
$var wire 1 r TRG $end
$var wire 1 y SYNC $end
$var wire 1 c COIL $end
$var wire 1 i INJ $end
$upscope $end
$enddefinitions $end
$dumpvars
#246129919
0t
0s
0r
0y
0c
0i
#246228405
1t
0s
0r
0y
0c
0i
#246261010
0t
0s
0r
0y
0c
0i
#283673032
1t
0s
0r
0y
0c
0i
#283681041
0t
0s
0r
0y
0c
0i
#287615089
1t
0s
0r
0y
0c
0i
#287615221
1t
1s
0r
0y
0c
0i
#287615221
1t
0s
0r
0y
0c
0i
#287615695
1t
1s
0r
0y
0c
0i
#287615695
1t
0s
0r
0y
0c
0i
#289149462
0t
0s
0r
0y
0c
0i
#299583495
1t
0s
0r
0y
0c
0i
#299610968
0t
0s
0r
0y
0c
0i
#355951983
1t
0s
0r
0y
0c
0i
#355960043
0t
0s
0r
0y
0c
0i
#367402685
1t
0s
0r
0y
0c
0i
