rusefi_bundle_mega100/rusefi.snapshot.mega100/console/logs/rusEFI_trigger_log_2024-11-07_18_25_03_682.vcd
$date
	Thu Nov 07 18:25:03 CET 2024
$end
$version
        1.0
$end
$timescale
        1ps
$end
$scope module test $end
$var wire 1 t PRI_TRG $end
$var wire 1 s SEC_TRG $end
$var wire 1 r TRG $end
$var wire 1 y SYNC $end
$var wire 1 c COIL $end
$var wire 1 i INJ $end
$upscope $end
$enddefinitions $end
$dumpvars
#17343120531
0t
0s
0r
0y
0c
0i
#17343125336
1t
0s
0r
0y
0c
0i
#17343134595
0t
0s
0r
0y
0c
0i
#17343140029
1t
0s
0r
0y
0c
0i
#17343147139
0t
0s
0r
0y
0c
0i
#17343152542
1t
0s
0r
0y
0c
0i
#17343158510
0t
0s
0r
0y
0c
0i
#17343163744
1t
0s
0r
0y
0c
0i
#17343169147
0t
0s
0r
0y
0c
0i
#17343174187
1t
0s
0r
0y
0c
0i
#17343179198
0t
0s
0r
0y
0c
0i
#17343184110
1t
0s
0r
0y
0c
0i
#17343188914
0t
0s
0r
0y
0c
0i
#17343193700
1t
0s
0r
0y
0c
0i
#17343198291
0t
0s
0r
0y
0c
0i
#17343202917
1t
0s
0r
0y
0c
0i
#17343207342
0t
0s
0r
0y
0c
0i
#17343211852
1t
0s
0r
0y
0c
0i
#17343216131
0t
0s
0r
0y
0c
0i
#17343220550
1t
0s
0r
0y
0c
0i
#17343224669
0t
0s
0r
0y
0c
0i
#17343228884
1t
0s
0r
0y
0c
0i
#17343232880
0t
0s
0r
0y
0c
0i
#17343237012
1t
0s
0r
0y
0c
0i
#17343240862
0t
0s
0r
0y
0c
0i
#17343244828
1t
0s
0r
0y
0c
0i
#17343248552
0t
0s
0r
0y
0c
0i
#17343252454
1t
0s
0r
0y
0c
0i
#17343256089
0t
0s
0r
0y
0c
0i
#17343259893
1t
0s
0r
0y
0c
0i
#17343263461
0t
0s
0r
0y
0c
0i
#17343267187
1t
0s
0r
0y
0c
0i
#17343270710
0t
0s
0r
0y
0c
0i
#17343274408
1t
0s
0r
0y
0c
0i
#17343277888
0t
0s
0r
0y
0c
0i
#17343281525
1t
0s
0r
0y
0c
0i
#17343284976
0t
0s
0r
0y
0c
0i
#17343288628
1t
0s
0r
0y
0c
0i
#17343292093
0t
0s
0r
0y
0c
0i
#17343295737
1t
0s
0r
0y
0c
0i
#17343299226
0t
0s
0r
0y
0c
0i
#17343302918
1t
0s
0r
0y
0c
0i
#17343306436
0t
0s
0r
0y
0c
0i
#17343310164
1t
0s
0r
0y
0c
0i
#17343313714
0t
0s
0r
0y
0c
0i
#17343317483
1t
0s
0r
0y
0c
0i
#17343321136
0t
0s
0r
0y
0c
0i
#17343325017
1t
0s
0r
0y
0c
0i
#17343328725
0t
0s
0r
0y
0c
0i
#17343332710
1t
0s
0r
0y
0c
0i
#17343336535
0t
0s
0r
0y
0c
0i
#17343340629
1t
0s
0r
0y
0c
0i
#17343344570
0t
0s
0r
0y
0c
0i
#17343348802
1t
0s
0r
0y
0c
0i
#17343352834
0t
0s
0r
0y
0c
0i
#17343357116
1t
0s
0r
0y
0c
0i
#17343361216
0t
0s
0r
0y
0c
0i
#17343365528
1t
0s
0r
0y
0c
0i
#17343369594
0t
0s
0r
0y
0c
0i
#17343373823
1t
0s
0r
0y
0c
0i
#17343377806
0t
0s
0r
0y
0c
0i
#17343381895
1t
0s
0r
0y
0c
0i
#17343385670
0t
0s
0r
0y
0c
0i
#17343389498
1t
0s
0r
0y
0c
0i
#17343392963
0t
0s
0r
0y
0c
0i
#17343396464
1t
0s
0r
0y
0c
0i
#17343399634
0t
0s
0r
0y
0c
0i
#17343402854
1t
0s
0r
0y
0c
0i
#17343405838
0t
0s
0r
0y
0c
0i
#17343408898
1t
0s
0r
0y
0c
0i
#17343411720
0t
0s
0r
0y
0c
0i
#17343414655
1t
0s
0r
0y
0c
0i
#17343415136
1t
1s
0r
0y
0c
0i
#17343415136
1t
0s
0r
0y
0c
0i
#17343417364
0t
0s
0r
0y
0c
0i
#17343420213
1t
0s
0r
0y
0c
0i
#17343422885
0t
0s
0r
0y
0c
0i
#17343425725
1t
0s
0r
0y
0c
0i
#17343428421
0t
0s
0r
0y
0c
0i
#17343431311
1t
0s
0r
0y
0c
0i
#17343434083
0t
0s
0r
0y
0c
0i
#17343437079
1t
0s
0r
0y
0c
0i
#17343439974
0t
0s
0r
0y
0c
0i
#17343443186
1t
0s
0r
0y
0c
0i
#17343446343
0t
0s
0r
0y
0c
0i
#17343449929
1t
0s
0r
0y
0c
0i
#17343453451
0t
0s
0r
0y
0c
0i
#17343457284
1t
0s
0r
0y
0c
0i
#17343460262
0t
0s
0r
0y
0c
0i
#17343463254
1t
0s
0r
0y
0c
0i
#17343466335
0t
0s
0r
0y
0c
0i
#17343469801
1t
0s
0r
0y
0c
0i
#17343472940
0t
0s
0r
0y
0c
0i
#17343476268
1t
0s
0r
0y
0c
0i
#17343479522
0t
0s
0r
0y
0c
0i
#17343483008
1t
0s
0r
0y
0c
0i
#17343486301
0t
0s
0r
0y
0c
0i
#17343489802
1t
0s
0r
0y
0c
0i
#17343493147
0t
0s
0r
0y
0c
0i
#17343496683
1t
0s
0r
0y
0c
0i
#17343499980
0t
0s
0r
0y
0c
0i
#17343503456
1t
0s
0r
0y
0c
0i
#17343506716
0t
0s
0r
0y
0c
0i
#17343510093
1t
0s
0r
0y
0c
0i
#17343513209
0t
0s
0r
0y
0c
0i
#17343516387
1t
0s
0r
0y
0c
0i
#17343519246
0t
0s
0r
0y
0c
0i
#17343522199
1t
0s
0r
0y
0c
0i
#17343527612
0t
0s
0r
0y
0c
0i
#17343537762
1t
0s
0r
0y
0c
0i
#17343540230
0t
0s
0r
1y
0c
0i
#17343542758
1t
0s
0r
1y
0c
0i
#17343545167
0t
0s
0r
1y
0c
0i
#17343547671
1t
0s
0r
1y
0c
0i
#17343550090
0t
0s
0r
1y
0c
0i
#17343552653
1t
0s
0r
1y
0c
0i
#17343555114
0t
0s
0r
1y
0c
0i
#17343557741
1t
0s
0r
1y
0c
0i
#17343560268
0t
0s
0r
1y
0c
0i
#17343563005
1t
0s
0r
1y
0c
0i
#17343565671
0t
0s
0r
1y
0c
0i
#17343568602
1t
0s
0r
1y
0c
0i
#17343571492
0t
0s
0r
1y
0c
0i
#17343574777
1t
0s
0r
1y
0c
0i
#17343578017
0t
0s
0r
1y
0c
0i
#17343581566
1t
0s
0r
1y
0c
0i
#17343584385
0t
0s
0r
1y
0c
0i
#17343587147
1t
0s
0r
1y
0c
0i
#17343589952
0t
0s
0r
1y
0c
0i
#17343593187
1t
0s
0r
1y
0c
0i
#17343596157
0t
0s
0r
1y
0c
0i
#17343599215
1t
0s
0r
1y
1c
1i
#17343602179
0t
0s
0r
1y
1c
1i
#17343605375
1t
0s
0r
1y
0c
1i
#17343608439
0t
0s
0r
1y
0c
1i
#17343611664
1t
0s
0r
1y
0c
1i
#17343614701
0t
0s
0r
1y
0c
1i
#17343617893
1t
0s
0r
1y
0c
0i
#17343620858
0t
0s
0r
1y
0c
0i
#17343623872
1t
0s
0r
1y
0c
0i
#17343626466
0t
0s
0r
1y
0c
0i
#17343628890
1t
0s
0r
1y
0c
0i
#17343630915
0t
0s
0r
1y
0c
0i
#17343632843
1t
0s
0r
1y
0c
0i
#17343634521
0t
0s
0r
1y
0c
0i
#17343636183
1t
0s
0r
1y
0c
0i
#17343637683
0t
0s
0r
1y
0c
0i
#17343639204
1t
0s
0r
1y
0c
0i
#17343640598
0t
0s
0r
1y
0c
0i
#17343642040
1t
0s
0r
1y
0c
0i
#17343643371
0t
0s
0r
1y
0c
0i
#17343644762
1t
0s
0r
1y
0c
0i
#17343646067
0t
0s
0r
1y
0c
0i
#17343647443
1t
0s
0r
1y
0c
0i
#17343648745
0t
0s
0r
1y
0c
0i
#17343650128
1t
0s
0r
1y
0c
0i
#17343651439
0t
0s
0r
1y
0c
0i
#17343652825
1t
0s
0r
1y
0c
0i
#17343654159
0t
0s
0r
1y
0c
0i
#17343655566
1t
0s
0r
1y
0c
0i
#17343656902
0t
0s
0r
1y
0c
0i
#17343658327
1t
0s
0r
1y
0c
0i
#17343659671
0t
0s
0r
1y
0c
0i
#17343661112
1t
0s
0r
1y
0c
0i
#17343662473
0t
0s
0r
1y
0c
0i
#17343663935
1t
0s
0r
1y
0c
0i
#17343665329
0t
0s
0r
1y
0c
0i
#17343666821
1t
0s
0r
1y
0c
0i
#17343668249
0t
0s
0r
1y
0c
0i
#17343669788
1t
0s
0r
1y
0c
0i
#17343671258
0t
0s
0r
1y
0c
0i
#17343672848
1t
0s
0r
1y
1c
1i
#17343674351
0t
0s
0r
1y
1c
1i
#17343675991
1t
0s
0r
1y
0c
1i
#17343677516
0t
0s
0r
1y
0c
1i
#17343679165
1t
0s
0r
1y
0c
1i
#17343680704
0t
0s
0r
1y
0c
1i
#17343682337
1t
0s
0r
1y
0c
1i
#17343683848
0t
0s
0r
1y
0c
1i
#17343685427
1t
0s
0r
1y
0c
1i
#17343686881
0t
0s
0r
1y
0c
1i
#17343688385
1t
0s
0r
1y
0c
1i
#17343689760
0t
0s
0r
1y
0c
1i
#17343691183
1t
0s
0r
1y
0c
1i
#17343692469
0t
0s
0r
1y
0c
0i
#17343693815
1t
0s
0r
1y
0c
0i
#17343695055
0t
0s
0r
1y
0c
0i
#17343696336
1t
0s
0r
1y
0c
0i
#17343697513
0t
0s
0r
1y
0c
0i
#17343698743
1t
0s
0r
1y
0c
0i
#17343699866
0t
0s
0r
1y
0c
0i
#17343701048
1t
0s
0r
1y
0c
0i
#17343702132
0t
0s
0r
1y
0c
0i
#17343703277
1t
0s
0r
1y
0c
0i
#17343704337
0t
0s
0r
1y
0c
0i
#17343705458
1t
0s
0r
1y
0c
0i
#17343706491
0t
0s
0r
1y
0c
0i
#17343707591
1t
0s
0r
1y
0c
0i
#17343708618
0t
0s
0r
1y
0c
0i
#17343709716
1t
0s
0r
1y
0c
0i
#17343710742
0t
0s
0r
1y
0c
0i
#17343711841
1t
0s
0r
1y
0c
0i
#17343712882
0t
0s
0r
1y
0c
0i
#17343714006
1t
0s
0r
1y
0c
0i
#17343715058
0t
0s
0r
1y
0c
0i
#17343716207
1t
0s
0r
1y
0c
0i
#17343717279
0t
0s
0r
1y
0c
0i
#17343718450
1t
0s
0r
1y
0c
0i
#17343719549
0t
0s
0r
1y
0c
0i
#17343720752
1t
0s
0r
1y
0c
0i
#17343721877
0t
0s
0r
1y
0c
0i
#17343723099
1t
0s
0r
1y
1c
1i
#17343724250
0t
0s
0r
1y
1c
1i
#17343725489
1t
0s
0r
1y
0c
1i
#17343726654
0t
0s
0r
1y
0c
1i
#17343727911
1t
0s
0r
1y
0c
1i
#17343729067
0t
0s
0r
1y
0c
1i
#17343730308
1t
0s
0r
1y
0c
1i
#17343731443
0t
0s
0r
1y
0c
1i
#17343732649
1t
0s
0r
1y
0c
1i
#17343733750
0t
0s
0r
1y
0c
1i
#17343734906
1t
0s
0r
1y
0c
1i
#17343735962
0t
0s
0r
1y
0c
1i
#17343737070
1t
0s
0r
1y
0c
1i
#17343741423
0t
0s
0r
1y
0c
1i
#17343742967
1t
0s
0r
1y
0c
0i
#17343743837
0t
0s
0r
1y
0c
0i
#17343744738
1t
0s
0r
1y
0c
0i
#17343745570
0t
0s
0r
1y
0c
0i
#17343746440
1t
0s
0r
1y
0c
0i
#17343747249
0t
0s
0r
1y
0c
0i
#17343748104
1t
0s
0r
1y
0c
0i
#17343748904
0t
0s
0r
1y
0c
0i
#17343749746
1t
0s
0r
1y
0c
0i
#17343750536
0t
0s
0r
1y
0c
0i
#17343751385
1t
0s
0r
1y
0c
0i
#17343752173
0t
0s
0r
1y
0c
0i
#17343753022
1t
0s
0r
1y
0c
0i
#17343753821
0t
0s
0r
1y
0c
0i
#17343754682
1t
0s
0r
1y
0c
0i
#17343755493
0t
0s
0r
1y
0c
0i
#17343756373
1t
0s
0r
1y
0c
0i
#17343757196
0t
0s
0r
1y
0c
0i
#17343758088
1t
0s
0r
1y
0c
0i
#17343758928
0t
0s
0r
1y
0c
0i
#17343759834
1t
0s
0r
1y
0c
0i
#17343760691
0t
0s
0r
1y
0c
0i
#17343761618
1t
0s
0r
1y
1c
1i
#17343762484
0t
0s
0r
1y
1c
1i
#17343763417
1t
0s
0r
1y
0c
1i
#17343764294
0t
0s
0r
1y
0c
1i
#17343765237
1t
0s
0r
1y
0c
1i
#17343766118
0t
0s
0r
1y
0c
1i
#17343767062
1t
0s
0r
1y
0c
1i
#17343767936
0t
0s
0r
1y
0c
1i
#17343768866
1t
0s
0r
1y
0c
1i
#17343769726
0t
0s
0r
1y
0c
1i
#17343770636
1t
0s
0r
1y
0c
1i
#17343771477
0t
0s
0r
1y
0c
1i
#17343772363
1t
0s
0r
1y
0c
1i
#17343773187
0t
0s
0r
1y
0c
1i
#17343774057
1t
0s
0r
1y
0c
1i
#17343774860
0t
0s
0r
1y
0c
1i
#17343775721
1t
0s
0r
1y
0c
1i
#17343776509
0t
0s
0r
1y
0c
0i
#17343777361
1t
0s
0r
1y
0c
0i
#17343778145
0t
0s
0r
1y
0c
0i
#17343778988
1t
0s
0r
1y
0c
0i
#17343779773
0t
0s
0r
1y
0c
0i
#17343780615
1t
0s
0r
1y
0c
0i
#17343781407
0t
0s
0r
1y
0c
0i
#17343782250
1t
0s
0r
1y
0c
0i
#17343783042
0t
0s
0r
1y
0c
0i
#17343783893
1t
0s
0r
1y
0c
0i
#17343784689
0t
0s
0r
1y
0c
0i
#17343785542
1t
0s
0r
1y
0c
0i
#17343786347
0t
0s
0r
1y
0c
0i
#17343787211
1t
0s
0r
1y
0c
0i
#17343788022
0t
0s
0r
1y
0c
0i
#17343788898
1t
0s
0r
1y
0c
0i
#17343789716
0t
0s
0r
1y
0c
0i
#17343790599
1t
0s
0r
1y
0c
0i
#17343791433
0t
0s
0r
1y
0c
0i
#17343792326
1t
0s
0r
1y
0c
0i
#17343793165
0t
0s
0r
1y
0c
0i
#17343794076
1t
0s
0r
1y
0c
0i
#17343794931
0t
0s
0r
1y
0c
0i
#17343795856
1t
0s
0r
1y
1c
1i
#17343796722
0t
0s
0r
1y
1c
1i
#17343797662
1t
0s
0r
1y
0c
1i
#17343798540
0t
0s
0r
1y
0c
1i
#17343799490
1t
0s
0r
1y
0c
1i
#17343800376
0t
0s
0r
1y
0c
1i
#17343801328
1t
0s
0r
1y
0c
1i
#17343802214
0t
0s
0r
1y
0c
1i
#17343803154
1t
0s
0r
1y
0c
1i
#17343804031
0t
0s
0r
1y
0c
1i
#17343804959
1t
0s
0r
1y
0c
1i
#17343805820
0t
0s
0r
1y
0c
1i
#17343806732
1t
0s
0r
1y
0c
1i
#17343807569
0t
0s
0r
1y
0c
1i
#17343808466
1t
0s
0r
1y
0c
1i
#17343809296
0t
0s
0r
1y
0c
1i
#17343810176
1t
0s
0r
1y
0c
1i
#17343810997
0t
0s
0r
1y
0c
0i
#17343811870
1t
0s
0r
1y
0c
0i
#17343811964
1t
1s
0r
1y
0c
0i
#17343811964
1t
0s
0r
1y
0c
0i
#17343812682
0t
0s
0r
1y
0c
0i
#17343813549
1t
0s
0r
1y
0c
0i
#17343814362
0t
0s
0r
1y
0c
0i
#17343815236
1t
0s
0r
1y
0c
0i
#17343816048
0t
0s
0r
1y
0c
0i
#17343816925
1t
0s
0r
1y
0c
0i
#17343817745
0t
0s
0r
1y
0c
0i
#17343818632
1t
0s
0r
1y
0c
0i
#17343819449
0t
0s
0r
1y
0c
0i
#17343820337
1t
0s
0r
1y
0c
0i
#17343821167
0t
0s
0r
1y
0c
0i
#17343822064
1t
0s
0r
1y
0c
0i
#17343822902
0t
0s
0r
1y
0c
0i
#17343823809
1t
0s
0r
1y
0c
0i
#17343824655
0t
0s
0r
1y
0c
0i
#17343825582
1t
0s
0r
1y
0c
0i
#17343826437
0t
0s
0r
1y
0c
0i
#17343827378
1t
0s
0r
1y
0c
0i
#17343828245
0t
0s
0r
1y
0c
0i
#17343829208
1t
0s
0r
1y
0c
0i
#17343830094
0t
0s
0r
1y
0c
0i
#17343831066
1t
0s
0r
1y
0c
0i
#17343831976
0t
0s
0r
1y
0c
0i
#17343832964
1t
0s
0r
1y
0c
0i
#17343833889
0t
0s
0r
1y
0c
0i
#17343834889
1t
0s
0r
1y
0c
0i
#17343835817
0t
0s
0r
1y
0c
0i
#17343836820
1t
0s
0r
1y
0c
0i
#17343837743
0t
0s
0r
1y
0c
0i
#17343838734
1t
0s
0r
1y
0c
0i
#17343839643
0t
0s
0r
1y
0c
0i
#17343840610
1t
0s
0r
1y
0c
0i
#17343841491
0t
0s
0r
1y
0c
0i
#17343842437
1t
0s
0r
1y
0c
0i
#17343846216
0t
0s
0r
1y
0c
0i
#17343847757
1t
0s
0r
1y
0c
0i
#17343848594
0t
0s
0r
1y
0c
0i
#17343849506
1t
0s
0r
1y
0c
0i
#17343850343
0t
0s
0r
1y
0c
0i
#17343851253
1t
0s
0r
1y
0c
0i
#17343852096
0t
0s
0r
1y
0c
0i
#17343853009
1t
0s
0r
1y
0c
0i
#17343853861
0t
0s
0r
1y
0c
0i
#17343854782
1t
0s
0r
1y
0c
0i
#17343855639
0t
0s
0r
1y
0c
0i
#17343856563
1t
0s
0r
1y
0c
0i
#17343857430
0t
0s
0r
1y
0c
1i
#17343858368
1t
0s
0r
1y
0c
1i
#17343859246
0t
0s
0r
1y
0c
1i
#17343860197
1t
0s
0r
1y
0c
1i
#17343861079
0t
0s
0r
1y
0c
1i
#17343862042
1t
0s
0r
1y
0c
1i
#17343862936
0t
0s
0r
1y
0c
1i
#17343863917
1t
0s
0r
1y
0c
1i
#17343864826
0t
0s
0r
1y
0c
1i
#17343865817
1t
0s
0r
1y
1c
1i
#17343866753
0t
0s
0r
1y
1c
1i
#17343867764
1t
0s
0r
1y
1c
1i
#17343868711
0t
0s
0r
1y
1c
1i
#17343869738
1t
0s
0r
1y
0c
1i
#17343870701
0t
0s
0r
1y
0c
1i
#17343871738
1t
0s
0r
1y
0c
1i
#17343872706
0t
0s
0r
1y
0c
0i
#17343873740
1t
0s
0r
1y
0c
0i
#17343874696
0t
0s
0r
1y
0c
0i
#17343875719
1t
0s
0r
1y
0c
0i
#17343876658
0t
0s
0r
1y
0c
0i
#17343877661
1t
0s
0r
1y
0c
0i
#17343878246
1t
0s
1r
1y
0c
0i
#17343878248
1t
0s
0r
1y
0c
0i
#17343878581
0t
0s
0r
1y
0c
0i
#17343879569
1t
0s
0r
1y
0c
0i
#17343880481
0t
0s
0r
1y
0c
0i
#17343881455
1t
0s
0r
1y
0c
0i
#17343882352
0t
0s
0r
1y
0c
0i
#17343883318
1t
0s
0r
1y
0c
0i
#17343884213
0t
0s
0r
1y
0c
0i
#17343885168
1t
0s
0r
1y
0c
0i
#17343886062
0t
0s
0r
1y
0c
0i
#17343887018
1t
0s
0r
1y
0c
0i
#17343887911
0t
0s
0r
1y
0c
0i
#17343888869
1t
0s
0r
1y
0c
0i
#17343889764
0t
0s
0r
1y
0c
0i
#17343890730
1t
0s
0r
1y
0c
0i
#17343891628
0t
0s
0r
1y
0c
0i
#17343892602
1t
0s
0r
1y
0c
0i
#17343893505
0t
0s
0r
1y
0c
0i
#17343894480
1t
0s
0r
1y
0c
0i
#17343895395
0t
0s
0r
1y
0c
1i
#17343896380
1t
0s
0r
1y
0c
1i
#17343897300
0t
0s
0r
1y
0c
1i
#17343898297
1t
0s
0r
1y
0c
1i
#17343899230
0t
0s
0r
1y
0c
1i
#17343900235
1t
0s
0r
1y
0c
1i
#17343901183
0t
0s
0r
1y
0c
1i
#17343902200
1t
0s
0r
1y
0c
1i
#17343903162
0t
0s
0r
1y
0c
1i
#17343904203
1t
0s
0r
1y
1c
1i
#17343905175
0t
0s
0r
1y
1c
1i
#17343906237
1t
0s
0r
1y
1c
1i
#17343907228
0t
0s
0r
1y
1c
1i
#17343908307
1t
0s
0r
1y
0c
0i
#17343909308
0t
0s
0r
1y
0c
0i
#17343910393
1t
0s
0r
1y
0c
0i
#17343911407
0t
0s
0r
1y
0c
0i
#17343912490
1t
0s
0r
1y
0c
0i
#17343913494
0t
0s
0r
1y
0c
0i
#17343914559
1t
0s
0r
1y
0c
0i
#17343915549
0t
0s
0r
1y
0c
0i
#17343916591
1t
0s
0r
1y
0c
0i
#17343917563
0t
0s
0r
1y
0c
0i
#17343918596
1t
0s
0r
1y
0c
0i
#17343919546
0t
0s
0r
1y
0c
0i
#17343920559
1t
0s
0r
1y
0c
0i
#17343921500
0t
0s
0r
1y
0c
0i
#17343922516
1t
0s
0r
1y
0c
0i
#17343923448
0t
0s
0r
1y
0c
0i
#17343924452
1t
0s
0r
1y
0c
0i
#17343925380
0t
0s
0r
1y
0c
0i
#17343926376
1t
0s
0r
1y
0c
0i
#17343927310
0t
0s
0r
1y
0c
0i
#17343928310
1t
0s
0r
1y
0c
0i
#17343929241
0t
0s
0r
1y
0c
0i
#17343930249
1t
0s
0r
1y
0c
0i
#17343931190
0t
0s
0r
1y
0c
0i
#17343932208
1t
0s
0r
1y
0c
0i
#17343933148
0t
0s
0r
1y
0c
0i
#17343934167
1t
0s
0r
1y
0c
0i
#17343935118
0t
0s
0r
1y
0c
0i
#17343936150
1t
0s
0r
1y
0c
0i
#17343937110
0t
0s
0r
1y
0c
0i
#17343938154
1t
0s
0r
1y
0c
0i
#17343939127
0t
0s
0r
1y
0c
0i
#17343940188
1t
0s
0r
1y
0c
0i
#17343941166
0t
0s
0r
1y
0c
0i
#17343942238
1t
0s
0r
1y
0c
0i
#17343943243
0t
0s
0r
1y
0c
0i
#17343944341
1t
0s
0r
1y
0c
0i
#17343945364
0t
0s
0r
1y
0c
0i
#17343946486
1t
0s
0r
1y
1c
1i
#17343947530
0t
0s
0r
1y
1c
1i
#17343948670
1t
0s
0r
1y
0c
1i
#17343949728
0t
0s
0r
1y
0c
1i
#17343950883
1t
0s
0r
1y
0c
1i
#17343951946
0t
0s
0r
1y
0c
1i
#17343953093
1t
0s
0r
1y
0c
1i
#17343954145
0t
0s
0r
1y
0c
1i
#17343955274
1t
0s
0r
1y
0c
1i
#17343956306
0t
0s
0r
1y
0c
1i
#17343957410
1t
0s
0r
1y
0c
1i
#17343958417
0t
0s
0r
1y
0c
1i
#17343959495
1t
0s
0r
1y
0c
0i
#17343963931
0t
0s
0r
1y
0c
0i
#17343965565
1t
0s
0r
1y
0c
0i
#17343966513
0t
0s
0r
1y
0c
0i
#17343967530
1t
0s
0r
1y
0c
0i
#17343968470
0t
0s
0r
1y
0c
0i
#17343969473
1t
0s
0r
1y
0c
0i
#17343970413
0t
0s
0r
1y
0c
0i
#17343971408
1t
0s
0r
1y
0c
0i
#17343972349
0t
0s
0r
1y
0c
0i
#17343973345
1t
0s
0r
1y
0c
0i
#17343974277
0t
0s
0r
1y
0c
0i
#17343975276
1t
0s
0r
1y
0c
0i
#17343976203
0t
0s
0r
1y
0c
0i
#17343977205
1t
0s
0r
1y
0c
0i
#17343978136
0t
0s
0r
1y
0c
0i
#17343979142
1t
0s
0r
1y
0c
0i
#17343980080
0t
0s
0r
1y
0c
0i
#17343981099
1t
0s
0r
1y
0c
0i
#17343982038
0t
0s
0r
1y
0c
0i
#17343983063
1t
0s
0r
1y
0c
0i
#17343984028
0t
0s
0r
1y
0c
0i
#17343985065
1t
0s
0r
1y
0c
0i
#17343986037
0t
0s
0r
1y
0c
1i
#17343987094
1t
0s
0r
1y
1c
1i
#17343988080
0t
0s
0r
1y
1c
1i
#17343989141
1t
0s
0r
1y
0c
1i
#17343990133
0t
0s
0r
1y
0c
1i
#17343991202
1t
0s
0r
1y
0c
1i
#17343992198
0t
0s
0r
1y
0c
1i
#17343993267
1t
0s
0r
1y
0c
1i
#17343994253
0t
0s
0r
1y
0c
1i
#17343995303
1t
0s
0r
1y
0c
1i
#17343996286
0t
0s
0r
1y
0c
1i
#17343997329
1t
0s
0r
1y
0c
1i
#17343998291
0t
0s
0r
1y
0c
1i
#17343999320
1t
0s
0r
1y
0c
0i
#17344000267
0t
0s
0r
1y
0c
0i
#17344001281
1t
0s
0r
1y
0c
0i
#17344002215
0t
0s
0r
1y
0c
0i
#17344003218
1t
0s
0r
1y
0c
0i
#17344004148
0t
0s
0r
1y
0c
0i
#17344005143
1t
0s
0r
1y
0c
0i
#17344006070
0t
0s
0r
1y
0c
0i
#17344007067
1t
0s
0r
1y
0c
0i
#17344007991
0t
0s
0r
1y
0c
0i
#17344008987
1t
0s
0r
1y
0c
0i
#17344009918
0t
0s
0r
1y
0c
0i
#17344010919
1t
0s
0r
1y
0c
0i
#17344011854
0t
0s
0r
1y
0c
0i
#17344012864
1t
0s
0r
1y
0c
0i
#17344013808
0t
0s
0r
1y
0c
0i
#17344014819
1t
0s
0r
1y
0c
0i
#17344015777
0t
0s
0r
1y
0c
0i
#17344016805
1t
0s
0r
1y
0c
0i
#17344017768
0t
0s
0r
1y
0c
0i
#17344018806
1t
0s
0r
1y
0c
0i
#17344019782
0t
0s
0r
1y
0c
1i
#17344020834
1t
0s
0r
1y
0c
1i
#17344021822
0t
0s
0r
1y
0c
1i
#17344022887
1t
0s
0r
1y
0c
1i
#17344023892
0t
0s
0r
1y
0c
1i
#17344024981
1t
0s
0r
1y
1c
1i
#17344026006
0t
0s
0r
1y
1c
1i
#17344027115
1t
0s
0r
1y
1c
1i
#17344028163
0t
0s
0r
1y
1c
1i
#17344029294
1t
0s
0r
1y
0c
1i
#17344030349
0t
0s
0r
1y
0c
1i
#17344031494
1t
0s
0r
1y
0c
1i
#17344032561
0t
0s
0r
1y
0c
0i
#17344033707
1t
0s
0r
1y
0c
0i
#17344034772
0t
0s
0r
1y
0c
0i
#17344035908
1t
0s
0r
1y
0c
0i
#17344036966
0t
0s
0r
1y
0c
0i
#17344038081
1t
0s
0r
1y
0c
0i
#17344039120
0t
0s
0r
1y
0c
0i
#17344040216
1t
0s
0r
1y
0c
0i
#17344041230
0t
0s
0r
1y
0c
0i
#17344042309
1t
0s
0r
1y
0c
0i
#17344043317
0t
0s
0r
1y
0c
0i
#17344044388
1t
0s
0r
1y
0c
0i
#17344045387
0t
0s
0r
1y
0c
0i
#17344046455
1t
0s
0r
1y
0c
0i
#17344046749
1t
1s
0r
1y
0c
0i
#17344046749
1t
0s
0r
1y
0c
0i
#17344047446
0t
0s
0r
1y
0c
0i
#17344048506
1t
0s
0r
1y
0c
0i
#17344049500
0t
0s
0r
1y
0c
0i
#17344050564
1t
0s
0r
1y
0c
0i
#17344051561
0t
0s
0r
1y
0c
0i
#17344052642
1t
0s
0r
1y
0c
0i
#17344053636
0t
0s
0r
1y
0c
0i
#17344054720
1t
0s
0r
1y
0c
0i
#17344055724
0t
0s
0r
1y
0c
0i
#17344056810
1t
0s
0r
1y
0c
0i
#17344057819
0t
0s
0r
1y
0c
1i
#17344058920
1t
0s
0r
1y
0c
1i
#17344059939
0t
0s
0r
1y
0c
1i
#17344061052
1t
0s
0r
1y
0c
1i
#17344062089
0t
0s
0r
1y
0c
1i
#17344063227
1t
0s
0r
1y
0c
1i
#17344064273
0t
0s
0r
1y
0c
1i
#17344065434
1t
0s
0r
1y
0c
1i
#17344066503
0t
0s
0r
1y
1c
1i
#17344067687
1t
0s
0r
1y
1c
1i
#17344068795
0t
0s
0r
1y
1c
1i
#17344070006
1t
0s
0r
1y
1c
0i
#17344071139
0t
0s
0r
1y
1c
0i
#17344072371
1t
0s
0r
1y
0c
0i
#17344073528
0t
0s
0r
1y
0c
0i
#17344074789
1t
0s
0r
1y
0c
0i
#17344075947
0t
0s
0r
1y
0c
0i
#17344077207
1t
0s
0r
1y
0c
0i
#17344078355
0t
0s
0r
1y
0c
0i
#17344078608
0t
0s
1r
1y
0c
0i
#17344078611
0t
0s
0r
1y
0c
0i
#17344079581
1t
0s
0r
1y
0c
0i
#17344080696
0t
0s
0r
1y
0c
0i
#17344081876
1t
0s
0r
1y
0c
0i
#17344082928
0t
0s
0r
1y
0c
0i
#17344084031
1t
0s
0r
1y
0c
0i
#17344088143
0t
0s
0r
1y
0c
0i
#17344089599
1t
0s
0r
1y
0c
0i
#17344090399
0t
0s
0r
1y
0c
0i
#17344091234
1t
0s
0r
1y
0c
0i
#17344092000
0t
0s
0r
1y
0c
0i
#17344092804
1t
0s
0r
1y
0c
0i
#17344093550
0t
0s
0r
1y
0c
0i
#17344094336
1t
0s
0r
1y
0c
0i
#17344095062
0t
0s
0r
1y
0c
0i
#17344095834
1t
0s
0r
1y
0c
0i
#17344096559
0t
0s
0r
1y
0c
0i
#17344097333
1t
0s
0r
1y
0c
0i
#17344098052
0t
0s
0r
1y
0c
0i
#17344098834
1t
0s
0r
1y
0c
0i
#17344099570
0t
0s
0r
1y
0c
1i
#17344100362
1t
0s
0r
1y
0c
1i
#17344101108
0t
0s
0r
1y
0c
1i
#17344101920
1t
0s
0r
1y
0c
1i
#17344102686
0t
0s
0r
1y
0c
1i
#17344103525
1t
0s
0r
1y
0c
1i
#17344104317
0t
0s
0r
1y
0c
1i
#17344105181
1t
0s
0r
1y
1c
1i
#17344106005
0t
0s
0r
1y
1c
1i
#17344106900
1t
0s
0r
1y
1c
1i
#17344107748
0t
0s
0r
1y
1c
1i
#17344108669
1t
0s
0r
1y
0c
1i
#17344109533
0t
0s
0r
1y
0c
1i
#17344110475
1t
0s
0r
1y
0c
1i
#17344111356
0t
0s
0r
1y
0c
1i
#17344112309
1t
0s
0r
1y
0c
0i
#17344113192
0t
0s
0r
1y
0c
0i
#17344114140
1t
0s
0r
1y
0c
0i
#17344115021
0t
0s
0r
1y
0c
0i
#17344115959
1t
0s
0r
1y
0c
0i
#17344116826
0t
0s
0r
1y
0c
0i
