rusefi_bundle_mega100/rusefi.snapshot.mega100/console/logs/rusEFI_trigger_log_2024-11-11_00_21_43_100.vcd
$date
	Mon Nov 11 00:21:43 CET 2024
$end
$version
        1.0
$end
$timescale
        1ps
$end
$scope module test $end
$var wire 1 t PRI_TRG $end
$var wire 1 s SEC_TRG $end
$var wire 1 r TRG $end
$var wire 1 y SYNC $end
$var wire 1 c COIL $end
$var wire 1 i INJ $end
$upscope $end
$enddefinitions $end
$dumpvars
#8885181201
1t
0s
0r
1y
0c
0i
#8885181896
0t
0s
0r
1y
0c
0i
#8885182634
1t
0s
0r
1y
0c
0i
#8885183325
0t
0s
0r
1y
0c
0i
#8885184064
1t
0s
0r
1y
0c
0i
#8885184758
0t
0s
0r
1y
0c
0i
#8885185501
1t
0s
0r
1y
0c
0i
#8885186190
0t
0s
0r
1y
0c
0i
#8885186931
1t
0s
0r
1y
0c
0i
#8885187621
0t
0s
0r
1y
0c
0i
#8885188361
1t
0s
0r
1y
0c
0i
#8885189051
0t
0s
0r
1y
0c
0i
#8885189794
1t
0s
0r
1y
0c
0i
#8885190486
0t
0s
0r
1y
0c
0i
#8885191230
1t
0s
0r
1y
0c
0i
#8885191925
0t
0s
0r
1y
0c
0i
#8885192668
1t
0s
0r
1y
0c
0i
#8885193364
0t
0s
0r
1y
0c
0i
#8885194110
1t
0s
0r
1y
0c
0i
#8885194803
0t
0s
0r
1y
0c
0i
#8885195550
1t
0s
0r
1y
0c
0i
#8885196244
0t
0s
0r
1y
0c
0i
#8885196993
1t
0s
0r
1y
0c
0i
#8885197689
0t
0s
0r
1y
0c
0i
#8885198442
1t
0s
0r
1y
0c
0i
#8885199137
0t
0s
0r
1y
0c
0i
#8885199889
1t
0s
0r
1y
0c
0i
#8885200586
0t
0s
0r
1y
0c
0i
#8885201342
1t
0s
0r
1y
0c
0i
#8885202048
0t
0s
0r
1y
0c
0i
#8885202805
1t
0s
0r
1y
0c
0i
#8885203509
0t
0s
0r
1y
1c
0i
#8885204270
1t
0s
0r
1y
1c
0i
#8885204977
0t
0s
0r
1y
1c
1i
#8885205740
1t
0s
0r
1y
1c
1i
#8885206446
0t
0s
0r
1y
1c
1i
#8885207212
1t
0s
0r
1y
0c
0i
#8885207919
0t
0s
0r
1y
0c
0i
#8885208678
1t
0s
0r
1y
0c
0i
#8885209386
0t
0s
0r
1y
0c
0i
#8885210146
1t
0s
0r
1y
0c
0i
#8885210849
0t
0s
0r
1y
0c
0i
#8885211614
1t
0s
0r
1y
0c
0i
#8885214784
0t
0s
0r
1y
0c
0i
#8885216002
1t
0s
0r
1y
0c
0i
#8885216705
0t
0s
0r
1y
0c
0i
#8885217468
1t
0s
0r
1y
0c
0i
#8885218167
0t
0s
0r
1y
0c
0i
#8885218923
1t
0s
0r
1y
0c
0i
#8885219626
0t
0s
0r
1y
0c
0i
#8885220382
1t
0s
0r
1y
0c
0i
#8885221085
0t
0s
0r
1y
0c
0i
#8885221844
1t
0s
0r
1y
0c
0i
#8885222544
0t
0s
0r
1y
0c
0i
#8885223300
1t
0s
0r
1y
0c
0i
#8885224000
0t
0s
0r
1y
0c
0i
#8885224753
1t
0s
0r
1y
0c
0i
#8885225450
0t
0s
0r
1y
0c
0i
#8885226204
1t
0s
0r
1y
0c
0i
#8885226903
0t
0s
0r
1y
0c
0i
#8885227659
1t
0s
0r
1y
0c
0i
#8885228355
0t
0s
0r
1y
0c
0i
#8885229110
1t
0s
0r
1y
0c
0i
#8885229811
0t
0s
0r
1y
0c
0i
#8885230566
1t
0s
0r
1y
0c
0i
#8885231271
0t
0s
0r
1y
0c
0i
#8885232026
1t
0s
0r
1y
0c
0i
#8885232733
0t
0s
0r
1y
1c
0i
#8885233490
1t
0s
0r
1y
1c
0i
#8885234198
0t
0s
0r
1y
1c
1i
#8885234958
1t
0s
0r
1y
1c
1i
#8885235667
0t
0s
0r
1y
1c
1i
#8885236427
1t
0s
0r
1y
0c
1i
#8885237139
0t
0s
0r
1y
0c
0i
#8885237899
1t
0s
0r
1y
0c
0i
#8885238605
0t
0s
0r
1y
0c
0i
#8885239368
1t
0s
0r
1y
0c
0i
#8885240074
0t
0s
0r
1y
0c
0i
#8885240832
1t
0s
0r
1y
0c
0i
#8885241540
0t
0s
0r
1y
0c
0i
#8885242300
1t
0s
0r
1y
0c
0i
#8885243004
0t
0s
0r
1y
0c
0i
#8885243760
1t
0s
0r
1y
0c
0i
#8885244466
0t
0s
0r
1y
0c
0i
#8885245224
1t
0s
0r
1y
0c
0i
#8885245929
0t
0s
0r
1y
0c
0i
#8885246683
1t
0s
0r
1y
0c
0i
#8885247387
0t
0s
0r
1y
0c
0i
#8885248143
1t
0s
0r
1y
0c
0i
#8885248844
0t
0s
0r
1y
0c
0i
#8885249598
1t
0s
0r
1y
0c
0i
#8885250299
0t
0s
0r
1y
0c
0i
#8885251054
1t
0s
0r
1y
0c
0i
#8885251756
0t
0s
0r
1y
0c
0i
#8885252505
1t
0s
0r
1y
0c
0i
#8885253204
0t
0s
0r
1y
0c
0i
#8885253953
1t
0s
0r
1y
0c
0i
#8885254654
0t
0s
0r
1y
0c
0i
#8885255404
1t
0s
0r
1y
0c
0i
#8885256102
0t
0s
0r
1y
0c
0i
#8885256852
1t
0s
0r
1y
0c
0i
#8885257552
0t
0s
0r
1y
0c
0i
#8885258299
1t
0s
0r
1y
0c
0i
#8885259001
0t
0s
0r
1y
0c
0i
#8885259749
1t
0s
0r
1y
0c
0i
#8885260452
0t
0s
0r
1y
0c
0i
#8885261208
1t
0s
0r
1y
0c
0i
#8885261911
0t
0s
0r
1y
1c
0i
#8885262663
1t
0s
0r
1y
1c
1i
#8885263370
0t
0s
0r
1y
1c
1i
#8885264124
1t
0s
0r
1y
1c
1i
#8885264833
0t
0s
0r
1y
1c
1i
#8885265589
1t
0s
0r
1y
0c
1i
#8885266296
0t
0s
0r
1y
0c
0i
#8885267052
1t
0s
0r
1y
0c
0i
#8885267758
0t
0s
0r
1y
0c
0i
#8885268513
1t
0s
0r
1y
0c
0i
#8885269220
0t
0s
0r
1y
0c
0i
#8885269974
1t
0s
0r
1y
0c
0i
#8885270675
0t
0s
0r
1y
0c
0i
#8885271425
1t
0s
0r
1y
0c
0i
#8885272131
0t
0s
0r
1y
0c
0i
#8885272883
1t
0s
0r
1y
0c
0i
#8885273587
0t
0s
0r
1y
0c
0i
#8885274341
1t
0s
0r
1y
0c
0i
#8885274419
1t
1s
0r
1y
0c
0i
#8885274419
1t
0s
0r
1y
0c
0i
#8885275043
0t
0s
0r
1y
0c
0i
#8885275790
1t
0s
0r
1y
0c
0i
#8885276493
0t
0s
0r
1y
0c
0i
#8885277243
1t
0s
0r
1y
0c
0i
#8885277945
0t
0s
0r
1y
0c
0i
#8885278701
1t
0s
0r
1y
0c
0i
#8885279404
0t
0s
0r
1y
0c
0i
#8885280160
1t
0s
0r
1y
0c
0i
#8885280858
0t
0s
0r
1y
0c
0i
#8885281612
1t
0s
0r
1y
0c
0i
#8885282312
0t
0s
0r
1y
0c
0i
#8885283065
1t
0s
0r
1y
0c
0i
#8885283764
0t
0s
0r
1y
0c
0i
#8885284520
1t
0s
0r
1y
0c
0i
#8885285219
0t
0s
0r
1y
0c
0i
#8885285974
1t
0s
0r
1y
0c
0i
#8885286673
0t
0s
0r
1y
0c
0i
#8885287432
1t
0s
0r
1y
0c
0i
#8885288126
0t
0s
0r
1y
0c
0i
#8885288890
1t
0s
0r
1y
0c
0i
#8885289593
0t
0s
0r
1y
0c
0i
#8885290355
1t
0s
0r
1y
0c
0i
#8885291058
0t
0s
0r
1y
1c
0i
#8885291824
1t
0s
0r
1y
1c
1i
#8885292529
0t
0s
0r
1y
1c
1i
#8885293291
1t
0s
0r
1y
1c
1i
#8885294001
0t
0s
0r
1y
1c
1i
#8885294770
1t
0s
0r
1y
0c
1i
#8885294829
1t
0s
1r
1y
0c
0i
#8885294831
1t
0s
0r
1y
0c
0i
#8885295474
0t
0s
0r
1y
0c
0i
#8885296237
1t
0s
0r
1y
0c
0i
#8885296945
0t
0s
0r
1y
0c
0i
#8885297709
1t
0s
0r
1y
0c
0i
#8885298412
0t
0s
0r
1y
0c
0i
#8885299179
1t
0s
0r
1y
0c
0i
#8885302378
0t
0s
0r
1y
0c
0i
#8885303585
1t
0s
0r
1y
0c
0i
#8885304288
0t
0s
0r
1y
0c
0i
#8885305048
1t
0s
0r
1y
0c
0i
#8885305752
0t
0s
0r
1y
0c
0i
#8885306510
1t
0s
0r
1y
0c
0i
#8885307212
0t
0s
0r
1y
0c
0i
#8885307969
1t
0s
0r
1y
0c
0i
#8885308669
0t
0s
0r
1y
0c
0i
#8885309425
1t
0s
0r
1y
0c
0i
#8885310127
0t
0s
0r
1y
0c
0i
#8885310880
1t
0s
0r
1y
0c
0i
#8885311578
0t
0s
0r
1y
0c
0i
#8885312328
1t
0s
0r
1y
0c
0i
#8885313028
0t
0s
0r
1y
0c
0i
#8885313783
1t
0s
0r
1y
0c
0i
#8885314479
0t
0s
0r
1y
0c
0i
#8885315232
1t
0s
0r
1y
0c
0i
#8885315929
0t
0s
0r
1y
0c
0i
#8885316685
1t
0s
0r
1y
0c
0i
#8885317385
0t
0s
0r
1y
0c
0i
#8885318141
1t
0s
0r
1y
0c
0i
#8885318845
0t
0s
0r
1y
0c
0i
#8885319605
1t
0s
0r
1y
0c
0i
#8885320309
0t
0s
0r
1y
1c
0i
#8885321069
1t
0s
0r
1y
1c
0i
#8885321777
0t
0s
0r
1y
1c
1i
#8885322539
1t
0s
0r
1y
1c
1i
#8885323247
0t
0s
0r
1y
1c
1i
#8885324008
1t
0s
0r
1y
0c
1i
#8885324719
0t
0s
0r
1y
0c
0i
#8885325483
1t
0s
0r
1y
0c
0i
#8885326193
0t
0s
0r
1y
0c
0i
#8885326952
1t
0s
0r
1y
0c
0i
#8885327661
0t
0s
0r
1y
0c
0i
#8885328420
1t
0s
0r
1y
0c
0i
#8885329126
0t
0s
0r
1y
0c
0i
#8885329882
1t
0s
0r
1y
0c
0i
#8885330591
0t
0s
0r
1y
0c
0i
#8885331347
1t
0s
0r
1y
0c
0i
#8885332051
0t
0s
0r
1y
0c
0i
#8885332807
1t
0s
0r
1y
0c
0i
#8885333512
0t
0s
0r
1y
0c
0i
#8885334265
1t
0s
0r
1y
0c
0i
#8885334969
0t
0s
0r
1y
0c
0i
#8885335724
1t
0s
0r
1y
0c
0i
#8885336425
0t
0s
0r
1y
0c
0i
#8885337178
1t
0s
0r
1y
0c
0i
#8885337877
0t
0s
0r
1y
0c
0i
#8885338630
1t
0s
0r
1y
0c
0i
#8885339328
0t
0s
0r
1y
0c
0i
#8885340076
1t
0s
0r
1y
0c
0i
#8885340775
0t
0s
0r
1y
0c
0i
#8885341521
1t
0s
0r
1y
0c
0i
#8885342222
0t
0s
0r
1y
0c
0i
#8885342965
1t
0s
0r
1y
0c
0i
#8885343666
0t
0s
0r
1y
0c
0i
#8885344412
1t
0s
0r
1y
0c
0i
#8885345111
0t
0s
0r
1y
0c
0i
#8885345858
1t
0s
0r
1y
0c
0i
#8885346557
0t
0s
0r
1y
0c
0i
#8885347304
1t
0s
0r
1y
0c
0i
#8885348008
0t
0s
0r
1y
0c
0i
#8885348760
1t
0s
0r
1y
0c
0i
#8885349463
0t
0s
0r
1y
1c
0i
#8885350214
1t
0s
0r
1y
1c
0i
#8885350919
0t
0s
0r
1y
1c
1i
#8885351670
1t
0s
0r
1y
1c
1i
#8885352377
0t
0s
0r
1y
1c
1i
#8885353134
1t
0s
0r
1y
0c
1i
#8885353839
0t
0s
0r
1y
0c
0i
#8885354590
1t
0s
0r
1y
0c
0i
#8885355298
0t
0s
0r
1y
0c
0i
#8885356052
1t
0s
0r
1y
0c
0i
#8885356757
0t
0s
0r
1y
0c
0i
#8885357507
1t
0s
0r
1y
0c
0i
#8885358207
0t
0s
0r
1y
0c
0i
#8885358959
1t
0s
0r
1y
0c
0i
#8885359659
0t
0s
0r
1y
0c
0i
#8885360411
1t
0s
0r
1y
0c
0i
#8885361111
0t
0s
0r
1y
0c
0i
#8885361860
1t
0s
0r
1y
0c
0i
#8885362559
0t
0s
0r
1y
0c
0i
#8885363302
1t
0s
0r
1y
0c
0i
#8885364002
0t
0s
0r
1y
0c
0i
#8885364749
1t
0s
0r
1y
0c
0i
#8885365447
0t
0s
0r
1y
0c
0i
#8885366196
1t
0s
0r
1y
0c
0i
#8885366891
0t
0s
0r
1y
0c
0i
#8885367642
1t
0s
0r
1y
0c
0i
#8885368334
0t
0s
0r
1y
0c
0i
#8885369081
1t
0s
0r
1y
0c
0i
#8885369776
0t
0s
0r
1y
0c
0i
#8885370523
1t
0s
0r
1y
0c
0i
#8885371214
0t
0s
0r
1y
0c
0i
#8885371960
1t
0s
0r
1y
0c
0i
#8885372654
0t
0s
0r
1y
0c
0i
#8885373402
1t
0s
0r
1y
0c
0i
#8885374094
0t
0s
0r
1y
0c
0i
#8885374847
1t
0s
0r
1y
0c
0i
#8885375536
0t
0s
0r
1y
0c
0i
#8885376290
1t
0s
0r
1y
0c
0i
#8885376986
0t
0s
0r
1y
0c
0i
#8885377739
1t
0s
0r
1y
0c
0i
#8885378441
0t
0s
0r
1y
0c
0i
#8885379195
1t
0s
0r
1y
1c
0i
#8885379895
0t
0s
0r
1y
1c
1i
#8885380653
1t
0s
0r
1y
1c
1i
#8885381356
0t
0s
0r
1y
1c
1i
#8885382112
1t
0s
0r
1y
0c
1i
#8885382816
0t
0s
0r
1y
0c
0i
#8885383574
1t
0s
0r
1y
0c
0i
#8885384274
0t
0s
0r
1y
0c
0i
#8885385032
1t
0s
0r
1y
0c
0i
#8885385729
0t
0s
0r
1y
0c
0i
#8885386487
1t
0s
0r
1y
0c
0i
#8885389633
0t
0s
0r
1y
0c
0i
#8885390832
1t
0s
0r
1y
0c
0i
#8885391529
0t
0s
0r
1y
0c
0i
#8885392276
1t
0s
0r
1y
0c
0i
#8885392966
0t
0s
0r
1y
0c
0i
#8885393712
1t
0s
0r
1y
0c
0i
#8885394398
0t
0s
0r
1y
0c
0i
#8885395138
1t
0s
0r
1y
0c
0i
#8885395821
0t
0s
0r
1y
0c
0i
#8885396561
1t
0s
0r
1y
0c
0i
#8885397241
0t
0s
0r
1y
0c
0i
#8885397975
1t
0s
0r
1y
0c
0i
#8885398655
0t
0s
0r
1y
0c
0i
#8885399384
1t
0s
0r
1y
0c
0i
#8885400064
0t
0s
0r
1y
0c
0i
#8885400797
1t
0s
0r
1y
0c
0i
#8885401477
0t
0s
0r
1y
0c
0i
#8885402208
1t
0s
0r
1y
0c
0i
#8885402889
0t
0s
0r
1y
0c
0i
#8885403622
1t
0s
0r
1y
0c
0i
#8885404305
0t
0s
0r
1y
0c
0i
#8885405039
1t
0s
0r
1y
0c
0i
#8885405726
0t
0s
0r
1y
0c
0i
#8885406462
1t
0s
0r
1y
0c
0i
#8885407148
0t
0s
0r
1y
0c
0i
#8885407886
1t
0s
0r
1y
1c
0i
#8885408575
0t
0s
0r
1y
1c
1i
#8885409315
1t
0s
0r
1y
1c
1i
#8885410003
0t
0s
0r
1y
1c
1i
#8885410746
1t
0s
0r
1y
0c
1i
#8885411435
0t
0s
0r
1y
0c
0i
#8885412175
1t
0s
0r
1y
0c
0i
#8885412862
0t
0s
0r
1y
0c
0i
#8885413604
1t
0s
0r
1y
0c
0i
#8885414291
0t
0s
0r
1y
0c
0i
#8885415026
1t
0s
0r
1y
0c
0i
#8885415714
0t
0s
0r
1y
0c
0i
#8885416450
1t
0s
0r
1y
0c
0i
#8885417135
0t
0s
0r
1y
0c
0i
#8885417869
1t
0s
0r
1y
0c
0i
#8885418553
0t
0s
0r
1y
0c
0i
#8885419286
1t
0s
0r
1y
0c
0i
#8885419965
0t
0s
0r
1y
0c
0i
#8885420697
1t
0s
0r
1y
0c
0i
#8885421373
0t
0s
0r
1y
0c
0i
#8885422099
1t
0s
0r
1y
0c
0i
#8885422775
0t
0s
0r
1y
0c
0i
#8885423497
1t
0s
0r
1y
0c
0i
#8885424170
0t
0s
0r
1y
0c
0i
#8885424891
1t
0s
0r
1y
0c
0i
#8885425562
0t
0s
0r
1y
0c
0i
#8885426279
1t
0s
0r
1y
0c
0i
#8885426947
0t
0s
0r
1y
0c
0i
#8885427664
1t
0s
0r
1y
0c
0i
#8885428335
0t
0s
0r
1y
0c
0i
#8885429049
1t
0s
0r
1y
0c
0i
#8885429720
0t
0s
0r
1y
0c
0i
#8885430435
1t
0s
0r
1y
0c
0i
#8885431105
0t
0s
0r
1y
0c
0i
#8885431820
1t
0s
0r
1y
0c
0i
#8885432492
0t
0s
0r
1y
0c
0i
#8885433209
1t
0s
0r
1y
0c
0i
#8885433882
0t
0s
0r
1y
0c
0i
#8885434603
1t
0s
0r
1y
0c
0i
#8885435276
0t
0s
0r
1y
0c
0i
#8885435999
1t
0s
0r
1y
1c
1i
#8885436673
0t
0s
0r
1y
1c
1i
#8885437398
1t
0s
0r
1y
1c
1i
#8885438073
0t
0s
0r
1y
1c
1i
#8885438796
1t
0s
0r
1y
0c
1i
#8885439474
0t
0s
0r
1y
0c
0i
#8885440194
1t
0s
0r
1y
0c
0i
#8885440872
0t
0s
0r
1y
0c
0i
#8885441590
1t
0s
0r
1y
0c
0i
#8885442267
0t
0s
0r
1y
0c
0i
#8885442987
1t
0s
0r
1y
0c
0i
#8885443657
0t
0s
0r
1y
0c
0i
#8885444376
1t
0s
0r
1y
0c
0i
#8885445046
0t
0s
0r
1y
0c
0i
#8885445764
1t
0s
0r
1y
0c
0i
#8885446435
0t
0s
0r
1y
0c
0i
#8885447155
1t
0s
0r
1y
0c
0i
#8885447303
1t
1s
0r
1y
0c
0i
#8885447303
1t
0s
0r
1y
0c
0i
#8885447821
0t
0s
0r
1y
0c
0i
#8885448533
1t
0s
0r
1y
0c
0i
#8885449201
0t
0s
0r
1y
0c
0i
#8885449915
1t
0s
0r
1y
0c
0i
#8885450583
0t
0s
0r
1y
0c
0i
#8885451298
1t
0s
0r
1y
0c
0i
#8885451961
0t
0s
0r
1y
0c
0i
#8885452677
1t
0s
0r
1y
0c
0i
#8885453337
0t
0s
0r
1y
0c
0i
#8885454051
1t
0s
0r
1y
0c
0i
#8885454709
0t
0s
0r
1y
0c
0i
#8885455419
1t
0s
0r
1y
0c
0i
#8885456080
0t
0s
0r
1y
0c
0i
#8885456792
1t
0s
0r
1y
0c
0i
#8885457453
0t
0s
0r
1y
0c
0i
#8885458164
1t
0s
0r
1y
0c
0i
#8885458822
0t
0s
0r
1y
0c
0i
#8885459535
1t
0s
0r
1y
0c
0i
#8885460195
0t
0s
0r
1y
0c
0i
#8885460913
1t
0s
0r
1y
0c
0i
#8885461575
0t
0s
0r
1y
0c
0i
#8885462290
1t
0s
0r
1y
0c
0i
#8885462958
0t
0s
0r
1y
0c
0i
#8885463676
1t
0s
0r
1y
1c
1i
#8885464341
0t
0s
0r
1y
1c
1i
#8885465061
1t
0s
0r
1y
1c
1i
#8885465729
0t
0s
0r
1y
1c
1i
#8885466451
1t
0s
0r
1y
0c
1i
#8885467116
0t
0s
0r
1y
0c
0i
#8885467834
1t
0s
0r
1y
0c
0i
#8885468498
0t
0s
0r
1y
0c
0i
#8885469145
0t
0s
1r
1y
0c
0i
#8885469148
0t
0s
0r
1y
0c
0i
#8885469216
1t
0s
0r
1y
0c
0i
#8885469882
0t
0s
0r
1y
0c
0i
#8885470602
1t
0s
0r
1y
0c
0i
#8885473582
0t
0s
0r
1y
0c
0i
#8885474752
1t
0s
0r
1y
0c
0i
#8885475415
0t
0s
0r
1y
0c
0i
#8885476135
1t
0s
0r
1y
0c
0i
#8885476797
0t
0s
0r
1y
0c
0i
#8885477515
1t
0s
0r
1y
0c
0i
#8885478178
0t
0s
0r
1y
0c
0i
#8885478896
1t
0s
0r
1y
0c
0i
#8885479560
0t
0s
0r
1y
0c
0i
#8885480276
1t
0s
0r
1y
0c
0i
#8885480941
0t
0s
0r
1y
0c
0i
#8885481658
1t
0s
0r
1y
0c
0i
#8885482321
0t
0s
0r
1y
0c
0i
#8885483035
1t
0s
0r
1y
0c
0i
#8885483702
0t
0s
0r
1y
0c
0i
#8885484418
1t
0s
0r
1y
0c
0i
#8885485079
0t
0s
0r
1y
0c
0i
#8885485798
1t
0s
0r
1y
0c
0i
#8885486458
0t
0s
0r
1y
0c
0i
#8885487179
1t
0s
0r
1y
0c
0i
#8885487843
0t
0s
0r
1y
0c
0i
#8885488560
1t
0s
0r
1y
0c
0i
#8885489230
0t
0s
0r
1y
0c
0i
#8885489952
1t
0s
0r
1y
0c
0i
#8885490619
0t
0s
0r
1y
0c
0i
#8885491340
1t
0s
0r
1y
1c
1i
#8885492013
0t
0s
0r
1y
1c
1i
#8885492737
1t
0s
0r
1y
1c
1i
#8885493407
0t
0s
0r
1y
1c
1i
#8885494133
1t
0s
0r
1y
0c
1i
#8885494806
0t
0s
0r
1y
0c
0i
#8885495532
1t
0s
0r
1y
0c
0i
#8885496202
0t
0s
0r
1y
0c
0i
#8885496922
1t
0s
0r
1y
0c
0i
#8885497595
0t
0s
0r
1y
0c
0i
#8885498316
1t
0s
0r
1y
0c
0i
#8885498984
0t
0s
0r
1y
0c
0i
#8885499706
1t
0s
0r
1y
0c
0i
#8885500372
0t
0s
0r
1y
0c
0i
#8885501090
1t
0s
0r
1y
0c
0i
#8885501759
0t
0s
0r
1y
0c
0i
#8885502479
1t
0s
0r
1y
0c
0i
#8885503145
0t
0s
0r
1y
0c
0i
#8885503865
1t
0s
0r
1y
0c
0i
#8885504530
0t
0s
0r
1y
0c
0i
#8885505249
1t
0s
0r
1y
0c
0i
#8885505914
0t
0s
0r
1y
0c
0i
#8885506632
1t
0s
0r
1y
0c
0i
#8885507294
0t
0s
0r
1y
0c
0i
#8885508010
1t
0s
0r
1y
0c
0i
#8885508674
0t
0s
0r
1y
0c
0i
#8885509386
1t
0s
0r
1y
0c
0i
#8885510047
0t
0s
0r
1y
0c
0i
#8885510756
1t
0s
0r
1y
0c
0i
#8885511420
0t
0s
0r
1y
0c
0i
#8885512131
1t
0s
0r
1y
0c
0i
#8885512792
0t
0s
0r
1y
0c
0i
#8885513501
1t
0s
0r
1y
0c
0i
#8885514165
0t
0s
0r
1y
0c
0i
#8885514873
1t
0s
0r
1y
0c
0i
#8885515536
0t
0s
0r
1y
0c
0i
#8885516247
1t
0s
0r
1y
0c
0i
#8885516910
0t
0s
0r
1y
0c
0i
#8885517622
1t
0s
0r
1y
0c
0i
#8885518289
0t
0s
0r
1y
0c
0i
#8885519003
1t
0s
0r
1y
1c
1i
#8885519670
0t
0s
0r
1y
1c
1i
#8885520385
1t
0s
0r
1y
1c
1i
#8885521053
0t
0s
0r
1y
1c
1i
#8885521766
1t
0s
0r
1y
0c
1i
#8885522436
0t
0s
0r
1y
0c
0i
#8885523150
1t
0s
0r
1y
0c
0i
#8885523820
0t
0s
0r
1y
0c
0i
#8885524532
1t
0s
0r
1y
0c
0i
#8885525200
0t
0s
0r
1y
0c
0i
#8885525909
1t
0s
0r
1y
0c
0i
#8885526574
0t
0s
0r
1y
0c
0i
#8885527285
1t
0s
0r
1y
0c
0i
#8885527949
0t
0s
0r
1y
0c
0i
#8885528661
1t
0s
0r
1y
0c
0i
#8885529322
0t
0s
0r
1y
0c
0i
#8885530029
1t
0s
0r
1y
0c
0i
#8885530688
0t
0s
0r
1y
0c
0i
#8885531390
1t
0s
0r
1y
0c
0i
#8885532047
0t
0s
0r
1y
0c
0i
#8885532751
1t
0s
0r
1y
0c
0i
#8885533407
0t
0s
0r
1y
0c
0i
#8885534106
1t
0s
0r
1y
0c
0i
#8885534762
0t
0s
0r
1y
0c
0i
#8885535463
1t
0s
0r
1y
0c
0i
#8885536111
0t
0s
0r
1y
0c
0i
#8885536811
1t
0s
0r
1y
0c
0i
#8885537458
0t
0s
0r
1y
0c
0i
#8885538156
1t
0s
0r
1y
0c
0i
#8885538803
0t
0s
0r
1y
0c
0i
#8885539501
1t
0s
0r
1y
0c
0i
#8885540148
0t
0s
0r
1y
0c
0i
#8885540844
1t
0s
0r
1y
0c
0i
#8885541492
0t
0s
0r
1y
0c
0i
#8885542193
1t
0s
0r
1y
0c
0i
#8885542837
0t
0s
0r
1y
0c
0i
#8885543540
1t
0s
0r
1y
0c
0i
#8885544190
0t
0s
0r
1y
0c
0i
#8885544895
1t
0s
0r
1y
0c
0i
#8885545547
0t
0s
0r
1y
0c
0i
#8885546252
1t
0s
0r
1y
1c
1i
#8885546905
0t
0s
0r
1y
1c
1i
#8885547612
1t
0s
0r
1y
1c
1i
#8885548266
0t
0s
0r
1y
1c
1i
#8885548974
1t
0s
0r
1y
0c
1i
#8885549628
0t
0s
0r
1y
0c
0i
#8885550332
1t
0s
0r
1y
0c
0i
#8885550983
0t
0s
0r
1y
0c
0i
#8885551692
1t
0s
0r
1y
0c
0i
#8885552340
0t
0s
0r
1y
0c
0i
#8885553049
1t
0s
0r
1y
0c
0i
#8885555971
0t
0s
0r
1y
0c
0i
#8885557111
1t
0s
0r
1y
0c
0i
#8885557759
0t
0s
0r
1y
0c
0i
#8885558467
1t
0s
0r
1y
0c
0i
#8885559110
0t
0s
0r
1y
0c
0i
#8885559809
1t
0s
0r
1y
0c
0i
#8885560458
0t
0s
0r
1y
0c
0i
#8885561155
1t
0s
0r
1y
0c
0i
#8885561804
0t
0s
0r
1y
0c
0i
#8885562502
1t
0s
0r
1y
0c
0i
#8885563146
0t
0s
0r
1y
0c
0i
#8885563841
1t
0s
0r
1y
0c
0i
#8885564486
0t
0s
0r
1y
0c
0i
#8885565177
1t
0s
0r
1y
0c
0i
#8885565821
0t
0s
0r
1y
0c
0i
#8885566511
1t
0s
0r
1y
0c
0i
#8885567153
0t
0s
0r
1y
0c
0i
#8885567848
1t
0s
0r
1y
0c
0i
#8885568488
0t
0s
0r
1y
0c
0i
#8885569181
1t
0s
0r
1y
0c
0i
#8885569824
0t
0s
0r
1y
0c
0i
#8885570518
1t
0s
0r
1y
0c
0i
#8885571163
0t
0s
0r
1y
0c
0i
#8885571857
1t
0s
0r
1y
0c
0i
#8885572506
0t
0s
0r
1y
0c
0i
#8885573200
1t
0s
0r
1y
1c
1i
#8885573849
0t
0s
0r
1y
1c
1i
#8885574545
1t
0s
0r
1y
1c
1i
#8885575195
0t
0s
0r
1y
1c
1i
#8885575894
1t
0s
0r
1y
0c
1i
#8885576542
0t
0s
0r
1y
0c
0i
#8885577237
1t
0s
0r
1y
0c
0i
#8885577888
0t
0s
0r
1y
0c
0i
#8885578584
1t
0s
0r
1y
0c
0i
#8885579230
0t
0s
0r
1y
0c
0i
#8885579923
1t
0s
0r
1y
0c
0i
#8885580574
0t
0s
0r
1y
0c
0i
#8885581266
1t
0s
0r
1y
0c
0i
#8885581913
0t
0s
0r
1y
0c
0i
#8885582606
1t
0s
0r
1y
0c
0i
#8885583249
0t
0s
0r
1y
0c
0i
#8885583939
1t
0s
0r
1y
0c
0i
#8885584583
0t
0s
0r
1y
0c
0i
#8885585273
1t
0s
0r
1y
0c
0i
#8885585914
0t
0s
0r
1y
0c
0i
#8885586600
1t
0s
0r
1y
0c
0i
#8885587239
0t
0s
0r
1y
0c
0i
#8885587927
1t
0s
0r
1y
0c
0i
#8885588563
0t
0s
0r
1y
0c
0i
#8885589247
1t
0s
0r
1y
0c
0i
#8885589884
0t
0s
0r
1y
0c
0i
#8885590565
1t
0s
0r
1y
0c
0i
#8885591198
0t
0s
0r
1y
0c
0i
#8885591878
1t
0s
0r
1y
0c
0i
#8885592513
0t
0s
0r
1y
0c
0i
#8885593191
1t
0s
0r
1y
0c
0i
#8885593827
0t
0s
0r
1y
0c
0i
#8885594505
1t
0s
0r
1y
0c
0i
#8885595140
0t
0s
0r
1y
0c
0i
#8885595816
1t
0s
0r
1y
0c
0i
#8885596454
0t
0s
0r
1y
0c
0i
#8885597136
1t
0s
0r
1y
0c
0i
#8885597770
0t
0s
0r
1y
0c
0i
#8885598453
1t
0s
0r
1y
0c
0i
#8885599090
0t
0s
0r
1y
1c
0i
#8885599775
1t
0s
0r
1y
1c
1i
#8885600411
0t
0s
0r
1y
1c
1i
#8885601091
1t
0s
0r
1y
1c
1i
#8885601733
0t
0s
0r
1y
1c
1i
#8885602418
1t
0s
0r
1y
0c
1i
#8885603059
0t
0s
0r
1y
0c
0i
#8885603739
1t
0s
0r
1y
0c
0i
#8885604382
0t
0s
0r
1y
0c
0i
#8885605063
1t
0s
0r
1y
0c
0i
#8885605702
0t
0s
0r
1y
0c
0i
#8885606383
1t
0s
0r
1y
0c
0i
#8885607017
0t
0s
0r
1y
0c
0i
#8885607700
1t
0s
0r
1y
0c
0i
#8885608333
0t
0s
0r
1y
0c
0i
#8885609015
1t
0s
0r
1y
0c
0i
#8885609649
0t
0s
0r
1y
0c
0i
#8885610328
1t
0s
0r
1y
0c
0i
#8885610432
1t
1s
0r
1y
0c
0i
#8885610432
1t
0s
0r
1y
0c
0i
#8885610962
0t
0s
0r
1y
0c
0i
#8885611639
1t
0s
0r
1y
0c
0i
#8885612270
0t
0s
0r
1y
0c
0i
#8885612946
1t
0s
0r
1y
0c
0i
#8885613580
0t
0s
0r
1y
0c
0i
#8885614259
1t
0s
0r
1y
0c
0i
#8885614890
0t
0s
0r
1y
0c
0i
#8885615569
1t
0s
0r
1y
0c
0i
#8885616199
0t
0s
0r
1y
0c
0i
#8885616873
1t
0s
0r
1y
0c
0i
#8885617504
0t
0s
0r
1y
0c
0i
#8885618178
1t
0s
0r
1y
0c
0i
#8885618806
0t
0s
0r
1y
0c
0i
#8885619482
1t
0s
0r
1y
0c
0i
#8885620108
0t
0s
0r
1y
0c
0i
#8885620784
1t
0s
0r
1y
0c
0i
