rusefi_bundle_mega100/rusefi.snapshot.mega100/console/logs/rusEFI_trigger_log_2025-02-16_15_34_40_417.vcd
$date
	Sun Feb 16 15:34:40 CET 2025
$end
$version
        1.0
$end
$timescale
        1ps
$end
$scope module test $end
$var wire 1 t PRI_TRG $end
$var wire 1 s SEC_TRG $end
$var wire 1 r TRG $end
$var wire 1 y SYNC $end
$var wire 1 c COIL $end
$var wire 1 i INJ $end
$upscope $end
$enddefinitions $end
$dumpvars
#93168295
0t
0s
0r
1y
0c
0i
#93168778
0t
1s
0r
1y
0c
0i
#93168778
0t
0s
0r
1y
0c
0i
#94047583
1t
0s
0r
1y
0c
0i
#94047586
1t
0s
0r
0y
0c
0i
#94047592
1t
0s
0r
0y
0c
0i
#94047596
1t
0s
0r
0y
0c
0i
#94047598
1t
0s
0r
0y
0c
0i
#94047603
1t
0s
0r
0y
0c
0i
#94047604
1t
0s
0r
0y
0c
0i
#98364042
0t
0s
0r
0y
0c
0i
#98379911
1t
0s
0r
0y
0c
0i
#98380210
0t
0s
0r
0y
0c
0i
#98380923
1t
0s
0r
0y
0c
0i
#98381218
0t
0s
0r
0y
0c
0i
#98381655
1t
0s
0r
0y
0c
0i
#98381729
0t
0s
0r
0y
0c
0i
#98381931
1t
0s
0r
0y
0c
0i
#98382087
0t
0s
0r
0y
0c
0i
#98382435
1t
0s
0r
0y
0c
0i
#98382738
0t
0s
0r
0y
0c
0i
#98383120
1t
0s
0r
0y
0c
0i
#98383746
0t
0s
0r
0y
0c
0i
#98383951
1t
0s
0r
0y
0c
0i
#98384255
0t
0s
0r
0y
0c
0i
#98384460
1t
0s
0r
0y
0c
0i
#98385267
0t
0s
0r
0y
0c
0i
#98385307
1t
0s
0r
0y
0c
0i
#98385771
0t
0s
0r
0y
0c
0i
#98385969
1t
0s
0r
0y
0c
0i
#98387792
0t
0s
0r
0y
0c
0i
#98387884
1t
0s
0r
0y
0c
0i
#98388297
0t
0s
0r
1y
0c
0i
#98388441
1t
0s
0r
1y
0c
0i
#98393852
0t
0s
0r
1y
0c
0i
#98394055
1t
0s
0r
1y
0c
0i
#98394356
0t
0s
0r
1y
0c
0i
#98394562
1t
0s
0r
1y
0c
0i
#98394860
0t
0s
0r
1y
0c
0i
#98395323
1t
0s
0r
1y
0c
0i
#98395369
0t
0s
0r
1y
0c
0i
#98398605
1t
0s
0r
1y
0c
0i
#98398833
0t
0s
0r
1y
0c
0i
#98399827
1t
0s
0r
1y
0c
0i
#98399917
0t
0s
0r
1y
0c
0i
#98400121
1t
0s
0r
1y
0c
0i
#98400424
0t
0s
0r
1y
0c
0i
#98400623
1t
0s
0r
1y
0c
0i
#98400927
0t
0s
0r
1y
0c
0i
#98400980
1t
0s
0r
1y
0c
0i
#98401432
0t
0s
0r
1y
0c
0i
#98401527
1t
0s
0r
1y
0c
0i
#98409114
0t
0s
0r
1y
0c
0i
#98409212
1t
0s
0r
1y
0c
0i
#98409337
0t
0s
0r
1y
0c
0i
#98409716
1t
0s
0r
1y
0c
0i
#98409744
0t
0s
0r
1y
0c
0i
#98410727
1t
0s
0r
1y
0c
0i
#98410744
0t
0s
0r
1y
0c
0i
#98414906
1t
0s
0r
1y
0c
0i
#98422430
0t
0s
0r
1y
0c
0i
#98426981
1t
0s
0r
1y
0c
0i
#98433553
0t
0s
0r
1y
0c
0i
#98437637
1t
0s
0r
1y
0c
0i
#98443412
0t
0s
0r
1y
0c
0i
#98447661
1t
0s
0r
1y
0c
0i
#98452916
0t
0s
0r
1y
0c
0i
#98456882
1t
0s
0r
1y
0c
0i
#98461820
0t
0s
0r
1y
0c
0i
#98465677
1t
0s
0r
1y
0c
0i
#98470373
0t
0s
0r
1y
0c
0i
#98474177
1t
0s
0r
1y
0c
0i
#98478662
0t
0s
0r
1y
0c
0i
#98482381
1t
0s
0r
1y
0c
0i
#98486729
0t
0s
0r
1y
0c
0i
#98490409
1t
0s
0r
1y
0c
0i
#98494647
0t
0s
0r
1y
0c
0i
#98498296
1t
0s
0r
1y
0c
0i
#98502472
0t
0s
0r
1y
0c
0i
#98506105
1t
0s
0r
1y
0c
0i
#98510219
0t
0s
0r
1y
0c
0i
#98513816
1t
0s
0r
1y
0c
0i
#98517911
0t
0s
0r
1y
0c
0i
#98521514
1t
0s
0r
1y
0c
0i
#98525554
0t
0s
0r
1y
0c
0i
#98529126
1t
0s
0r
1y
0c
0i
#98533084
0t
0s
0r
1y
0c
0i
#98536592
1t
0s
0r
1y
0c
0i
#98540424
0t
0s
0r
1y
0c
0i
#98543844
1t
0s
0r
1y
0c
0i
#98547536
0t
0s
0r
1y
0c
0i
#98550832
1t
0s
0r
1y
0c
0i
#98554358
0t
0s
0r
1y
0c
0i
#98557507
1t
0s
0r
1y
0c
0i
#98560822
0t
0s
0r
1y
0c
0i
#98563785
1t
0s
0r
1y
0c
0i
#98566921
0t
0s
0r
1y
0c
0i
#98569726
1t
0s
0r
1y
0c
0i
#98572709
0t
0s
0r
1y
0c
0i
#98575412
1t
0s
0r
1y
0c
1i
#98578282
0t
0s
0r
1y
0c
1i
#98580905
1t
0s
0r
1y
0c
1i
#98583725
0t
0s
0r
1y
0c
1i
#98586335
1t
0s
0r
1y
0c
1i
#98589069
0t
0s
0r
1y
0c
0i
#98591714
1t
0s
0r
1y
0c
0i
#98594458
0t
0s
0r
1y
0c
0i
#98597111
1t
0s
0r
1y
0c
0i
#98599900
0t
0s
0r
1y
0c
0i
#98602590
1t
0s
0r
1y
0c
0i
#98605444
0t
0s
0r
1y
0c
0i
#98608195
1t
0s
0r
1y
0c
0i
#98611157
0t
0s
0r
1y
0c
0i
#98613997
1t
0s
0r
1y
0c
0i
#98617090
0t
0s
0r
1y
0c
0i
#98619979
1t
0s
0r
1y
0c
0i
#98622915
0t
0s
0r
1y
0c
0i
#98625520
1t
0s
0r
1y
0c
0i
#98628310
0t
0s
0r
1y
0c
0i
#98630897
1t
0s
0r
1y
0c
0i
#98633778
0t
0s
0r
1y
0c
0i
#98636358
1t
0s
0r
1y
1c
0i
#98639261
0t
0s
0r
1y
1c
0i
#98641853
1t
0s
0r
1y
1c
0i
#98644731
0t
0s
0r
1y
0c
0i
#98647330
1t
0s
0r
1y
0c
0i
#98650244
0t
0s
0r
1y
0c
0i
#98652860
1t
0s
0r
1y
0c
0i
#98655791
0t
0s
0r
1y
0c
0i
#98658377
1t
0s
0r
1y
0c
0i
#98661305
0t
0s
0r
1y
0c
0i
#98663908
1t
0s
0r
1y
0c
0i
#98666902
0t
0s
0r
1y
0c
0i
#98669543
1t
0s
0r
1y
0c
0i
#98672563
0t
0s
0r
1y
0c
0i
#98675220
1t
0s
0r
1y
0c
0i
#98678287
0t
0s
0r
1y
0c
0i
#98680979
1t
0s
0r
1y
0c
0i
#98684094
0t
0s
0r
1y
0c
0i
#98686804
1t
0s
0r
1y
0c
0i
#98689968
0t
0s
0r
1y
0c
0i
#98692741
1t
0s
0r
1y
0c
0i
#98695990
0t
0s
0r
1y
0c
0i
#98698818
1t
0s
0r
1y
0c
0i
#98702082
0t
0s
0r
1y
0c
0i
#98704926
1t
0s
0r
1y
0c
0i
#98708207
0t
0s
0r
1y
0c
0i
#98711052
1t
0s
0r
1y
0c
0i
#98714299
0t
0s
0r
0y
0c
0i
#98717093
1t
0s
0r
0y
0c
0i
#98720259
0t
0s
0r
0y
0c
0i
#98722966
1t
0s
0r
0y
0c
0i
#98725989
0t
0s
0r
0y
0c
0i
#98728530
1t
0s
0r
0y
0c
0i
#98731365
0t
0s
0r
0y
0c
0i
#98733727
1t
0s
0r
0y
0c
0i
#98735621
1t
1s
0r
0y
0c
0i
#98735621
1t
0s
0r
0y
0c
0i
#98736330
0t
0s
0r
0y
0c
0i
#98738551
1t
0s
0r
0y
0c
0i
#98740987
0t
0s
0r
0y
0c
0i
#98743109
1t
0s
0r
0y
0c
0i
#98745414
0t
0s
0r
0y
0c
0i
#98747464
1t
0s
0r
0y
0c
0i
#98749667
0t
0s
0r
0y
0c
0i
#98751688
1t
0s
0r
0y
0c
0i
#98753741
0t
0s
0r
0y
0c
0i
#98763918
1t
0s
0r
0y
0c
0i
#98766130
0t
0s
0r
1y
0c
0i
#98768000
1t
0s
0r
1y
0c
0i
#98770196
0t
0s
0r
1y
0c
0i
#98772089
1t
0s
0r
1y
0c
0i
#98774338
0t
0s
0r
1y
0c
0i
#98776243
1t
0s
0r
1y
0c
0i
#98778556
0t
0s
0r
1y
0c
0i
#98780487
1t
0s
0r
1y
0c
0i
#98782846
0t
0s
0r
1y
0c
0i
#98784843
1t
0s
0r
1y
0c
0i
#98787256
0t
0s
0r
1y
0c
0i
#98789325
1t
0s
0r
1y
0c
0i
#98791820
0t
0s
0r
1y
0c
0i
#98793976
1t
0s
0r
1y
0c
0i
#98796568
0t
0s
0r
1y
0c
0i
#98798849
1t
0s
0r
1y
0c
0i
#98801572
0t
0s
0r
1y
0c
0i
#98804001
1t
0s
0r
1y
0c
0i
#98806908
0t
0s
0r
1y
0c
0i
#98809514
1t
0s
0r
1y
0c
0i
#98812408
0t
0s
0r
1y
0c
0i
#98814831
1t
0s
0r
1y
0c
0i
#98817496
0t
0s
0r
1y
0c
0i
#98819854
1t
0s
0r
1y
0c
0i
#98822528
0t
0s
0r
1y
0c
0i
#98824966
1t
0s
0r
1y
0c
0i
#98827720
0t
0s
0r
1y
0c
0i
#98830181
1t
0s
0r
1y
0c
0i
#98832936
0t
0s
0r
1y
0c
0i
#98835464
1t
0s
0r
1y
0c
0i
#98838319
0t
0s
0r
1y
0c
0i
#98840907
1t
0s
0r
1y
0c
0i
#98843781
0t
0s
0r
1y
0c
0i
#98846360
1t
0s
0r
1y
0c
0i
#98849246
0t
0s
0r
1y
0c
0i
#98851872
1t
0s
0r
1y
0c
0i
#98854787
0t
0s
0r
1y
0c
0i
#98857418
1t
0s
0r
1y
0c
0i
#98860303
0t
0s
0r
1y
0c
0i
#98862928
1t
0s
0r
1y
0c
0i
#98865768
0t
0s
0r
1y
0c
0i
#98868353
1t
0s
0r
1y
0c
0i
#98871099
0t
0s
0r
1y
0c
0i
#98873553
1t
0s
0r
1y
0c
0i
#98876139
0t
0s
0r
1y
0c
0i
#98878436
1t
0s
0r
1y
0c
0i
#98880863
0t
0s
0r
1y
0c
0i
#98883029
1t
0s
0r
1y
0c
0i
#98885323
0t
0s
0r
1y
0c
0i
#98887398
1t
0s
0r
1y
0c
0i
#98889600
0t
0s
0r
1y
0c
0i
#98891594
1t
0s
0r
1y
0c
0i
#98893739
0t
0s
0r
1y
0c
0i
#98895700
1t
0s
0r
1y
0c
0i
#98897746
0t
0s
0r
1y
0c
0i
#98899705
1t
0s
0r
1y
0c
0i
#98901723
0t
0s
0r
1y
0c
0i
#98903665
1t
0s
0r
1y
0c
0i
#98905677
0t
0s
0r
1y
0c
0i
#98907614
1t
0s
0r
1y
0c
0i
#98909631
0t
0s
0r
1y
0c
0i
#98911570
1t
0s
0r
1y
0c
0i
#98913614
0t
0s
0r
1y
0c
0i
#98915559
1t
0s
0r
1y
0c
0i
#98917638
0t
0s
0r
1y
0c
0i
#98919612
1t
0s
0r
1y
0c
0i
#98921726
0t
0s
0r
1y
0c
0i
#98923710
1t
0s
0r
1y
0c
1i
#98925886
0t
0s
0r
1y
0c
1i
#98927919
1t
0s
0r
1y
0c
1i
#98930173
0t
0s
0r
1y
0c
1i
#98932211
1t
0s
0r
1y
0c
1i
#98934528
0t
0s
0r
1y
0c
0i
#98936674
1t
0s
0r
1y
0c
0i
#98939074
0t
0s
0r
1y
0c
0i
#98941306
1t
0s
0r
1y
0c
0i
#98943829
0t
0s
0r
1y
0c
0i
#98946160
1t
0s
0r
1y
0c
0i
#98948849
0t
0s
0r
1y
0c
0i
#98951316
1t
0s
0r
1y
0c
0i
#98954152
0t
0s
0r
1y
0c
0i
#98956604
1t
0s
0r
1y
0c
0i
#98959242
0t
0s
0r
1y
0c
0i
#98961511
1t
0s
0r
1y
0c
0i
#98964046
0t
0s
0r
1y
0c
0i
#98966320
1t
0s
0r
1y
0c
0i
#98968972
0t
0s
0r
1y
0c
0i
#98971335
1t
0s
0r
1y
0c
0i
#98974035
0t
0s
0r
1y
0c
0i
#98976371
1t
0s
0r
1y
0c
0i
#98979067
0t
0s
0r
1y
1c
0i
#98981453
1t
0s
0r
1y
1c
0i
#98984258
0t
0s
0r
1y
0c
0i
#98986714
1t
0s
0r
1y
0c
0i
#98989509
0t
0s
0r
1y
0c
0i
#98991937
1t
0s
0r
1y
0c
0i
#98994725
0t
0s
0r
1y
0c
0i
#98997176
1t
0s
0r
1y
0c
0i
#98999993
0t
0s
0r
1y
0c
0i
#99002439
1t
0s
0r
1y
0c
0i
#99005216
0t
0s
0r
1y
0c
0i
#99007607
1t
0s
0r
1y
0c
0i
#99010296
0t
0s
0r
1y
0c
0i
#99012588
1t
0s
0r
1y
0c
0i
#99015171
0t
0s
0r
1y
0c
0i
#99017340
1t
0s
0r
1y
0c
0i
#99019767
0t
0s
0r
1y
0c
0i
#99021837
1t
0s
0r
1y
0c
0i
#99024136
0t
0s
0r
1y
0c
0i
#99026139
1t
0s
0r
1y
0c
0i
#99028339
0t
0s
0r
1y
0c
0i
#99030288
1t
0s
0r
1y
0c
0i
#99032412
0t
0s
0r
1y
0c
0i
#99034352
1t
0s
0r
1y
0c
0i
#99036342
0t
0s
0r
1y
0c
0i
#99046247
1t
0s
0r
1y
0c
0i
#99048410
0t
0s
0r
1y
0c
0i
#99050240
1t
0s
0r
1y
0c
0i
#99052398
0t
0s
0r
1y
0c
0i
#99054255
1t
0s
0r
1y
0c
0i
#99056463
0t
0s
0r
1y
0c
0i
#99058339
1t
0s
0r
1y
0c
0i
#99060617
0t
0s
0r
1y
0c
1i
#99062521
1t
0s
0r
1y
0c
1i
#99064848
0t
0s
0r
1y
0c
1i
#99066816
1t
0s
0r
1y
0c
1i
#99069196
0t
0s
0r
1y
0c
1i
#99071239
1t
0s
0r
1y
0c
1i
#99073705
0t
0s
0r
1y
0c
0i
#99075837
1t
0s
0r
1y
0c
0i
#99078399
0t
0s
0r
1y
0c
0i
#99080654
1t
0s
0r
1y
0c
0i
#99083350
0t
0s
0r
1y
0c
0i
#99085735
1t
0s
0r
1y
0c
0i
#99088518
0t
0s
0r
1y
0c
0i
#99090836
1t
0s
0r
1y
0c
0i
#99093392
0t
0s
0r
1y
0c
0i
#99095618
1t
0s
0r
1y
0c
0i
#99098149
0t
0s
0r
1y
0c
0i
#99100441
1t
0s
0r
1y
0c
0i
#99103036
0t
0s
0r
1y
0c
0i
#99105357
1t
0s
0r
1y
0c
0i
#99107947
0t
0s
0r
1y
0c
0i
#99110285
1t
0s
0r
1y
0c
0i
#99112924
0t
0s
0r
1y
0c
0i
#99115346
1t
0s
0r
1y
1c
0i
#99118066
0t
0s
0r
1y
1c
0i
#99120510
1t
0s
0r
1y
1c
0i
#99123243
0t
0s
0r
1y
0c
0i
#99125713
1t
0s
0r
1y
0c
0i
#99128486
0t
0s
0r
1y
0c
0i
#99131009
1t
0s
0r
1y
0c
0i
#99133797
0t
0s
0r
1y
0c
0i
#99136322
1t
0s
0r
1y
0c
0i
#99139087
0t
0s
0r
1y
0c
0i
#99141606
1t
0s
0r
1y
0c
0i
#99144329
0t
0s
0r
1y
0c
0i
#99146813
1t
0s
0r
1y
0c
0i
#99149442
0t
0s
0r
1y
0c
0i
#99151806
1t
0s
0r
1y
0c
0i
#99154288
0t
0s
0r
1y
0c
0i
#99156510
1t
0s
0r
1y
0c
0i
#99158836
0t
0s
0r
1y
0c
0i
#99160942
1t
0s
0r
1y
0c
0i
#99163148
0t
0s
0r
1y
0c
0i
#99165159
1t
0s
0r
1y
0c
0i
#99167278
0t
0s
0r
1y
0c
0i
#99169216
1t
0s
0r
1y
0c
0i
#99171280
0t
0s
0r
1y
0c
0i
#99173182
1t
0s
0r
1y
0c
0i
#99175157
0t
0s
0r
1y
0c
0i
#99177063
1t
0s
0r
1y
0c
0i
#99179011
0t
0s
0r
1y
0c
0i
#99180891
1t
0s
0r
1y
0c
0i
#99182836
0t
0s
0r
1y
0c
0i
#99184712
1t
0s
0r
1y
0c
0i
#99186663
0t
0s
0r
1y
0c
0i
#99188542
1t
0s
0r
1y
0c
0i
#99190518
0t
0s
0r
1y
0c
0i
#99192405
1t
0s
0r
1y
0c
0i
#99194410
0t
0s
0r
1y
0c
0i
#99196319
1t
0s
0r
1y
0c
0i
#99198357
0t
0s
0r
1y
0c
1i
#99200277
1t
0s
0r
1y
0c
1i
#99202375
0t
0s
0r
1y
0c
1i
#99204337
1t
0s
0r
1y
0c
1i
#99206511
0t
0s
0r
1y
0c
1i
#99208475
1t
0s
0r
1y
0c
1i
#99210706
0t
0s
0r
1y
0c
0i
#99212768
1t
0s
0r
1y
0c
0i
#99215081
0t
0s
0r
1y
0c
0i
#99217222
1t
0s
0r
1y
0c
0i
#99219647
0t
0s
0r
1y
0c
0i
#99221879
1t
0s
0r
1y
0c
0i
#99224455
0t
0s
0r
1y
0c
0i
#99226819
1t
0s
0r
1y
0c
0i
#99229565
0t
0s
0r
1y
0c
0i
#99232016
1t
0s
0r
1y
0c
0i
#99234686
0t
0s
0r
1y
0c
0i
#99236945
1t
0s
0r
1y
0c
0i
#99239455
0t
0s
0r
1y
0c
0i
#99241668
1t
0s
0r
1y
0c
0i
#99244241
0t
0s
0r
1y
0c
0i
#99246551
1t
0s
0r
1y
0c
0i
#99249229
0t
0s
0r
1y
0c
0i
#99251540
1t
0s
0r
1y
1c
0i
#99254196
0t
0s
0r
1y
1c
0i
#99256522
1t
0s
0r
1y
1c
0i
#99259278
0t
0s
0r
1y
0c
0i
#99261697
1t
0s
0r
1y
0c
0i
#99264485
0t
0s
0r
1y
0c
0i
#99266887
1t
0s
0r
1y
0c
0i
#99269637
0t
0s
0r
1y
0c
0i
#99272031
1t
0s
0r
1y
0c
0i
#99274787
0t
0s
0r
1y
0c
0i
#99277179
1t
0s
0r
1y
0c
0i
#99279917
0t
0s
0r
1y
0c
0i
#99282267
1t
0s
0r
1y
0c
0i
#99284914
0t
0s
0r
1y
0c
0i
#99287164
1t
0s
0r
1y
0c
0i
#99289706
0t
0s
0r
1y
0c
0i
#99291843
1t
0s
0r
1y
0c
0i
#99293601
1t
1s
0r
1y
0c
0i
#99293601
1t
0s
0r
1y
0c
0i
#99294235
0t
0s
0r
1y
0c
0i
#99296279
1t
0s
0r
1y
0c
0i
#99298552
0t
0s
0r
1y
0c
0i
#99300529
1t
0s
0r
1y
0c
0i
#99302698
0t
0s
0r
1y
0c
0i
#99304623
1t
0s
0r
1y
0c
0i
#99306715
0t
0s
0r
1y
0c
0i
#99308628
1t
0s
0r
1y
0c
0i
#99310584
0t
0s
0r
1y
0c
0i
#99320329
1t
0s
0r
1y
0c
0i
#99322456
0t
0s
0r
1y
0c
0i
#99324252
1t
0s
0r
1y
0c
0i
#99326364
0t
0s
0r
1y
0c
0i
#99328184
1t
0s
0r
1y
0c
0i
#99330349
0t
0s
0r
1y
0c
0i
#99332178
1t
0s
0r
1y
0c
0i
#99334403
0t
0s
0r
1y
0c
0i
#99336260
1t
0s
0r
1y
0c
0i
#99338532
0t
0s
0r
1y
0c
0i
#99340449
1t
0s
0r
1y
0c
0i
#99342771
0t
0s
0r
1y
0c
0i
#99344758
1t
0s
0r
1y
0c
0i
#99347158
0t
0s
0r
1y
0c
0i
#99349226
1t
0s
0r
1y
0c
0i
#99351707
0t
0s
0r
1y
0c
0i
#99353884
1t
0s
0r
1y
0c
0i
#99356484
0t
0s
0r
1y
0c
0i
#99358791
1t
0s
0r
1y
0c
0i
#99361541
0t
0s
0r
1y
0c
0i
#99363963
1t
0s
0r
1y
0c
0i
#99366651
0t
0s
0r
1y
0c
0i
#99368900
1t
0s
0r
1y
0c
0i
#99371382
0t
0s
0r
1y
0c
0i
#99373610
1t
0s
0r
1y
0c
0i
#99376167
0t
0s
0r
1y
0c
0i
#99378491
1t
0s
0r
1y
0c
0i
#99381098
0t
0s
0r
1y
0c
0i
#99383410
1t
0s
0r
1y
0c
0i
#99386002
0t
0s
0r
1y
0c
0i
#99388373
1t
0s
0r
1y
0c
0i
#99391068
0t
0s
0r
1y
1c
0i
#99393510
1t
0s
0r
1y
1c
0i
#99396236
0t
0s
0r
1y
0c
0i
#99398678
1t
0s
0r
1y
0c
0i
#99401399
0t
0s
0r
1y
0c
0i
#99403873
1t
0s
0r
1y
0c
0i
#99406616
0t
0s
0r
1y
0c
0i
#99409117
1t
0s
0r
1y
0c
0i
#99411855
0t
0s
0r
1y
0c
0i
#99414344
1t
0s
0r
1y
0c
0i
#99417025
0t
0s
0r
1y
0c
0i
#99419471
1t
0s
0r
1y
0c
0i
#99422073
0t
0s
0r
1y
0c
0i
#99424420
1t
0s
0r
1y
0c
0i
#99426892
0t
0s
0r
1y
0c
0i
#99429109
1t
0s
0r
1y
0c
0i
#99431449
0t
0s
0r
1y
0c
0i
#99433546
1t
0s
0r
1y
0c
0i
#99435776
0t
0s
0r
1y
0c
0i
#99437785
1t
0s
0r
1y
0c
0i
#99439925
0t
0s
0r
1y
0c
0i
#99441862
1t
0s
0r
1y
0c
0i
#99443952
0t
0s
0r
1y
0c
0i
#99445859
1t
0s
0r
1y
0c
0i
#99447858
0t
0s
0r
1y
0c
0i
#99449772
1t
0s
0r
1y
0c
0i
#99451748
0t
0s
0r
1y
0c
0i
#99453644
1t
0s
0r
1y
0c
0i
#99455613
0t
0s
0r
1y
0c
0i
#99457503
1t
0s
0r
1y
0c
0i
#99459481
0t
0s
0r
1y
0c
0i
#99461375
1t
0s
0r
1y
0c
0i
#99463369
0t
0s
0r
1y
0c
0i
#99465280
1t
0s
0r
1y
0c
0i
#99467308
0t
0s
0r
1y
0c
0i
#99469236
1t
0s
0r
1y
0c
0i
#99471301
0t
0s
0r
1y
0c
1i
#99473240
1t
0s
0r
1y
0c
1i
#99475369
0t
0s
0r
1y
0c
1i
#99477353
1t
0s
0r
1y
0c
1i
#99479554
0t
0s
0r
1y
0c
1i
#99481546
1t
0s
0r
1y
0c
0i
#99483807
0t
0s
0r
1y
0c
0i
#99485895
1t
0s
0r
1y
0c
0i
#99488234
0t
0s
0r
1y
0c
0i
#99490405
1t
0s
0r
1y
0c
0i
#99492855
0t
0s
0r
1y
0c
0i
#99495119
1t
0s
0r
1y
0c
0i
#99497729
0t
0s
0r
1y
0c
0i
#99500114
1t
0s
0r
1y
0c
0i
#99502876
0t
0s
0r
1y
0c
0i
#99505278
1t
0s
0r
1y
0c
0i
#99507846
0t
0s
0r
1y
0c
0i
#99510064
1t
0s
0r
1y
0c
0i
#99512588
0t
0s
0r
1y
0c
0i
#99514878
1t
0s
0r
1y
0c
0i
#99517534
0t
0s
0r
1y
0c
0i
#99519855
1t
0s
0r
1y
0c
0i
#99522469
0t
0s
0r
1y
0c
0i
#99524738
1t
0s
0r
1y
0c
0i
#99527395
0t
0s
0r
1y
1c
0i
#99529769
1t
0s
0r
1y
1c
0i
#99532539
0t
0s
0r
1y
0c
0i
#99534944
1t
0s
0r
1y
0c
0i
#99537680
0t
0s
0r
1y
0c
0i
#99540070
1t
0s
0r
1y
0c
0i
#99542832
0t
0s
0r
1y
0c
0i
#99545255
1t
0s
0r
1y
0c
0i
#99548028
0t
0s
0r
1y
0c
0i
#99550424
1t
0s
0r
1y
0c
0i
#99553151
0t
0s
0r
1y
0c
0i
#99555496
1t
0s
0r
1y
0c
0i
#99558142
0t
0s
0r
1y
0c
0i
#99560390
1t
0s
0r
1y
0c
0i
#99562931
0t
0s
0r
1y
0c
0i
#99565066
1t
0s
0r
1y
0c
0i
#99567452
0t
0s
0r
1y
0c
0i
#99569493
1t
0s
0r
1y
0c
0i
#99571760
0t
0s
0r
1y
0c
0i
#99573735
1t
0s
0r
1y
0c
0i
#99575904
0t
0s
0r
1y
0c
0i
#99577831
1t
0s
0r
1y
0c
0i
#99579923
0t
0s
0r
1y
0c
0i
#99581840
1t
0s
0r
1y
0c
0i
#99583799
0t
0s
0r
1y
0c
0i
#99593570
1t
0s
0r
1y
0c
0i
#99595701
0t
0s
0r
1y
0c
0i
#99597503
1t
0s
0r
1y
0c
0i
#99599624
0t
0s
0r
1y
0c
0i
#99601451
1t
0s
0r
1y
0c
0i
#99603622
0t
0s
0r
1y
0c
0i
#99605465
1t
0s
0r
1y
0c
0i
#99607702
0t
0s
0r
1y
0c
0i
#99609569
1t
0s
0r
1y
0c
1i
#99611855
0t
0s
0r
1y
0c
1i
#99613782
1t
0s
0r
1y
0c
1i
#99616124
0t
0s
0r
1y
0c
1i
#99618123
1t
0s
0r
1y
0c
0i
#99620540
0t
0s
0r
1y
0c
0i
#99622623
1t
0s
0r
1y
0c
0i
#99625130
0t
0s
0r
1y
0c
0i
#99627332
1t
0s
0r
1y
0c
0i
#99629963
0t
0s
0r
1y
0c
0i
#99632297
1t
0s
0r
1y
0c
0i
#99635082
0t
0s
0r
1y
0c
0i
#99637500
1t
0s
0r
1y
0c
0i
#99640170
0t
0s
0r
1y
0c
0i
#99642456
1t
0s
0r
1y
0c
0i
#99644965
0t
0s
0r
1y
0c
0i
#99647186
1t
0s
0r
1y
0c
0i
#99649722
0t
0s
0r
1y
0c
0i
#99652043
1t
0s
0r
1y
0c
0i
#99654683
0t
0s
0r
1y
0c
0i
#99657046
1t
0s
0r
1y
0c
0i
#99659666
0t
0s
0r
1y
0c
0i
#99662036
1t
0s
0r
1y
1c
0i
#99664727
0t
0s
0r
1y
1c
0i
#99667188
1t
0s
0r
1y
1c
0i
#99669967
0t
0s
0r
1y
0c
0i
#99672457
1t
0s
0r
1y
0c
0i
#99675217
0t
0s
0r
1y
0c
0i
#99677718
1t
0s
0r
1y
0c
0i
#99680491
0t
0s
0r
1y
0c
0i
#99683024
1t
0s
0r
1y
0c
0i
#99685799
0t
0s
0r
1y
0c
0i
#99688323
1t
0s
0r
1y
0c
0i
#99691033
0t
0s
0r
1y
0c
0i
#99693512
1t
0s
0r
1y
0c
0i
#99696126
0t
0s
0r
1y
0c
0i
#99698496
1t
0s
0r
1y
0c
0i
#99700967
0t
0s
0r
1y
0c
0i
#99703198
1t
0s
0r
1y
0c
0i
#99705529
0t
0s
0r
1y
0c
0i
#99707636
1t
0s
0r
1y
0c
0i
#99709845
0t
0s
0r
1y
0c
0i
#99711858
1t
0s
0r
1y
0c
0i
#99713976
0t
0s
0r
1y
0c
0i
#99715914
1t
0s
0r
1y
0c
0i
#99717978
0t
0s
0r
1y
0c
0i
#99719881
1t
0s
0r
1y
0c
0i
#99721857
0t
0s
0r
1y
0c
0i
#99723765
1t
0s
0r
1y
0c
0i
#99725715
0t
0s
0r
1y
0c
0i
#99727605
1t
0s
0r
1y
0c
0i
#99729551
0t
0s
0r
1y
0c
0i
#99731433
1t
0s
0r
1y
0c
0i
#99733387
0t
0s
0r
1y
0c
0i
#99735270
1t
0s
0r
1y
0c
0i
#99737249
0t
0s
0r
1y
0c
0i
#99739137
1t
0s
0r
1y
0c
0i
#99741145
0t
0s
0r
1y
0c
0i
#99743059
1t
0s
0r
1y
0c
0i
#99745103
0t
0s
0r
1y
0c
1i
#99747025
1t
0s
0r
1y
0c
1i
#99749134
0t
0s
0r
1y
0c
1i
#99751104
1t
0s
0r
1y
0c
1i
#99753287
0t
0s
0r
1y
0c
1i
#99755262
1t
0s
0r
1y
0c
0i
#99757500
0t
0s
0r
1y
0c
0i
#99759570
1t
0s
0r
1y
0c
0i
#99761895
0t
0s
0r
1y
0c
0i
#99764044
1t
0s
0r
1y
0c
0i
#99766477
0t
0s
0r
1y
0c
0i
#99768722
1t
0s
0r
1y
0c
0i
#99771310
0t
0s
0r
1y
0c
0i
#99773684
1t
0s
0r
1y
0c
0i
#99776448
0t
0s
0r
1y
0c
0i
#99778942
1t
0s
0r
1y
0c
0i
#99781697
0t
0s
0r
1y
0c
0i
#99784021
1t
0s
0r
1y
0c
0i
#99786523
0t
0s
0r
1y
0c
0i
#99788708
1t
0s
0r
1y
0c
0i
#99791256
0t
0s
0r
1y
0c
0i
#99793578
1t
0s
0r
1y
0c
0i
#99796319
0t
0s
0r
1y
0c
0i
#99798688
1t
0s
0r
1y
0c
0i
#99801377
0t
0s
0r
1y
1c
0i
#99803699
1t
0s
0r
1y
1c
0i
#99806450
0t
0s
0r
1y
0c
0i
#99808891
1t
0s
0r
1y
0c
0i
#99811738
0t
0s
0r
1y
0c
0i
#99814182
1t
0s
0r
1y
0c
0i
#99816938
0t
0s
0r
1y
0c
0i
#99819341
1t
0s
0r
1y
0c
0i
#99822111
0t
0s
0r
1y
0c
0i
#99824526
1t
0s
0r
1y
0c
0i
#99827305
0t
0s
0r
1y
0c
0i
#99829691
1t
0s
0r
1y
0c
0i
#99832372
0t
0s
0r
1y
0c
0i
#99834656
1t
0s
0r
1y
0c
0i
#99837236
0t
0s
0r
1y
0c
0i
#99839400
1t
0s
0r
1y
0c
0i
#99841203
1t
1s
0r
1y
0c
0i
#99841203
1t
0s
0r
1y
0c
0i
#99841823
0t
0s
0r
1y
0c
0i
#99843894
1t
0s
0r
1y
0c
0i
#99846195
0t
0s
0r
1y
0c
0i
#99848189
1t
0s
0r
1y
0c
0i
#99850389
0t
0s
0r
1y
0c
0i
#99852332
1t
0s
0r
1y
0c
0i
#99854449
0t
0s
0r
1y
0c
0i
#99856385
1t
0s
0r
1y
0c
0i
#99858363
0t
0s
0r
1y
0c
0i
#99868227
1t
0s
0r
1y
0c
0i
#99870383
0t
0s
0r
1y
0c
0i
#99872200
1t
0s
0r
1y
0c
0i
#99874341
0t
0s
0r
1y
0c
0i
#99876183
1t
0s
0r
1y
0c
0i
#99878374
0t
0s
0r
1y
0c
0i
