rusefi_bundle_mega100/rusefi.snapshot.mega100/console/logs/rusEFI_trigger_log_2024-11-11_00_20_51_891.vcd
$date
	Mon Nov 11 00:20:51 CET 2024
$end
$version
        1.0
$end
$timescale
        1ps
$end
$scope module test $end
$var wire 1 t PRI_TRG $end
$var wire 1 s SEC_TRG $end
$var wire 1 r TRG $end
$var wire 1 y SYNC $end
$var wire 1 c COIL $end
$var wire 1 i INJ $end
$upscope $end
$enddefinitions $end
$dumpvars
#244035916
1t
0s
0r
1y
0c
0i
#244036475
0t
0s
0r
1y
0c
0i
#244037079
1t
0s
0r
1y
0c
0i
#244037637
0t
0s
0r
1y
0c
0i
#244038243
1t
0s
0r
1y
0c
0i
#244038799
0t
0s
0r
1y
0c
0i
#244039402
1t
0s
0r
1y
0c
0i
#244039962
0t
0s
0r
1y
0c
0i
#244040566
1t
0s
0r
1y
0c
0i
#244041122
0t
0s
0r
1y
0c
0i
#244041727
1t
0s
0r
1y
0c
0i
#244042286
0t
0s
0r
1y
0c
0i
#244042891
1t
0s
0r
1y
0c
0i
#244043454
0t
0s
0r
1y
0c
0i
#244044055
1t
0s
0r
1y
0c
0i
#244044620
0t
0s
0r
1y
1c
0i
#244045226
1t
0s
0r
1y
1c
0i
#244045792
0t
0s
0r
1y
1c
0i
#244046399
1t
0s
0r
1y
1c
1i
#244046965
0t
0s
0r
1y
1c
1i
#244047573
1t
0s
0r
1y
0c
1i
#244048140
0t
0s
0r
1y
0c
1i
#244048749
1t
0s
0r
1y
0c
0i
#244049317
0t
0s
0r
1y
0c
0i
#244049928
1t
0s
0r
1y
0c
0i
#244050494
0t
0s
0r
1y
0c
0i
#244051104
1t
0s
0r
1y
0c
0i
#244051670
0t
0s
0r
1y
0c
0i
#244052278
1t
0s
0r
1y
0c
0i
#244052844
0t
0s
0r
1y
0c
0i
#244053452
1t
0s
0r
1y
0c
0i
#244054018
0t
0s
0r
1y
0c
0i
#244054623
1t
0s
0r
1y
0c
0i
#244055190
0t
0s
0r
1y
0c
0i
#244055791
1t
0s
0r
1y
0c
0i
#244056355
0t
0s
0r
1y
0c
0i
#244056955
1t
0s
0r
1y
0c
0i
#244057513
0t
0s
0r
1y
0c
0i
#244058109
1t
0s
0r
1y
0c
0i
#244058668
0t
0s
0r
1y
0c
0i
#244059263
1t
0s
0r
1y
0c
0i
#244059816
0t
0s
0r
1y
0c
0i
#244060413
1t
0s
0r
1y
0c
0i
#244060966
0t
0s
0r
1y
0c
0i
#244061558
1t
0s
0r
1y
0c
0i
#244062112
0t
0s
0r
1y
0c
0i
#244062704
1t
0s
0r
1y
0c
0i
#244063262
0t
0s
0r
1y
0c
0i
#244063859
1t
0s
0r
1y
0c
0i
#244064414
0t
0s
0r
1y
0c
0i
#244065008
1t
0s
0r
1y
0c
0i
#244065566
0t
0s
0r
1y
0c
0i
#244066159
1t
0s
0r
1y
0c
0i
#244066717
0t
0s
0r
1y
0c
0i
#244067313
1t
0s
0r
1y
0c
0i
#244067874
0t
0s
0r
1y
1c
0i
#244068473
1t
0s
0r
1y
1c
0i
#244069032
0t
0s
0r
1y
1c
0i
#244069630
1t
0s
0r
1y
1c
1i
#244070190
0t
0s
0r
1y
1c
1i
#244070792
1t
0s
0r
1y
0c
1i
#244071353
0t
0s
0r
1y
0c
1i
#244071952
1t
0s
0r
1y
0c
0i
#244072516
0t
0s
0r
1y
0c
0i
#244073115
1t
0s
0r
1y
0c
0i
#244073679
0t
0s
0r
1y
0c
0i
#244074276
1t
0s
0r
1y
0c
0i
#244074840
0t
0s
0r
1y
0c
0i
#244075439
1t
0s
0r
1y
0c
0i
#244075998
0t
0s
0r
1y
0c
0i
#244076598
1t
0s
0r
1y
0c
0i
#244077159
0t
0s
0r
1y
0c
0i
#244077758
1t
0s
0r
1y
0c
0i
#244078318
0t
0s
0r
1y
0c
0i
#244078918
1t
0s
0r
1y
0c
0i
#244079478
0t
0s
0r
1y
0c
0i
#244080077
1t
0s
0r
1y
0c
0i
#244080636
0t
0s
0r
1y
0c
0i
#244081234
1t
0s
0r
1y
0c
0i
#244081795
0t
0s
0r
1y
0c
0i
#244082395
1t
0s
0r
1y
0c
0i
#244082955
0t
0s
0r
1y
0c
0i
#244083555
1t
0s
0r
1y
0c
0i
#244084113
0t
0s
0r
1y
0c
0i
#244084714
1t
0s
0r
1y
0c
0i
#244085273
0t
0s
0r
1y
0c
0i
#244085871
1t
0s
0r
1y
0c
0i
#244086428
0t
0s
0r
1y
0c
0i
#244087028
1t
0s
0r
1y
0c
0i
#244087587
0t
0s
0r
1y
0c
0i
#244088189
1t
0s
0r
1y
0c
0i
#244088745
0t
0s
0r
1y
0c
0i
#244089347
1t
0s
0r
1y
0c
0i
#244089902
0t
0s
0r
1y
0c
0i
#244090508
1t
0s
0r
1y
0c
0i
#244091068
0t
0s
0r
1y
1c
0i
#244091673
1t
0s
0r
1y
1c
0i
#244092233
0t
0s
0r
1y
1c
0i
#244092838
1t
0s
0r
1y
1c
1i
#244093401
0t
0s
0r
1y
1c
1i
#244094011
1t
0s
0r
1y
0c
1i
#244094571
0t
0s
0r
1y
0c
1i
#244095179
1t
0s
0r
1y
0c
0i
#244095742
0t
0s
0r
1y
0c
0i
#244096349
1t
0s
0r
1y
0c
0i
#244096912
0t
0s
0r
1y
0c
0i
#244097521
1t
0s
0r
1y
0c
0i
#244098078
0t
0s
0r
1y
0c
0i
#244098687
1t
0s
0r
1y
0c
0i
#244101199
0t
0s
0r
1y
0c
0i
#244102195
1t
0s
0r
1y
0c
0i
#244102756
0t
0s
0r
1y
0c
0i
#244103362
1t
0s
0r
1y
0c
0i
#244103921
0t
0s
0r
1y
0c
0i
#244104522
1t
0s
0r
1y
0c
0i
#244105081
0t
0s
0r
1y
0c
0i
#244105681
1t
0s
0r
1y
0c
0i
#244106239
0t
0s
0r
1y
0c
0i
#244106838
1t
0s
0r
1y
0c
0i
#244107394
0t
0s
0r
1y
0c
0i
#244107993
1t
0s
0r
1y
0c
0i
#244108546
0t
0s
0r
1y
0c
0i
#244109142
1t
0s
0r
1y
0c
0i
#244109700
0t
0s
0r
1y
0c
0i
#244110299
1t
0s
0r
1y
0c
0i
#244110851
0t
0s
0r
1y
0c
0i
#244111453
1t
0s
0r
1y
0c
0i
#244112006
0t
0s
0r
1y
0c
0i
#244112606
1t
0s
0r
1y
0c
0i
#244113162
0t
0s
0r
1y
0c
0i
#244113763
1t
0s
0r
1y
0c
0i
#244114322
0t
0s
0r
1y
1c
0i
#244114923
1t
0s
0r
1y
1c
0i
#244115485
0t
0s
0r
1y
1c
0i
#244116085
1t
0s
0r
1y
1c
1i
#244116646
0t
0s
0r
1y
1c
1i
#244117251
1t
0s
0r
1y
0c
1i
#244117812
0t
0s
0r
1y
0c
1i
#244118419
1t
0s
0r
1y
0c
0i
#244118980
0t
0s
0r
1y
0c
0i
#244119584
1t
0s
0r
1y
0c
0i
#244120146
0t
0s
0r
1y
0c
0i
#244120749
1t
0s
0r
1y
0c
0i
#244121310
0t
0s
0r
1y
0c
0i
#244121914
1t
0s
0r
1y
0c
0i
#244122477
0t
0s
0r
1y
0c
0i
#244123079
1t
0s
0r
1y
0c
0i
#244123641
0t
0s
0r
1y
0c
0i
#244124244
1t
0s
0r
1y
0c
0i
#244124805
0t
0s
0r
1y
0c
0i
#244125408
1t
0s
0r
1y
0c
0i
#244125970
0t
0s
0r
1y
0c
0i
#244126572
1t
0s
0r
1y
0c
0i
#244127133
0t
0s
0r
1y
0c
0i
#244127733
1t
0s
0r
1y
0c
0i
#244128294
0t
0s
0r
1y
0c
0i
#244128895
1t
0s
0r
1y
0c
0i
#244129452
0t
0s
0r
1y
0c
0i
#244130052
1t
0s
0r
1y
0c
0i
#244130612
0t
0s
0r
1y
0c
0i
#244131210
1t
0s
0r
1y
0c
0i
#244131769
0t
0s
0r
1y
0c
0i
#244132368
1t
0s
0r
1y
0c
0i
#244132925
0t
0s
0r
1y
0c
0i
#244133523
1t
0s
0r
1y
0c
0i
#244134082
0t
0s
0r
1y
0c
0i
#244134680
1t
0s
0r
1y
0c
0i
#244135240
0t
0s
0r
1y
0c
0i
#244135837
1t
0s
0r
1y
0c
0i
#244136398
0t
0s
0r
1y
0c
0i
#244136997
1t
0s
0r
1y
0c
0i
#244137558
0t
0s
0r
1y
1c
0i
#244138160
1t
0s
0r
1y
1c
0i
#244138720
0t
0s
0r
1y
1c
0i
#244139322
1t
0s
0r
1y
1c
1i
#244139884
0t
0s
0r
1y
1c
1i
#244140486
1t
0s
0r
1y
0c
1i
#244141049
0t
0s
0r
1y
0c
1i
#244141654
1t
0s
0r
1y
0c
0i
#244142218
0t
0s
0r
1y
0c
0i
#244142817
1t
0s
0r
1y
0c
0i
#244143385
0t
0s
0r
1y
0c
0i
#244143987
1t
0s
0r
1y
0c
0i
#244144551
0t
0s
0r
1y
0c
0i
#244145151
1t
0s
0r
1y
0c
0i
#244145713
0t
0s
0r
1y
0c
0i
#244146316
1t
0s
0r
1y
0c
0i
#244146880
0t
0s
0r
1y
0c
0i
#244147481
1t
0s
0r
1y
0c
0i
#244148044
0t
0s
0r
1y
0c
0i
#244148645
1t
0s
0r
1y
0c
0i
#244148799
1t
1s
0r
1y
0c
0i
#244148799
1t
0s
0r
1y
0c
0i
#244149207
0t
0s
0r
1y
0c
0i
#244149809
1t
0s
0r
1y
0c
0i
#244150370
0t
0s
0r
1y
0c
0i
#244150972
1t
0s
0r
1y
0c
0i
#244151533
0t
0s
0r
1y
0c
0i
#244152136
1t
0s
0r
1y
0c
0i
#244152699
0t
0s
0r
1y
0c
0i
#244153306
1t
0s
0r
1y
0c
0i
#244153863
0t
0s
0r
1y
0c
0i
#244154466
1t
0s
0r
1y
0c
0i
#244155026
0t
0s
0r
1y
0c
0i
#244155629
1t
0s
0r
1y
0c
0i
#244156187
0t
0s
0r
1y
0c
0i
#244156791
1t
0s
0r
1y
0c
0i
#244157351
0t
0s
0r
1y
0c
0i
#244157954
1t
0s
0r
1y
0c
0i
#244158514
0t
0s
0r
1y
0c
0i
#244159121
1t
0s
0r
1y
0c
0i
#244159677
0t
0s
0r
1y
0c
0i
#244160284
1t
0s
0r
1y
0c
0i
#244160847
0t
0s
0r
1y
1c
0i
#244161454
1t
0s
0r
1y
1c
0i
#244162019
0t
0s
0r
1y
1c
0i
#244162624
1t
0s
0r
1y
1c
1i
#244163188
0t
0s
0r
1y
1c
1i
#244163798
1t
0s
0r
1y
0c
1i
#244164360
0t
0s
0r
1y
0c
1i
#244164972
1t
0s
0r
1y
0c
0i
#244165137
1t
0s
1r
1y
0c
0i
#244165139
1t
0s
0r
1y
0c
0i
#244165535
0t
0s
0r
1y
0c
0i
#244166144
1t
0s
0r
1y
0c
0i
#244166709
0t
0s
0r
1y
0c
0i
#244167317
1t
0s
0r
1y
0c
0i
#244167879
0t
0s
0r
1y
0c
0i
#244168492
1t
0s
0r
1y
0c
0i
#244171012
0t
0s
0r
1y
0c
0i
#244172020
1t
0s
0r
1y
0c
0i
#244172582
0t
0s
0r
1y
0c
0i
#244173195
1t
0s
0r
1y
0c
0i
#244173759
0t
0s
0r
1y
0c
0i
#244174367
1t
0s
0r
1y
0c
0i
#244174930
0t
0s
0r
1y
0c
0i
#244175540
1t
0s
0r
1y
0c
0i
#244176107
0t
0s
0r
1y
0c
0i
#244176717
1t
0s
0r
1y
0c
0i
#244177281
0t
0s
0r
1y
0c
0i
#244177891
1t
0s
0r
1y
0c
0i
#244178455
0t
0s
0r
1y
0c
0i
#244179064
1t
0s
0r
1y
0c
0i
#244179628
0t
0s
0r
1y
0c
0i
#244180237
1t
0s
0r
1y
0c
0i
#244180802
0t
0s
0r
1y
0c
0i
#244181412
1t
0s
0r
1y
0c
0i
#244181976
0t
0s
0r
1y
0c
0i
#244182585
1t
0s
0r
1y
0c
0i
#244183153
0t
0s
0r
1y
0c
0i
#244183762
1t
0s
0r
1y
0c
0i
#244184335
0t
0s
0r
1y
1c
0i
#244184946
1t
0s
0r
1y
1c
0i
#244185514
0t
0s
0r
1y
1c
0i
#244186131
1t
0s
0r
1y
1c
1i
#244186699
0t
0s
0r
1y
1c
1i
#244187316
1t
0s
0r
1y
0c
1i
#244187888
0t
0s
0r
1y
0c
1i
#244188505
1t
0s
0r
1y
0c
0i
#244189077
0t
0s
0r
1y
0c
0i
#244189695
1t
0s
0r
1y
0c
0i
#244190265
0t
0s
0r
1y
0c
0i
#244190881
1t
0s
0r
1y
0c
0i
#244191453
0t
0s
0r
1y
0c
0i
#244192068
1t
0s
0r
1y
0c
0i
#244192641
0t
0s
0r
1y
0c
0i
#244193259
1t
0s
0r
1y
0c
0i
#244193826
0t
0s
0r
1y
0c
0i
#244194445
1t
0s
0r
1y
0c
0i
#244195013
0t
0s
0r
1y
0c
0i
#244195628
1t
0s
0r
1y
0c
0i
#244196198
0t
0s
0r
1y
0c
0i
#244196811
1t
0s
0r
1y
0c
0i
#244197381
0t
0s
0r
1y
0c
0i
#244197992
1t
0s
0r
1y
0c
0i
#244198559
0t
0s
0r
1y
0c
0i
#244199172
1t
0s
0r
1y
0c
0i
#244199738
0t
0s
0r
1y
0c
0i
#244200347
1t
0s
0r
1y
0c
0i
#244200913
0t
0s
0r
1y
0c
0i
#244201520
1t
0s
0r
1y
0c
0i
#244202086
0t
0s
0r
1y
0c
0i
#244202691
1t
0s
0r
1y
0c
0i
#244203259
0t
0s
0r
1y
0c
0i
#244203866
1t
0s
0r
1y
0c
0i
#244204432
0t
0s
0r
1y
0c
0i
#244205040
1t
0s
0r
1y
0c
0i
#244205607
0t
0s
0r
1y
0c
0i
#244206213
1t
0s
0r
1y
0c
0i
#244206782
0t
0s
0r
1y
0c
0i
#244207388
1t
0s
0r
1y
0c
0i
#244207958
0t
0s
0r
1y
1c
0i
#244208570
1t
0s
0r
1y
1c
0i
#244209140
0t
0s
0r
1y
1c
0i
#244209749
1t
0s
0r
1y
1c
1i
#244210320
0t
0s
0r
1y
1c
1i
#244210933
1t
0s
0r
1y
0c
1i
#244211503
0t
0s
0r
1y
0c
1i
#244212114
1t
0s
0r
1y
0c
0i
#244212688
0t
0s
0r
1y
0c
0i
#244213298
1t
0s
0r
1y
0c
0i
#244213873
0t
0s
0r
1y
0c
0i
#244214482
1t
0s
0r
1y
0c
0i
#244215057
0t
0s
0r
1y
0c
0i
#244215666
1t
0s
0r
1y
0c
0i
#244216235
0t
0s
0r
1y
0c
0i
#244216844
1t
0s
0r
1y
0c
0i
#244217417
0t
0s
0r
1y
0c
0i
#244218024
1t
0s
0r
1y
0c
0i
#244218595
0t
0s
0r
1y
0c
0i
#244219205
1t
0s
0r
1y
0c
0i
#244219770
0t
0s
0r
1y
0c
0i
#244220376
1t
0s
0r
1y
0c
0i
#244220940
0t
0s
0r
1y
0c
0i
#244221543
1t
0s
0r
1y
0c
0i
#244222108
0t
0s
0r
1y
0c
0i
#244222711
1t
0s
0r
1y
0c
0i
#244223274
0t
0s
0r
1y
0c
0i
#244223877
1t
0s
0r
1y
0c
0i
#244224438
0t
0s
0r
1y
0c
0i
#244225042
1t
0s
0r
1y
0c
0i
#244225600
0t
0s
0r
1y
0c
0i
#244226202
1t
0s
0r
1y
0c
0i
#244226760
0t
0s
0r
1y
0c
0i
#244227364
1t
0s
0r
1y
0c
0i
#244227925
0t
0s
0r
1y
0c
0i
#244228529
1t
0s
0r
1y
0c
0i
#244229089
0t
0s
0r
1y
0c
0i
#244229695
1t
0s
0r
1y
0c
0i
#244230253
0t
0s
0r
1y
0c
0i
#244230860
1t
0s
0r
1y
0c
0i
#244231425
0t
0s
0r
1y
1c
0i
#244232036
1t
0s
0r
1y
1c
0i
#244232599
0t
0s
0r
1y
1c
0i
#244233208
1t
0s
0r
1y
1c
1i
#244233774
0t
0s
0r
1y
1c
1i
#244234384
1t
0s
0r
1y
0c
1i
#244234952
0t
0s
0r
1y
0c
1i
#244235563
1t
0s
0r
1y
0c
0i
#244236132
0t
0s
0r
1y
0c
0i
#244236741
1t
0s
0r
1y
0c
0i
#244237309
0t
0s
0r
1y
0c
0i
#244237919
1t
0s
0r
1y
0c
0i
#244238483
0t
0s
0r
1y
0c
0i
#244239097
1t
0s
0r
1y
0c
0i
#244241626
0t
0s
0r
1y
0c
0i
#244242633
1t
0s
0r
1y
0c
0i
#244243197
0t
0s
0r
1y
0c
0i
#244243809
1t
0s
0r
1y
0c
0i
#244244372
0t
0s
0r
1y
0c
0i
#244244982
1t
0s
0r
1y
0c
0i
#244245544
0t
0s
0r
1y
0c
0i
#244246151
1t
0s
0r
1y
0c
0i
#244246715
0t
0s
0r
1y
0c
0i
#244247320
1t
0s
0r
1y
0c
0i
#244247882
0t
0s
0r
1y
0c
0i
#244248485
1t
0s
0r
1y
0c
0i
#244249045
0t
0s
0r
1y
0c
0i
#244249647
1t
0s
0r
1y
0c
0i
#244250208
0t
0s
0r
1y
0c
0i
#244250814
1t
0s
0r
1y
0c
0i
#244251374
0t
0s
0r
1y
0c
0i
#244251981
1t
0s
0r
1y
0c
0i
#244252538
0t
0s
0r
1y
0c
0i
#244253143
1t
0s
0r
1y
0c
0i
#244253707
0t
0s
0r
1y
0c
0i
#244254312
1t
0s
0r
1y
0c
0i
#244254879
0t
0s
0r
1y
1c
0i
#244255485
1t
0s
0r
1y
1c
0i
#244256051
0t
0s
0r
1y
1c
0i
#244256658
1t
0s
0r
1y
1c
1i
#244257225
0t
0s
0r
1y
1c
1i
#244257835
1t
0s
0r
1y
0c
1i
#244258400
0t
0s
0r
1y
0c
1i
#244259011
1t
0s
0r
1y
0c
0i
#244259580
0t
0s
0r
1y
0c
0i
#244260188
1t
0s
0r
1y
0c
0i
#244260757
0t
0s
0r
1y
0c
0i
#244261368
1t
0s
0r
1y
0c
0i
#244261934
0t
0s
0r
1y
0c
0i
#244262544
1t
0s
0r
1y
0c
0i
#244263109
0t
0s
0r
1y
0c
0i
#244263718
1t
0s
0r
1y
0c
0i
#244264285
0t
0s
0r
1y
0c
0i
#244264892
1t
0s
0r
1y
0c
0i
#244265457
0t
0s
0r
1y
0c
0i
#244266064
1t
0s
0r
1y
0c
0i
#244266629
0t
0s
0r
1y
0c
0i
#244267232
1t
0s
0r
1y
0c
0i
#244267795
0t
0s
0r
1y
0c
0i
#244268399
1t
0s
0r
1y
0c
0i
#244268960
0t
0s
0r
1y
0c
0i
#244269561
1t
0s
0r
1y
0c
0i
#244270122
0t
0s
0r
1y
0c
0i
#244270721
1t
0s
0r
1y
0c
0i
#244271281
0t
0s
0r
1y
0c
0i
#244271880
1t
0s
0r
1y
0c
0i
#244272439
0t
0s
0r
1y
0c
0i
#244273035
1t
0s
0r
1y
0c
0i
#244273597
0t
0s
0r
1y
0c
0i
#244274195
1t
0s
0r
1y
0c
0i
#244274756
0t
0s
0r
1y
0c
0i
#244275353
1t
0s
0r
1y
0c
0i
#244275915
0t
0s
0r
1y
0c
0i
#244276512
1t
0s
0r
1y
0c
0i
#244277074
0t
0s
0r
1y
0c
0i
#244277676
1t
0s
0r
1y
0c
0i
#244278238
0t
0s
0r
1y
1c
0i
#244278841
1t
0s
0r
1y
1c
0i
#244279402
0t
0s
0r
1y
1c
0i
#244280008
1t
0s
0r
1y
1c
1i
#244280570
0t
0s
0r
1y
1c
1i
#244281173
1t
0s
0r
1y
0c
1i
#244281741
0t
0s
0r
1y
0c
1i
#244282345
1t
0s
0r
1y
0c
0i
#244282912
0t
0s
0r
1y
0c
0i
#244283513
1t
0s
0r
1y
0c
0i
#244284083
0t
0s
0r
1y
0c
0i
#244284684
1t
0s
0r
1y
0c
0i
#244285251
0t
0s
0r
1y
0c
0i
#244285854
1t
0s
0r
1y
0c
0i
#244286416
0t
0s
0r
1y
0c
0i
#244287020
1t
0s
0r
1y
0c
0i
#244287585
0t
0s
0r
1y
0c
0i
#244288188
1t
0s
0r
1y
0c
0i
#244288753
0t
0s
0r
1y
0c
0i
#244289356
1t
0s
0r
1y
0c
0i
#244289451
1t
1s
0r
1y
0c
0i
#244289451
1t
0s
0r
1y
0c
0i
#244289921
0t
0s
0r
1y
0c
0i
#244290520
1t
0s
0r
1y
0c
0i
#244291085
0t
0s
0r
1y
0c
0i
#244291688
1t
0s
0r
1y
0c
0i
#244292250
0t
0s
0r
1y
0c
0i
#244292854
1t
0s
0r
1y
0c
0i
#244293417
0t
0s
0r
1y
0c
0i
#244294021
1t
0s
0r
1y
0c
0i
#244294580
0t
0s
0r
1y
0c
0i
#244295184
1t
0s
0r
1y
0c
0i
#244295741
0t
0s
0r
1y
0c
0i
#244296344
1t
0s
0r
1y
0c
0i
#244296903
0t
0s
0r
1y
0c
0i
#244297506
1t
0s
0r
1y
0c
0i
#244298066
0t
0s
0r
1y
0c
0i
#244298668
1t
0s
0r
1y
0c
0i
#244299229
0t
0s
0r
1y
0c
0i
#244299831
1t
0s
0r
1y
0c
0i
#244300390
0t
0s
0r
1y
0c
0i
#244300998
1t
0s
0r
1y
0c
0i
#244301559
0t
0s
0r
1y
1c
0i
#244302164
1t
0s
0r
1y
1c
0i
#244302728
0t
0s
0r
1y
1c
0i
#244303336
1t
0s
0r
1y
1c
1i
#244303900
0t
0s
0r
1y
1c
1i
#244304506
1t
0s
0r
1y
0c
1i
#244305072
0t
0s
0r
1y
0c
1i
#244305682
1t
0s
0r
1y
0c
0i
#244305972
1t
0s
1r
1y
0c
0i
#244305974
1t
0s
0r
1y
0c
0i
#244306245
0t
0s
0r
1y
0c
0i
#244306852
1t
0s
0r
1y
0c
0i
#244307417
0t
0s
0r
1y
0c
0i
#244308025
1t
0s
0r
1y
0c
0i
#244308588
0t
0s
0r
1y
0c
0i
#244309201
1t
0s
0r
1y
0c
0i
#244311740
0t
0s
0r
1y
0c
0i
#244312724
1t
0s
0r
1y
0c
0i
#244313289
0t
0s
0r
1y
0c
0i
#244313902
1t
0s
0r
1y
0c
0i
#244314464
0t
0s
0r
1y
0c
0i
#244315076
1t
0s
0r
1y
0c
0i
#244315641
0t
0s
0r
1y
0c
0i
#244316250
1t
0s
0r
1y
0c
0i
#244316819
0t
0s
0r
1y
0c
0i
#244317431
1t
0s
0r
1y
0c
0i
#244317998
0t
0s
0r
1y
0c
0i
#244318609
1t
0s
0r
1y
0c
0i
#244319175
0t
0s
0r
1y
0c
0i
#244319788
1t
0s
0r
1y
0c
0i
#244320352
0t
0s
0r
1y
0c
0i
#244320965
1t
0s
0r
1y
0c
0i
#244321533
0t
0s
0r
1y
0c
0i
#244322146
1t
0s
0r
1y
0c
0i
#244322711
0t
0s
0r
1y
0c
0i
#244323324
1t
0s
0r
1y
0c
0i
#244323895
0t
0s
0r
1y
0c
0i
#244324509
1t
0s
0r
1y
0c
0i
#244325083
0t
0s
0r
1y
1c
0i
#244325698
1t
0s
0r
1y
1c
0i
#244326272
0t
0s
0r
1y
1c
0i
#244326888
1t
0s
0r
1y
1c
1i
#244327462
0t
0s
0r
1y
1c
1i
#244328083
1t
0s
0r
1y
0c
1i
#244328657
0t
0s
0r
1y
0c
1i
#244329278
1t
0s
0r
1y
0c
0i
#244329853
0t
0s
0r
1y
0c
0i
#244330473
1t
0s
0r
1y
0c
0i
#244331048
0t
0s
0r
1y
0c
0i
#244331667
1t
0s
0r
1y
0c
0i
#244332243
0t
0s
0r
1y
0c
0i
#244332860
1t
0s
0r
1y
0c
0i
#244333436
0t
0s
0r
1y
0c
0i
#244334054
1t
0s
0r
1y
0c
0i
#244334630
0t
0s
0r
1y
0c
0i
#244335248
1t
0s
0r
1y
0c
0i
#244335823
0t
0s
0r
1y
0c
0i
#244336441
1t
0s
0r
1y
0c
0i
#244337016
0t
0s
0r
1y
0c
0i
#244337633
1t
0s
0r
1y
0c
0i
#244338205
0t
0s
0r
1y
0c
0i
#244338823
1t
0s
0r
1y
0c
0i
#244339395
0t
0s
0r
1y
0c
0i
#244340010
1t
0s
0r
1y
0c
0i
#244340582
0t
0s
0r
1y
0c
0i
#244341197
1t
0s
0r
1y
0c
0i
#244341767
0t
0s
0r
1y
0c
0i
#244342378
1t
0s
0r
1y
0c
0i
#244342949
0t
0s
0r
1y
0c
0i
#244343559
1t
0s
0r
1y
0c
0i
#244344130
0t
0s
0r
1y
0c
0i
#244344742
1t
0s
0r
1y
0c
0i
#244345312
0t
0s
0r
1y
0c
0i
#244345925
1t
0s
0r
1y
0c
0i
#244346496
0t
0s
0r
1y
0c
0i
#244347105
1t
0s
0r
1y
0c
0i
#244347678
0t
0s
0r
1y
0c
0i
#244348290
1t
0s
0r
1y
0c
0i
#244348866
0t
0s
0r
1y
1c
0i
#244349478
1t
0s
0r
1y
1c
0i
#244350052
0t
0s
0r
1y
1c
0i
#244350668
1t
0s
0r
1y
1c
1i
#244351242
0t
0s
0r
1y
1c
1i
#244351856
1t
0s
0r
1y
1c
1i
#244352432
0t
0s
0r
1y
0c
1i
#244353051
1t
0s
0r
1y
0c
0i
#244353626
0t
0s
0r
1y
0c
0i
#244354241
1t
0s
0r
1y
0c
0i
#244354819
0t
0s
0r
1y
0c
0i
#244355432
1t
0s
0r
1y
0c
0i
#244356011
0t
0s
0r
1y
0c
0i
#244356626
1t
0s
0r
1y
0c
0i
#244357201
0t
0s
0r
1y
0c
0i
#244357815
1t
0s
0r
1y
0c
0i
#244358391
0t
0s
0r
1y
0c
0i
#244359009
1t
0s
0r
1y
0c
0i
#244359582
0t
0s
0r
1y
0c
0i
#244360199
1t
0s
0r
1y
0c
0i
#244360772
0t
0s
0r
1y
0c
0i
#244361386
1t
0s
0r
1y
0c
0i
#244361960
0t
0s
0r
1y
0c
0i
#244362576
1t
0s
0r
1y
0c
0i
#244363148
0t
0s
0r
1y
0c
0i
#244363763
1t
0s
0r
1y
0c
0i
#244364338
0t
0s
0r
1y
0c
0i
#244364955
1t
0s
0r
1y
0c
0i
#244365525
0t
0s
0r
1y
0c
0i
#244366139
1t
0s
0r
1y
0c
0i
#244366711
0t
0s
0r
1y
0c
0i
#244367325
1t
0s
0r
1y
0c
0i
#244367897
0t
0s
0r
1y
0c
0i
#244368512
1t
0s
0r
1y
0c
0i
#244369083
0t
0s
0r
1y
0c
0i
#244369700
1t
0s
0r
1y
0c
0i
#244370271
0t
0s
0r
1y
0c
0i
#244370890
1t
0s
0r
1y
0c
0i
#244371459
0t
0s
0r
1y
0c
0i
#244372079
1t
0s
0r
1y
0c
0i
#244372655
0t
0s
0r
1y
1c
0i
#244373274
1t
0s
0r
1y
1c
0i
#244373851
0t
0s
0r
1y
1c
0i
#244374468
1t
0s
0r
1y
1c
1i
#244375046
0t
0s
0r
1y
1c
1i
#244375671
1t
0s
0r
1y
0c
1i
#244376248
0t
0s
0r
1y
0c
1i
#244376873
1t
0s
0r
1y
0c
0i
#244377449
0t
0s
0r
1y
0c
0i
#244378072
1t
0s
0r
1y
0c
0i
#244378650
0t
0s
0r
1y
0c
0i
#244379273
1t
0s
0r
1y
0c
0i
#244379849
0t
0s
0r
1y
0c
0i
#244380472
1t
0s
0r
1y
0c
0i
#244383041
0t
0s
0r
1y
0c
0i
#244384073
1t
0s
0r
1y
0c
0i
#244384645
0t
0s
0r
1y
0c
0i
#244385270
1t
0s
0r
1y
0c
0i
#244385841
0t
0s
0r
1y
0c
0i
#244386463
1t
0s
0r
1y
0c
0i
#244387034
0t
0s
0r
1y
0c
0i
#244387651
1t
0s
0r
1y
0c
0i
#244388225
0t
0s
0r
1y
0c
0i
#244388841
1t
0s
0r
1y
0c
0i
#244389411
0t
0s
0r
1y
0c
0i
#244390025
1t
0s
0r
1y
0c
0i
#244390593
0t
0s
0r
1y
0c
0i
#244391208
1t
0s
0r
1y
0c
0i
#244391777
0t
0s
0r
1y
0c
0i
#244392391
1t
0s
0r
1y
0c
0i
#244392960
0t
0s
0r
1y
0c
0i
#244393576
1t
0s
0r
1y
0c
0i
#244394145
0t
0s
0r
1y
0c
0i
#244394760
1t
0s
0r
1y
0c
0i
#244395333
0t
0s
0r
1y
0c
0i
#244395950
1t
0s
0r
1y
0c
0i
#244396524
0t
0s
0r
1y
1c
0i
#244397141
1t
0s
0r
1y
1c
0i
#244397717
0t
0s
0r
1y
1c
0i
#244398335
1t
0s
0r
1y
1c
1i
#244398911
0t
0s
0r
1y
1c
1i
#244399534
1t
0s
0r
1y
0c
1i
#244400109
0t
0s
0r
1y
0c
1i
#244400732
1t
0s
0r
1y
0c
0i
#244401307
0t
0s
0r
1y
0c
0i
#244401927
1t
0s
0r
1y
0c
0i
#244402505
0t
0s
0r
1y
0c
0i
#244403125
1t
0s
0r
1y
0c
0i
#244403703
0t
0s
0r
1y
0c
0i
#244404323
1t
0s
0r
1y
0c
0i
#244404900
0t
0s
0r
1y
0c
0i
#244405519
1t
0s
0r
1y
0c
0i
#244406095
0t
0s
0r
1y
0c
0i
#244406716
1t
0s
0r
1y
0c
0i
#244407291
0t
0s
0r
1y
0c
0i
#244407909
1t
0s
0r
1y
0c
0i
#244408487
0t
0s
0r
1y
0c
0i
#244409105
1t
0s
0r
1y
0c
0i
#244409676
0t
0s
0r
1y
0c
0i
#244410294
1t
0s
0r
1y
0c
0i
#244410866
0t
0s
0r
1y
0c
0i
#244411482
1t
0s
0r
1y
0c
0i
#244412054
0t
0s
0r
1y
0c
0i
#244412668
1t
0s
0r
1y
0c
0i
#244413239
0t
0s
0r
1y
0c
0i
#244413851
1t
0s
0r
1y
0c
0i
#244414421
0t
0s
0r
1y
0c
0i
#244415032
1t
0s
0r
1y
0c
0i
#244415603
0t
0s
0r
1y
0c
0i
#244416213
1t
0s
0r
1y
0c
0i
#244416785
0t
0s
0r
1y
0c
0i
#244417398
1t
0s
0r
1y
0c
0i
#244417970
0t
0s
0r
1y
0c
0i
#244418580
1t
0s
0r
1y
0c
0i
