rusefi_bundle_mega100/rusefi.snapshot.mega100/console/logs/rusEFI_trigger_log_2024-12-19_12_23_35_583.vcd
$date
	Thu Dec 19 12:23:35 CET 2024
$end
$version
        1.0
$end
$timescale
        1ps
$end
$scope module test $end
$var wire 1 t PRI_TRG $end
$var wire 1 s SEC_TRG $end
$var wire 1 r TRG $end
$var wire 1 y SYNC $end
$var wire 1 c COIL $end
$var wire 1 i INJ $end
$upscope $end
$enddefinitions $end
$dumpvars
#423773289
1t
0s
0r
0y
0c
0i
#423773438
1t
1s
0r
0y
0c
0i
#423773438
1t
0s
0r
0y
0c
0i
#423773936
1t
1s
0r
0y
0c
0i
#423773936
1t
0s
0r
0y
0c
0i
#922532526
0t
0s
0r
0y
0c
0i
#925170762
1t
0s
0r
0y
0c
0i
#925170872
1t
1s
0r
0y
0c
0i
#925170872
1t
0s
0r
0y
0c
0i
#925171408
1t
1s
0r
0y
0c
0i
#925171408
1t
0s
0r
0y
0c
0i
#1026819744
0t
0s
0r
0y
0c
0i
