rusefi_bundle_mega100/rusefi.snapshot.mega100/console/logs/rusEFI_trigger_log_2024-11-07_18_25_35_279.vcd
$date
	Thu Nov 07 18:25:35 CET 2024
$end
$version
        1.0
$end
$timescale
        1ps
$end
$scope module test $end
$var wire 1 t PRI_TRG $end
$var wire 1 s SEC_TRG $end
$var wire 1 r TRG $end
$var wire 1 y SYNC $end
$var wire 1 c COIL $end
$var wire 1 i INJ $end
$upscope $end
$enddefinitions $end
$dumpvars
#25965125694
1t
0s
0r
1y
0c
1i
#25965126397
0t
0s
0r
1y
0c
1i
#25965127162
1t
0s
0r
1y
0c
1i
#25965127862
0t
0s
0r
1y
0c
1i
#25965128624
1t
0s
0r
1y
0c
0i
#25965128906
1t
0s
1r
1y
0c
0i
#25965128909
1t
0s
0r
1y
0c
0i
#25965129328
0t
0s
0r
1y
0c
0i
#25965130092
1t
0s
0r
1y
0c
0i
#25965130792
0t
0s
0r
1y
0c
0i
#25965131552
1t
0s
0r
1y
0c
0i
#25965132250
0t
0s
0r
1y
0c
0i
#25965133010
1t
0s
0r
1y
0c
0i
#25965136146
0t
0s
0r
1y
0c
0i
#25965137350
1t
0s
0r
1y
0c
0i
#25965138040
0t
0s
0r
1y
0c
0i
#25965138790
1t
0s
0r
1y
0c
0i
#25965139476
0t
0s
0r
1y
0c
0i
#25965140214
1t
0s
0r
1y
0c
0i
#25965140906
0t
0s
0r
1y
0c
0i
#25965141643
1t
0s
0r
1y
0c
0i
#25965142335
0t
0s
0r
1y
0c
0i
#25965143077
1t
0s
0r
1y
0c
0i
#25965143766
0t
0s
0r
1y
0c
0i
#25965144506
1t
0s
0r
1y
0c
0i
#25965145200
0t
0s
0r
1y
0c
0i
#25965145943
1t
0s
0r
1y
0c
0i
#25965146639
0t
0s
0r
1y
0c
0i
#25965147389
1t
0s
0r
1y
0c
0i
#25965148085
0t
0s
0r
1y
0c
0i
#25965148835
1t
0s
0r
1y
0c
0i
#25965149534
0t
0s
0r
1y
0c
0i
#25965150288
1t
0s
0r
1y
0c
0i
#25965150990
0t
0s
0r
1y
1c
0i
#25965151749
1t
0s
0r
1y
1c
0i
#25965152457
0t
0s
0r
1y
1c
0i
#25965153219
1t
0s
0r
1y
1c
0i
#25965153928
0t
0s
0r
1y
1c
0i
#25965154696
1t
0s
0r
1y
0c
0i
#25965155408
0t
0s
0r
1y
0c
1i
#25965156178
1t
0s
0r
1y
0c
1i
#25965156894
0t
0s
0r
1y
0c
1i
#25965157663
1t
0s
0r
1y
0c
0i
#25965158379
0t
0s
0r
1y
0c
0i
#25965159152
1t
0s
0r
1y
0c
0i
#25965159866
0t
0s
0r
1y
0c
0i
#25965160636
1t
0s
0r
1y
0c
0i
#25965161348
0t
0s
0r
1y
0c
0i
#25965162109
1t
0s
0r
1y
0c
0i
#25965162821
0t
0s
0r
1y
0c
0i
#25965163579
1t
0s
0r
1y
0c
0i
#25965164282
0t
0s
0r
1y
0c
0i
#25965165035
1t
0s
0r
1y
0c
0i
#25965165728
0t
0s
0r
1y
0c
0i
#25965166471
1t
0s
0r
1y
0c
0i
#25965167158
0t
0s
0r
1y
0c
0i
#25965167896
1t
0s
0r
1y
0c
0i
#25965168580
0t
0s
0r
1y
0c
0i
#25965169314
1t
0s
0r
1y
0c
0i
#25965169997
0t
0s
0r
1y
0c
0i
#25965170732
1t
0s
0r
1y
0c
0i
#25965171416
0t
0s
0r
1y
0c
0i
#25965172153
1t
0s
0r
1y
0c
0i
#25965172841
0t
0s
0r
1y
0c
0i
#25965173577
1t
0s
0r
1y
0c
0i
#25965174270
0t
0s
0r
1y
0c
0i
#25965175013
1t
0s
0r
1y
0c
0i
#25965175708
0t
0s
0r
1y
0c
0i
#25965176454
1t
0s
0r
1y
0c
0i
#25965177150
0t
0s
0r
1y
0c
0i
#25965177902
1t
0s
0r
1y
0c
0i
#25965178602
0t
0s
0r
1y
0c
0i
#25965179355
1t
0s
0r
1y
0c
0i
#25965180061
0t
0s
0r
1y
1c
0i
#25965180817
1t
0s
0r
1y
1c
0i
#25965181526
0t
0s
0r
1y
1c
0i
#25965182293
1t
0s
0r
1y
1c
0i
#25965183000
0t
0s
0r
1y
1c
0i
#25965183771
1t
0s
0r
1y
0c
0i
#25965184484
0t
0s
0r
1y
0c
1i
#25965185255
1t
0s
0r
1y
0c
1i
#25965185966
0t
0s
0r
1y
0c
1i
#25965186738
1t
0s
0r
1y
0c
0i
#25965187456
0t
0s
0r
1y
0c
0i
#25965188222
1t
0s
0r
1y
0c
0i
#25965188943
0t
0s
0r
1y
0c
0i
#25965189707
1t
0s
0r
1y
0c
0i
#25965190426
0t
0s
0r
1y
0c
0i
#25965191189
1t
0s
0r
1y
0c
0i
#25965191898
0t
0s
0r
1y
0c
0i
#25965192660
1t
0s
0r
1y
0c
0i
#25965193369
0t
0s
0r
1y
0c
0i
#25965194131
1t
0s
0r
1y
0c
0i
#25965194838
0t
0s
0r
1y
0c
0i
#25965195601
1t
0s
0r
1y
0c
0i
#25965196304
0t
0s
0r
1y
0c
0i
#25965197057
1t
0s
0r
1y
0c
0i
#25965197761
0t
0s
0r
1y
0c
0i
#25965198518
1t
0s
0r
1y
0c
0i
#25965199221
0t
0s
0r
1y
0c
0i
#25965199982
1t
0s
0r
1y
0c
0i
#25965200681
0t
0s
0r
1y
0c
0i
#25965201440
1t
0s
0r
1y
0c
0i
#25965202142
0t
0s
0r
1y
0c
0i
#25965202905
1t
0s
0r
1y
0c
0i
#25965203604
0t
0s
0r
1y
0c
0i
#25965204364
1t
0s
0r
1y
0c
0i
#25965205070
0t
0s
0r
1y
0c
0i
#25965205835
1t
0s
0r
1y
0c
0i
#25965206544
0t
0s
0r
1y
0c
0i
#25965207308
1t
0s
0r
1y
0c
0i
#25965208018
0t
0s
0r
1y
0c
0i
#25965208792
1t
0s
0r
1y
0c
0i
#25965209501
0t
0s
0r
1y
1c
0i
#25965210274
1t
0s
0r
1y
1c
0i
#25965210994
0t
0s
0r
1y
1c
0i
#25965211772
1t
0s
0r
1y
1c
0i
#25965212494
0t
0s
0r
1y
1c
0i
#25965213277
1t
0s
0r
1y
0c
0i
#25965213998
0t
0s
0r
1y
0c
1i
#25965214780
1t
0s
0r
1y
0c
1i
#25965215508
0t
0s
0r
1y
0c
1i
#25965216298
1t
0s
0r
1y
0c
0i
#25965217023
0t
0s
0r
1y
0c
0i
#25965217805
1t
0s
0r
1y
0c
0i
#25965218534
0t
0s
0r
1y
0c
0i
#25965219319
1t
0s
0r
1y
0c
0i
#25965220037
0t
0s
0r
1y
0c
0i
#25965220819
1t
0s
0r
1y
0c
0i
#25965223980
0t
0s
0r
1y
0c
0i
#25965225241
1t
0s
0r
1y
0c
0i
#25965225936
0t
0s
0r
1y
0c
0i
#25965226686
1t
0s
0r
1y
0c
0i
#25965227375
0t
0s
0r
1y
0c
0i
#25965228124
1t
0s
0r
1y
0c
0i
#25965228813
0t
0s
0r
1y
0c
0i
#25965229562
1t
0s
0r
1y
0c
0i
#25965230255
0t
0s
0r
1y
0c
0i
#25965230997
1t
0s
0r
1y
0c
0i
#25965231696
0t
0s
0r
1y
0c
0i
#25965232447
1t
0s
0r
1y
0c
0i
#25965233145
0t
0s
0r
1y
0c
0i
#25965233903
1t
0s
0r
1y
0c
0i
#25965234603
0t
0s
0r
1y
0c
0i
#25965235365
1t
0s
0r
1y
0c
0i
#25965236067
0t
0s
0r
1y
0c
0i
#25965236834
1t
0s
0r
1y
0c
0i
#25965237538
0t
0s
0r
1y
0c
0i
#25965238305
1t
0s
0r
1y
0c
0i
#25965239023
0t
0s
0r
1y
1c
0i
#25965239790
1t
0s
0r
1y
1c
0i
#25965240512
0t
0s
0r
1y
1c
0i
#25965241291
1t
0s
0r
1y
1c
0i
#25965242013
0t
0s
0r
1y
1c
0i
#25965242792
1t
0s
0r
1y
0c
0i
#25965243519
0t
0s
0r
1y
0c
1i
#25965244306
1t
0s
0r
1y
0c
1i
#25965245032
0t
0s
0r
1y
0c
1i
#25965245821
1t
0s
0r
1y
0c
0i
#25965246545
0t
0s
0r
1y
0c
0i
#25965247330
1t
0s
0r
1y
0c
0i
#25965248057
0t
0s
0r
1y
0c
0i
#25965248839
1t
0s
0r
1y
0c
0i
#25965249562
0t
0s
0r
1y
0c
0i
#25965250341
1t
0s
0r
1y
0c
0i
#25965251059
0t
0s
0r
1y
0c
0i
#25965251832
1t
0s
0r
1y
0c
0i
#25965252547
0t
0s
0r
1y
0c
0i
#25965253313
1t
0s
0r
1y
0c
0i
#25965254023
0t
0s
0r
1y
0c
0i
#25965254785
1t
0s
0r
1y
0c
0i
#25965255490
0t
0s
0r
1y
0c
0i
#25965256243
1t
0s
0r
1y
0c
0i
#25965256943
0t
0s
0r
1y
0c
0i
#25965257697
1t
0s
0r
1y
0c
0i
#25965258395
0t
0s
0r
1y
0c
0i
#25965259146
1t
0s
0r
1y
0c
0i
#25965259848
0t
0s
0r
1y
0c
0i
#25965260599
1t
0s
0r
1y
0c
0i
#25965261301
0t
0s
0r
1y
0c
0i
#25965262054
1t
0s
0r
1y
0c
0i
#25965262756
0t
0s
0r
1y
0c
0i
#25965263515
1t
0s
0r
1y
0c
0i
#25965264223
0t
0s
0r
1y
0c
0i
#25965264984
1t
0s
0r
1y
0c
0i
#25965265696
0t
0s
0r
1y
0c
0i
#25965266458
1t
0s
0r
1y
0c
0i
#25965267175
0t
0s
0r
1y
0c
0i
#25965267940
1t
0s
0r
1y
0c
0i
#25965268662
0t
0s
0r
1y
1c
0i
#25965269433
1t
0s
0r
1y
1c
0i
#25965270156
0t
0s
0r
1y
1c
0i
#25965270932
1t
0s
0r
1y
1c
0i
#25965271660
0t
0s
0r
1y
1c
0i
#25965272440
1t
0s
0r
1y
0c
0i
#25965273170
0t
0s
0r
1y
0c
1i
#25965273952
1t
0s
0r
1y
0c
1i
#25965274682
0t
0s
0r
1y
0c
1i
#25965275469
1t
0s
0r
1y
0c
0i
#25965276202
0t
0s
0r
1y
0c
0i
#25965276983
1t
0s
0r
1y
0c
0i
#25965277715
0t
0s
0r
1y
0c
0i
#25965278495
1t
0s
0r
1y
0c
0i
#25965279222
0t
0s
0r
1y
0c
0i
#25965279997
1t
0s
0r
1y
0c
0i
#25965280712
0t
0s
0r
1y
0c
0i
#25965281482
1t
0s
0r
1y
0c
0i
#25965282189
0t
0s
0r
1y
0c
0i
#25965282952
1t
0s
0r
1y
0c
0i
#25965283653
0t
0s
0r
1y
0c
0i
#25965284405
1t
0s
0r
1y
0c
0i
#25965284409
1t
1s
0r
1y
0c
0i
#25965284409
1t
0s
0r
1y
0c
0i
#25965285094
0t
0s
0r
1y
0c
0i
#25965285839
1t
0s
0r
1y
0c
0i
#25965286528
0t
0s
0r
1y
0c
0i
#25965287271
1t
0s
0r
1y
0c
0i
#25965287961
0t
0s
0r
1y
0c
0i
#25965288704
1t
0s
0r
1y
0c
0i
#25965289397
0t
0s
0r
1y
0c
0i
#25965290145
1t
0s
0r
1y
0c
0i
#25965290838
0t
0s
0r
1y
0c
0i
#25965291588
1t
0s
0r
1y
0c
0i
#25965292285
0t
0s
0r
1y
0c
0i
#25965293040
1t
0s
0r
1y
0c
0i
#25965293741
0t
0s
0r
1y
0c
0i
#25965294498
1t
0s
0r
1y
0c
0i
#25965295204
0t
0s
0r
1y
0c
0i
#25965295969
1t
0s
0r
1y
0c
0i
#25965296678
0t
0s
0r
1y
0c
0i
#25965297450
1t
0s
0r
1y
0c
0i
#25965298157
0t
0s
0r
1y
1c
0i
#25965298935
1t
0s
0r
1y
1c
0i
#25965299651
0t
0s
0r
1y
1c
0i
#25965300431
1t
0s
0r
1y
1c
0i
#25965301152
0t
0s
0r
1y
1c
0i
#25965301938
1t
0s
0r
1y
0c
0i
#25965302664
0t
0s
0r
1y
0c
1i
#25965303450
1t
0s
0r
1y
0c
1i
#25965304175
0t
0s
0r
1y
0c
1i
#25965304969
1t
0s
0r
1y
0c
0i
#25965305659
1t
0s
1r
1y
0c
0i
#25965305662
1t
0s
0r
1y
0c
0i
#25965305691
0t
0s
0r
1y
0c
0i
#25965306479
1t
0s
0r
1y
0c
0i
#25965307205
0t
0s
0r
1y
0c
0i
#25965307991
1t
0s
0r
1y
0c
0i
#25965308712
0t
0s
0r
1y
0c
0i
#25965309497
1t
0s
0r
1y
0c
0i
#25965312738
0t
0s
0r
1y
0c
0i
#25965313995
1t
0s
0r
1y
0c
0i
#25965314717
0t
0s
0r
1y
0c
0i
#25965315498
1t
0s
0r
1y
0c
0i
#25965316211
0t
0s
0r
1y
0c
0i
#25965316986
1t
0s
0r
1y
0c
0i
#25965317706
0t
0s
0r
1y
0c
0i
#25965318475
1t
0s
0r
1y
0c
0i
#25965319199
0t
0s
0r
1y
0c
0i
#25965319975
1t
0s
0r
1y
0c
0i
#25965320693
0t
0s
0r
1y
0c
0i
#25965321465
1t
0s
0r
1y
0c
0i
#25965322187
0t
0s
0r
1y
0c
0i
#25965322965
1t
0s
0r
1y
0c
0i
#25965323685
0t
0s
0r
1y
0c
0i
#25965324468
1t
0s
0r
1y
0c
0i
#25965325189
0t
0s
0r
1y
0c
0i
#25965325977
1t
0s
0r
1y
0c
0i
#25965326704
0t
0s
0r
1y
0c
0i
#25965327489
1t
0s
0r
1y
0c
0i
#25965328221
0t
0s
0r
1y
1c
0i
#25965329012
1t
0s
0r
1y
1c
0i
#25965329749
0t
0s
0r
1y
1c
0i
#25965330540
1t
0s
0r
1y
1c
0i
#25965331281
0t
0s
0r
1y
1c
0i
#25965332082
1t
0s
0r
1y
0c
0i
#25965332825
0t
0s
0r
1y
0c
1i
#25965333624
1t
0s
0r
1y
0c
1i
#25965334376
0t
0s
0r
1y
0c
1i
#25965335179
1t
0s
0r
1y
0c
0i
#25965335927
0t
0s
0r
1y
0c
0i
#25965336732
1t
0s
0r
1y
0c
0i
#25965337477
0t
0s
0r
1y
0c
0i
#25965338279
1t
0s
0r
1y
0c
0i
#25965339024
0t
0s
0r
1y
0c
0i
#25965339818
1t
0s
0r
1y
0c
0i
#25965340559
0t
0s
0r
1y
0c
0i
#25965341349
1t
0s
0r
1y
0c
0i
#25965342078
0t
0s
0r
1y
0c
0i
#25965342860
1t
0s
0r
1y
0c
0i
#25965343579
0t
0s
0r
1y
0c
0i
#25965344354
1t
0s
0r
1y
0c
0i
#25965345065
0t
0s
0r
1y
0c
0i
#25965345834
1t
0s
0r
1y
0c
0i
#25965346542
0t
0s
0r
1y
0c
0i
#25965347307
1t
0s
0r
1y
0c
0i
#25965348016
0t
0s
0r
1y
0c
0i
#25965348784
1t
0s
0r
1y
0c
0i
#25965349495
0t
0s
0r
1y
0c
0i
#25965350263
1t
0s
0r
1y
0c
0i
#25965350979
0t
0s
0r
1y
0c
0i
#25965351748
1t
0s
0r
1y
0c
0i
#25965352466
0t
0s
0r
1y
0c
0i
#25965353241
1t
0s
0r
1y
0c
0i
#25965353965
0t
0s
0r
1y
0c
0i
#25965354745
1t
0s
0r
1y
0c
0i
#25965355470
0t
0s
0r
1y
0c
0i
#25965356255
1t
0s
0r
1y
0c
0i
#25965356987
0t
0s
0r
1y
0c
0i
#25965357775
1t
0s
0r
1y
0c
0i
#25965358513
0t
0s
0r
1y
1c
0i
#25965359306
1t
0s
0r
1y
1c
0i
#25965360047
0t
0s
0r
1y
1c
0i
#25965360847
1t
0s
0r
1y
1c
0i
#25965361592
0t
0s
0r
1y
1c
0i
#25965362395
1t
0s
0r
1y
0c
0i
#25965363146
0t
0s
0r
1y
0c
1i
#25965363949
1t
0s
0r
1y
0c
1i
#25965364705
0t
0s
0r
1y
0c
1i
#25965365516
1t
0s
0r
1y
0c
0i
#25965366265
0t
0s
0r
1y
0c
0i
#25965367073
1t
0s
0r
1y
0c
0i
#25965367827
0t
0s
0r
1y
0c
0i
#25965368630
1t
0s
0r
1y
0c
0i
#25965369380
0t
0s
0r
1y
0c
0i
#25965370181
1t
0s
0r
1y
0c
0i
#25965370923
0t
0s
0r
1y
0c
0i
#25965371722
1t
0s
0r
1y
0c
0i
#25965372461
0t
0s
0r
1y
0c
0i
#25965373258
1t
0s
0r
1y
0c
0i
#25965373995
0t
0s
0r
1y
0c
0i
#25965374788
1t
0s
0r
1y
0c
0i
#25965375520
0t
0s
0r
1y
0c
0i
#25965376304
1t
0s
0r
1y
0c
0i
#25965377032
0t
0s
0r
1y
0c
0i
#25965377816
1t
0s
0r
1y
0c
0i
#25965378544
0t
0s
0r
1y
0c
0i
#25965379332
1t
0s
0r
1y
0c
0i
#25965380059
0t
0s
0r
1y
0c
0i
#25965380848
1t
0s
0r
1y
0c
0i
#25965381576
0t
0s
0r
1y
0c
0i
#25965382368
1t
0s
0r
1y
0c
0i
#25965383097
0t
0s
0r
1y
0c
0i
#25965383889
1t
0s
0r
1y
0c
0i
#25965384620
0t
0s
0r
1y
0c
0i
#25965385418
1t
0s
0r
1y
0c
0i
#25965386154
0t
0s
0r
1y
0c
0i
#25965386954
1t
0s
0r
1y
0c
0i
#25965387693
0t
0s
0r
1y
0c
0i
#25965388501
1t
0s
0r
1y
0c
0i
#25965389239
0t
0s
0r
1y
1c
0i
#25965390050
1t
0s
0r
1y
1c
0i
#25965390799
0t
0s
0r
1y
1c
0i
#25965391613
1t
0s
0r
1y
1c
0i
#25965392368
0t
0s
0r
1y
1c
0i
#25965393184
1t
0s
0r
1y
0c
0i
#25965393946
0t
0s
0r
1y
0c
1i
#25965394769
1t
0s
0r
1y
0c
1i
#25965395526
0t
0s
0r
1y
0c
1i
#25965396353
1t
0s
0r
1y
0c
0i
#25965397111
0t
0s
0r
1y
0c
0i
#25965397932
1t
0s
0r
1y
0c
0i
#25965398693
0t
0s
0r
1y
0c
0i
#25965399515
1t
0s
0r
1y
0c
0i
#25965400266
0t
0s
0r
1y
0c
0i
#25965401087
1t
0s
0r
1y
0c
0i
#25965404432
0t
0s
0r
1y
0c
0i
#25965405689
1t
0s
0r
1y
0c
0i
#25965406408
0t
0s
0r
1y
0c
0i
#25965407189
1t
0s
0r
1y
0c
0i
#25965407904
0t
0s
0r
1y
0c
0i
#25965408684
1t
0s
0r
1y
0c
0i
#25965409402
0t
0s
0r
1y
0c
0i
#25965410175
1t
0s
0r
1y
0c
0i
#25965410899
0t
0s
0r
1y
0c
0i
#25965411678
1t
0s
0r
1y
0c
0i
#25965412401
0t
0s
0r
1y
0c
0i
#25965413186
1t
0s
0r
1y
0c
0i
#25965413916
0t
0s
0r
1y
0c
0i
#25965414704
1t
0s
0r
1y
0c
0i
#25965415436
0t
0s
0r
1y
0c
0i
#25965416227
1t
0s
0r
1y
0c
0i
#25965416965
0t
0s
0r
1y
0c
0i
#25965417764
1t
0s
0r
1y
0c
0i
#25965418506
0t
0s
0r
1y
0c
0i
#25965419310
1t
0s
0r
1y
0c
0i
#25965420059
0t
0s
0r
1y
1c
0i
#25965420865
1t
0s
0r
1y
1c
0i
#25965421622
0t
0s
0r
1y
1c
0i
#25965422439
1t
0s
0r
1y
1c
0i
#25965423197
0t
0s
0r
1y
1c
0i
#25965424018
1t
0s
0r
1y
0c
0i
#25965424782
0t
0s
0r
1y
0c
1i
#25965425609
1t
0s
0r
1y
0c
1i
#25965426374
0t
0s
0r
1y
0c
1i
#25965427199
1t
0s
0r
1y
0c
0i
#25965427965
0t
0s
0r
1y
0c
0i
#25965428791
1t
0s
0r
1y
0c
0i
#25965429557
0t
0s
0r
1y
0c
0i
#25965430378
1t
0s
0r
1y
0c
0i
#25965431135
0t
0s
0r
1y
0c
0i
#25965431949
1t
0s
0r
1y
0c
0i
#25965432703
0t
0s
0r
1y
0c
0i
#25965433510
1t
0s
0r
1y
0c
0i
#25965434254
0t
0s
0r
1y
0c
0i
#25965435052
1t
0s
0r
1y
0c
0i
#25965435788
0t
0s
0r
1y
0c
0i
#25965436577
1t
0s
0r
1y
0c
0i
#25965437301
0t
0s
0r
1y
0c
0i
#25965438082
1t
0s
0r
1y
0c
0i
#25965438808
0t
0s
0r
1y
0c
0i
#25965439583
1t
0s
0r
1y
0c
0i
#25965440307
0t
0s
0r
1y
0c
0i
#25965441085
1t
0s
0r
1y
0c
0i
#25965441808
0t
0s
0r
1y
0c
0i
#25965442587
1t
0s
0r
1y
0c
0i
#25965443315
0t
0s
0r
1y
0c
0i
#25965444097
1t
0s
0r
1y
0c
0i
#25965444827
0t
0s
0r
1y
0c
0i
#25965445616
1t
0s
0r
1y
0c
0i
#25965446352
0t
0s
0r
1y
0c
0i
#25965447151
1t
0s
0r
1y
0c
0i
#25965447888
0t
0s
0r
1y
0c
0i
#25965448686
1t
0s
0r
1y
0c
0i
#25965449434
0t
0s
0r
1y
0c
0i
#25965450232
1t
0s
0r
1y
0c
0i
#25965450987
0t
0s
0r
1y
1c
0i
#25965451796
1t
0s
0r
1y
1c
0i
#25965452554
0t
0s
0r
1y
1c
0i
#25965453370
1t
0s
0r
1y
1c
0i
#25965454132
0t
0s
0r
1y
1c
0i
#25965454956
1t
0s
0r
1y
0c
0i
#25965455717
0t
0s
0r
1y
0c
1i
#25965456544
1t
0s
0r
1y
0c
1i
#25965457310
0t
0s
0r
1y
0c
1i
#25965458135
1t
0s
0r
1y
0c
0i
#25965458905
0t
0s
0r
1y
0c
0i
#25965459728
1t
0s
0r
1y
0c
0i
#25965460495
0t
0s
0r
1y
0c
0i
#25965461314
1t
0s
0r
1y
0c
0i
#25965462076
0t
0s
0r
1y
0c
0i
#25965462888
1t
0s
0r
1y
0c
0i
#25965463639
0t
0s
0r
1y
0c
0i
#25965464436
1t
0s
0r
1y
0c
0i
#25965465178
0t
0s
0r
1y
0c
0i
#25965465969
1t
0s
0r
1y
0c
0i
#25965466697
0t
0s
0r
1y
0c
0i
#25965467476
1t
0s
0r
1y
0c
0i
#25965467485
1t
1s
0r
1y
0c
0i
#25965467485
1t
0s
0r
1y
0c
0i
#25965468195
0t
0s
0r
1y
0c
0i
#25965468962
1t
0s
0r
1y
0c
0i
#25965469683
0t
0s
0r
1y
0c
0i
#25965470454
1t
0s
0r
1y
0c
0i
#25965471172
0t
0s
0r
1y
0c
0i
#25965471944
1t
0s
0r
1y
0c
0i
#25965472664
0t
0s
0r
1y
0c
0i
#25965473438
1t
0s
0r
1y
0c
0i
#25965474161
0t
0s
0r
1y
0c
0i
#25965474944
1t
0s
0r
1y
0c
0i
#25965475666
0t
0s
0r
1y
0c
0i
#25965476454
1t
0s
0r
1y
0c
0i
#25965477186
0t
0s
0r
1y
0c
0i
#25965477975
1t
0s
0r
1y
0c
0i
#25965478713
0t
0s
0r
1y
0c
0i
#25965479510
1t
0s
0r
1y
0c
0i
#25965480252
0t
0s
0r
1y
0c
0i
#25965481062
1t
0s
0r
1y
0c
0i
#25965481802
0t
0s
0r
1y
1c
0i
#25965482615
1t
0s
0r
1y
1c
0i
#25965483369
0t
0s
0r
1y
1c
0i
#25965484191
1t
0s
0r
1y
1c
0i
#25965484947
0t
0s
0r
1y
1c
0i
#25965485770
1t
0s
0r
1y
0c
0i
#25965486534
0t
0s
0r
1y
0c
1i
#25965487363
1t
0s
0r
1y
0c
1i
#25965488126
0t
0s
0r
1y
0c
1i
#25965488957
1t
0s
0r
1y
0c
0i
#25965489648
1t
0s
1r
1y
0c
0i
#25965489650
1t
0s
0r
1y
0c
0i
#25965489723
0t
0s
0r
1y
0c
0i
#25965490549
1t
0s
0r
1y
0c
0i
#25965491312
0t
0s
0r
1y
0c
0i
#25965492135
1t
0s
0r
1y
0c
0i
#25965492893
0t
0s
0r
1y
0c
0i
#25965493713
1t
0s
0r
1y
0c
0i
#25965497063
0t
0s
0r
1y
0c
0i
#25965498383
1t
0s
0r
1y
0c
0i
#25965499120
0t
0s
0r
1y
0c
0i
#25965499915
1t
0s
0r
1y
0c
0i
#25965500649
0t
0s
0r
1y
0c
0i
#25965501433
1t
0s
0r
1y
0c
0i
#25965502167
0t
0s
0r
1y
0c
0i
#25965502955
1t
0s
0r
1y
0c
0i
#25965503688
0t
0s
0r
1y
0c
0i
#25965504476
1t
0s
0r
1y
0c
0i
#25965505211
0t
0s
0r
1y
0c
0i
#25965506005
1t
0s
0r
1y
0c
0i
#25965506741
0t
0s
0r
1y
0c
0i
#25965507533
1t
0s
0r
1y
0c
0i
#25965508279
0t
0s
0r
1y
0c
0i
#25965509085
1t
0s
0r
1y
0c
0i
#25965509828
0t
0s
0r
1y
0c
0i
#25965510640
1t
0s
0r
1y
0c
0i
#25965511386
0t
0s
0r
1y
0c
0i
#25965512200
1t
0s
0r
1y
0c
0i
#25965512959
0t
0s
0r
1y
1c
0i
#25965513776
1t
0s
0r
1y
1c
0i
#25965514545
0t
0s
0r
1y
1c
0i
#25965515367
1t
0s
0r
1y
1c
0i
#25965516139
0t
0s
0r
1y
1c
0i
#25965516969
1t
0s
0r
1y
0c
0i
#25965517745
0t
0s
0r
1y
0c
1i
#25965518580
1t
0s
0r
1y
0c
1i
#25965519357
0t
0s
0r
1y
0c
1i
#25965520197
1t
0s
0r
1y
0c
0i
#25965520975
0t
0s
0r
1y
0c
0i
#25965521813
1t
0s
0r
1y
0c
0i
#25965522589
0t
0s
0r
1y
0c
0i
#25965523422
1t
0s
0r
1y
0c
0i
#25965524192
0t
0s
0r
1y
0c
0i
#25965525014
1t
0s
0r
1y
0c
0i
#25965525776
0t
0s
0r
1y
0c
0i
#25965526586
1t
0s
0r
1y
0c
0i
#25965527334
0t
0s
0r
1y
0c
0i
#25965528130
1t
0s
0r
1y
0c
0i
#25965528862
0t
0s
0r
1y
0c
0i
#25965529649
1t
0s
0r
1y
0c
0i
#25965530377
0t
0s
0r
1y
0c
0i
#25965531158
1t
0s
0r
1y
0c
0i
#25965531888
0t
0s
0r
1y
0c
0i
#25965532666
1t
0s
0r
1y
0c
0i
#25965533392
0t
0s
0r
1y
0c
0i
#25965534174
1t
0s
0r
1y
0c
0i
#25965534904
0t
0s
0r
1y
0c
0i
#25965535690
1t
0s
0r
1y
0c
0i
#25965536422
0t
0s
0r
1y
0c
0i
#25965537213
1t
0s
0r
1y
0c
0i
#25965537952
0t
0s
0r
1y
0c
0i
#25965538747
1t
0s
0r
1y
0c
0i
#25965539493
0t
0s
0r
1y
0c
0i
#25965540297
1t
0s
0r
1y
0c
0i
#25965541040
0t
0s
0r
1y
0c
0i
#25965541849
1t
0s
0r
1y
0c
0i
#25965542602
0t
0s
0r
1y
0c
0i
#25965543411
1t
0s
0r
1y
0c
0i
#25965544173
0t
0s
0r
1y
1c
0i
#25965544992
1t
0s
0r
1y
1c
0i
#25965545753
0t
0s
0r
1y
1c
0i
#25965546583
1t
0s
0r
1y
1c
0i
#25965547350
0t
0s
0r
1y
1c
0i
#25965548182
1t
0s
0r
1y
0c
0i
#25965548953
0t
0s
0r
1y
0c
1i
#25965549785
1t
0s
0r
1y
0c
1i
#25965550562
0t
0s
0r
1y
0c
1i
#25965551396
1t
0s
0r
1y
0c
0i
#25965552173
0t
0s
0r
1y
0c
0i
#25965553001
1t
0s
0r
1y
0c
0i
#25965553780
0t
0s
0r
1y
0c
0i
#25965554607
1t
0s
0r
1y
0c
0i
#25965555379
0t
0s
0r
1y
0c
0i
#25965556201
1t
0s
0r
1y
0c
0i
#25965556960
0t
0s
0r
1y
0c
0i
#25965557779
1t
0s
0r
1y
0c
0i
#25965558538
0t
0s
0r
1y
0c
0i
#25965559347
1t
0s
0r
1y
0c
0i
#25965560095
0t
0s
0r
1y
0c
0i
#25965560894
1t
0s
0r
1y
0c
0i
#25965561637
0t
0s
0r
1y
0c
0i
#25965562427
1t
0s
0r
1y
0c
0i
#25965563166
0t
0s
0r
1y
0c
0i
#25965563953
1t
0s
0r
1y
0c
0i
#25965564689
0t
0s
0r
1y
0c
0i
#25965565479
1t
0s
0r
1y
0c
0i
#25965566212
0t
0s
0r
1y
0c
0i
#25965567006
1t
0s
0r
1y
0c
0i
#25965567737
0t
0s
0r
1y
0c
0i
#25965568534
1t
0s
0r
1y
0c
0i
#25965569272
0t
0s
0r
1y
0c
0i
#25965570067
1t
0s
0r
1y
0c
0i
#25965570813
0t
0s
0r
1y
0c
0i
#25965571617
1t
0s
0r
1y
0c
0i
#25965572368
0t
0s
0r
1y
0c
0i
#25965573177
1t
0s
0r
1y
0c
0i
#25965573929
0t
0s
0r
1y
0c
0i
#25965574744
1t
0s
0r
1y
0c
0i
#25965575500
0t
0s
0r
1y
1c
0i
#25965576328
1t
0s
0r
1y
1c
0i
#25965577092
0t
0s
0r
1y
1c
0i
#25965577921
1t
0s
0r
1y
1c
0i
#25965578695
0t
0s
0r
1y
1c
0i
#25965579531
1t
0s
0r
1y
0c
0i
#25965580307
0t
0s
0r
1y
0c
1i
#25965581149
1t
0s
0r
1y
0c
1i
#25965581927
0t
0s
0r
1y
0c
1i
#25965582773
1t
0s
0r
1y
0c
0i
#25965583551
0t
0s
0r
1y
0c
0i
#25965584394
1t
0s
0r
1y
0c
0i
#25965585171
0t
0s
0r
1y
0c
0i
#25965586008
1t
0s
0r
1y
0c
0i
#25965586774
0t
0s
0r
1y
0c
0i
#25965587604
1t
0s
0r
1y
0c
0i
#25965590921
0t
0s
0r
1y
0c
0i
#25965592241
1t
0s
0r
1y
0c
0i
#25965592967
0t
0s
0r
1y
0c
0i
#25965593750
1t
0s
0r
1y
0c
0i
#25965594470
0t
0s
0r
1y
0c
0i
#25965595245
1t
0s
0r
1y
0c
0i
#25965595969
0t
0s
0r
1y
0c
0i
#25965596751
1t
0s
0r
1y
0c
0i
#25965597476
0t
0s
0r
1y
0c
0i
#25965598259
1t
0s
0r
1y
0c
0i
#25965598989
0t
0s
0r
1y
0c
0i
#25965599775
1t
0s
0r
1y
0c
0i
#25965600508
0t
0s
0r
1y
0c
0i
#25965601302
1t
0s
0r
1y
0c
0i
