rusefi_bundle_mega100/rusefi.snapshot.mega100/console/logs/rusEFI_trigger_log_2024-11-11_00_23_24_872.vcd
$date
	Mon Nov 11 00:23:24 CET 2024
$end
$version
        1.0
$end
$timescale
        1ps
$end
$scope module test $end
$var wire 1 t PRI_TRG $end
$var wire 1 s SEC_TRG $end
$var wire 1 r TRG $end
$var wire 1 y SYNC $end
$var wire 1 c COIL $end
$var wire 1 i INJ $end
$upscope $end
$enddefinitions $end
$dumpvars
#485722577267
1t
0s
0r
1y
0c
0i
#485722578276
0t
0s
0r
1y
0c
0i
#485722579330
1t
0s
0r
1y
0c
0i
#485722580298
0t
0s
0r
1y
0c
0i
#485722581364
1t
0s
0r
1y
0c
0i
#485722582360
0t
0s
0r
1y
0c
0i
#485722583398
1t
0s
0r
1y
0c
0i
#485722584399
0t
0s
0r
1y
0c
0i
#485722585466
1t
0s
0r
1y
0c
0i
#485722586462
0t
0s
0r
1y
0c
0i
#485722587517
1t
0s
0r
1y
0c
0i
#485722588530
0t
0s
0r
1y
0c
0i
#485722589603
1t
0s
0r
1y
0c
0i
#485722590598
0t
0s
0r
1y
0c
0i
#485722591670
1t
0s
0r
1y
0c
0i
#485722592688
0t
0s
0r
1y
0c
0i
#485722593800
1t
0s
0r
1y
0c
0i
#485722594796
0t
0s
0r
1y
0c
0i
#485722595925
1t
0s
0r
1y
0c
0i
#485722596918
0t
0s
0r
1y
0c
0i
#485722598039
1t
0s
0r
1y
0c
0i
#485722599082
0t
0s
0r
1y
0c
0i
#485722600236
1t
0s
0r
1y
0c
0i
#485722601258
0t
0s
0r
1y
0c
0i
#485722602404
1t
0s
0r
1y
0c
0i
#485722603492
0t
0s
0r
1y
0c
0i
#485722604640
1t
0s
0r
1y
0c
0i
#485722605733
0t
0s
0r
1y
0c
0i
#485722606902
1t
0s
0r
1y
0c
0i
#485722608027
0t
0s
0r
1y
0c
0i
#485722609212
1t
0s
0r
1y
1c
0i
#485722610334
0t
0s
0r
1y
1c
1i
#485722611536
1t
0s
0r
1y
1c
1i
#485722612683
0t
0s
0r
1y
1c
1i
#485722613877
1t
0s
0r
1y
0c
1i
#485722615033
0t
0s
0r
1y
0c
1i
#485722616231
1t
0s
0r
1y
0c
1i
#485722617383
0t
0s
0r
1y
0c
0i
#485722618568
1t
0s
0r
1y
0c
0i
#485722619723
0t
0s
0r
1y
0c
0i
#485722620921
1t
0s
0r
1y
0c
0i
#485722622049
0t
0s
0r
1y
0c
0i
#485722623234
1t
0s
0r
1y
0c
0i
#485722624366
0t
0s
0r
1y
0c
0i
#485722625581
1t
0s
0r
1y
0c
0i
#485722626704
0t
0s
0r
1y
0c
0i
#485722627894
1t
0s
0r
1y
0c
0i
#485722629038
0t
0s
0r
1y
0c
0i
#485722630256
1t
0s
0r
1y
0c
0i
#485722631373
0t
0s
0r
1y
0c
0i
#485722632590
1t
0s
0r
1y
0c
0i
#485722633735
0t
0s
0r
1y
0c
0i
#485722634965
1t
0s
0r
1y
0c
0i
#485722636111
0t
0s
0r
1y
0c
0i
#485722637342
1t
0s
0r
1y
0c
0i
#485722638508
0t
0s
0r
1y
0c
0i
#485722639756
1t
0s
0r
1y
0c
0i
#485722640922
0t
0s
0r
1y
0c
0i
#485722641257
0t
0s
1r
1y
0c
0i
#485722641260
0t
0s
0r
1y
0c
0i
#485722642179
1t
0s
0r
1y
0c
0i
#485722643381
0t
0s
0r
1y
0c
0i
#485722644660
1t
0s
0r
1y
0c
0i
#485722645867
0t
0s
0r
1y
0c
0i
#485722647165
1t
0s
0r
1y
0c
0i
#485722648406
0t
0s
0r
1y
0c
0i
#485722649755
1t
0s
0r
1y
0c
0i
#485722650983
0t
0s
0r
1y
0c
0i
#485722652345
1t
0s
0r
1y
0c
0i
#485722653645
0t
0s
0r
1y
0c
0i
#485722655027
1t
0s
0r
1y
0c
0i
#485722656347
0t
0s
0r
1y
0c
0i
#485722657755
1t
0s
0r
1y
1c
0i
#485722659101
0t
0s
0r
1y
1c
1i
#485722660542
1t
0s
0r
1y
1c
1i
#485722661880
0t
0s
0r
1y
1c
1i
#485722663318
1t
0s
0r
1y
0c
1i
#485722664675
0t
0s
0r
1y
0c
1i
#485722666116
1t
0s
0r
1y
0c
0i
#485722667471
0t
0s
0r
1y
0c
0i
#485722668887
1t
0s
0r
1y
0c
0i
#485722670226
0t
0s
0r
1y
0c
0i
#485722671663
1t
0s
0r
1y
0c
0i
#485722674232
0t
0s
0r
1y
0c
0i
#485722679973
1t
0s
0r
1y
0c
0i
#485722681319
0t
0s
0r
1y
0c
0i
#485722682757
1t
0s
0r
1y
0c
0i
#485722684116
0t
0s
0r
1y
0c
0i
#485722685550
1t
0s
0r
1y
0c
0i
#485722686905
0t
0s
0r
1y
0c
0i
#485722688351
1t
0s
0r
1y
0c
0i
#485722689727
0t
0s
0r
1y
0c
0i
#485722691212
1t
0s
0r
1y
0c
0i
#485722692600
0t
0s
0r
1y
0c
0i
#485722694075
1t
0s
0r
1y
0c
0i
#485722695497
0t
0s
0r
1y
0c
0i
#485722697023
1t
0s
0r
1y
0c
0i
#485722698471
0t
0s
0r
1y
0c
0i
#485722700030
1t
0s
0r
1y
0c
0i
#485722701502
0t
0s
0r
1y
0c
0i
#485722703091
1t
0s
0r
1y
0c
0i
#485722704609
0t
0s
0r
1y
0c
0i
#485722706278
1t
0s
0r
1y
0c
0i
#485722707812
0t
0s
0r
1y
0c
0i
#485722709539
1t
0s
0r
1y
0c
0i
#485722711113
0t
0s
0r
1y
0c
0i
#485722712889
1t
0s
0r
1y
0c
0i
#485722714529
0t
0s
0r
1y
0c
0i
#485722716315
1t
0s
0r
1y
0c
0i
#485722718021
0t
0s
0r
1y
0c
0i
#485722719820
1t
0s
0r
1y
0c
0i
#485722721548
0t
0s
0r
1y
0c
0i
#485722723375
1t
0s
0r
1y
0c
0i
#485722725115
0t
0s
0r
1y
0c
0i
#485722726960
1t
0s
0r
1y
0c
0i
#485722728700
0t
0s
0r
1y
0c
0i
#485722730553
1t
0s
0r
1y
0c
0i
#485722732277
0t
0s
0r
1y
0c
0i
#485722734080
1t
0s
0r
1y
0c
0i
#485722735821
0t
0s
0r
1y
0c
0i
#485722737641
1t
0s
0r
1y
0c
0i
#485722739340
0t
0s
0r
1y
0c
0i
#485722741176
1t
0s
0r
1y
0c
0i
#485722742892
0t
0s
0r
1y
0c
0i
#485722744721
1t
0s
0r
1y
0c
0i
#485722746429
0t
0s
0r
1y
0c
0i
#485722748258
1t
0s
0r
1y
0c
0i
#485722749991
0t
0s
0r
1y
0c
0i
#485722751832
1t
0s
0r
1y
0c
0i
#485722753590
0t
0s
0r
1y
0c
0i
#485722755469
1t
0s
0r
1y
0c
0i
#485722757235
0t
0s
0r
1y
0c
0i
#485722759123
1t
0s
0r
1y
0c
0i
#485722760940
0t
0s
0r
1y
0c
0i
#485722762877
1t
0s
0r
1y
0c
0i
#485722764737
0t
0s
0r
1y
0c
0i
#485722766733
1t
0s
0r
1y
0c
0i
#485722768651
0t
0s
0r
1y
0c
0i
#485722770715
1t
0s
0r
1y
0c
0i
#485722772666
0t
0s
0r
1y
0c
0i
#485722774801
1t
0s
0r
1y
0c
0i
#485722776849
0t
0s
0r
1y
0c
0i
#485722779089
1t
0s
0r
1y
0c
0i
#485722781220
0t
0s
0r
1y
0c
0i
#485722783535
1t
0s
0r
1y
0c
0i
#485722785830
0t
0s
0r
1y
0c
0i
#485722788296
1t
0s
0r
1y
0c
0i
#485722790718
0t
0s
0r
1y
0c
0i
#485722793356
1t
0s
0r
1y
0c
0i
#485722795934
0t
0s
0r
1y
0c
0i
#485722798723
1t
0s
0r
1y
0c
0i
#485722801416
0t
0s
0r
1y
0c
0i
#485722804342
1t
0s
0r
1y
0c
0i
#485722807099
0t
0s
0r
1y
0c
0i
#485722810013
1t
0s
0r
1y
0c
0i
#485722812816
0t
0s
0r
1y
0c
0i
#485722815739
1t
0s
0r
1y
0c
0i
#485722818475
0t
0s
0r
1y
0c
0i
#485722821386
1t
0s
0r
1y
0c
0i
#485722824060
0t
0s
0r
1y
0c
0i
#485722826847
1t
0s
0r
1y
0c
0i
#485722829544
0t
0s
0r
1y
0c
0i
#485722832317
1t
0s
0r
1y
0c
0i
#485722834970
0t
0s
0r
1y
0c
0i
#485722837727
1t
0s
0r
1y
0c
0i
#485722840379
0t
0s
0r
1y
0c
0i
#485722843146
1t
0s
0r
1y
0c
0i
#485722845814
0t
0s
0r
1y
0c
0i
#485722848625
1t
0s
0r
1y
0c
0i
#485722851333
0t
0s
0r
1y
0c
0i
#485722854217
1t
0s
0r
1y
0c
0i
#485722857013
0t
0s
0r
1y
0c
0i
#485722860013
1t
0s
0r
1y
0c
0i
#485722862926
0t
0s
0r
1y
0c
0i
#485722866066
1t
0s
0r
1y
0c
0i
#485722869168
0t
0s
0r
1y
0c
0i
#485722872517
1t
0s
0r
1y
0c
0i
#485722875884
0t
0s
0r
1y
0c
0i
#485722879614
1t
0s
0r
1y
0c
0i
#485722883366
0t
0s
0r
1y
0c
0i
#485722887594
1t
0s
0r
1y
0c
0i
#485722892064
0t
0s
0r
1y
0c
0i
#485722897258
1t
0s
0r
1y
0c
0i
#485722903136
0t
0s
0r
1y
0c
0i
#485722910861
1t
0s
0r
1y
0c
0i
#485722922618
0t
0s
0r
1y
0c
0i
#485722942006
1t
0s
0r
1y
0c
0i
#485722956670
0t
0s
0r
1y
0c
0i
#485722967918
1t
0s
0r
1y
0c
0i
#485722975109
0t
0s
0r
1y
0c
0i
#485722982385
1t
0s
0r
1y
0c
0i
#485722988265
0t
0s
0r
1y
0c
0i
#485722994278
1t
0s
0r
1y
0c
0i
#485722999393
0t
0s
0r
1y
0c
0i
#485723004967
1t
0s
0r
1y
0c
0i
#485723009942
0t
0s
0r
1y
0c
0i
#485723015149
1t
0s
0r
1y
0c
0i
#485723020007
0t
0s
0r
1y
0c
0i
#485723025196
1t
0s
0r
1y
0c
0i
#485723030120
0t
0s
0r
1y
0c
0i
#485723035440
1t
0s
0r
1y
0c
0i
#485723040474
0t
0s
0r
0y
0c
0i
#485723046270
1t
0s
0r
0y
0c
0i
#485723052063
0t
0s
0r
0y
0c
0i
#485723058383
1t
0s
0r
0y
0c
0i
#485723065163
0t
0s
0r
0y
0c
0i
#485723073219
1t
0s
0r
0y
0c
0i
#485723082618
0t
0s
0r
0y
0c
0i
#485723097830
1t
0s
0r
0y
0c
0i
#485723122613
0t
0s
0r
0y
0c
0i
#485723142823
1t
0s
0r
0y
0c
0i
#485723158514
0t
0s
0r
0y
0c
0i
#485723169922
1t
0s
0r
0y
0c
0i
#485723181994
0t
0s
0r
0y
0c
0i
#485723193118
1t
0s
0r
0y
0c
0i
#485723205200
0t
0s
0r
0y
0c
0i
#485723217906
1t
0s
0r
0y
0c
0i
#485723234087
0t
0s
0r
0y
0c
0i
#485723260571
1t
0s
0r
0y
0c
0i
#485723282622
0t
0s
0r
0y
0c
0i
#485728400925
1t
0s
0r
0y
0c
0i
