rusefi_bundle_mega100/rusefi.snapshot.mega100/console/logs/rusEFI_trigger_log_2024-11-04_16_08_06_519.vcd
$date
	Mon Nov 04 16:08:06 CET 2024
$end
$version
        1.0
$end
$timescale
        1ps
$end
$scope module test $end
$var wire 1 t PRI_TRG $end
$var wire 1 s SEC_TRG $end
$var wire 1 r TRG $end
$var wire 1 y SYNC $end
$var wire 1 c COIL $end
$var wire 1 i INJ $end
$upscope $end
$enddefinitions $end
$dumpvars
#15266096
1t
0s
0r
0y
0c
0i
#15267520
1t
1s
0r
0y
0c
0i
#15267520
1t
0s
0r
0y
0c
0i
#15273425
0t
0s
0r
0y
0c
0i
#15281416
1t
0s
0r
0y
0c
0i
#15288375
0t
0s
0r
0y
0c
0i
#15293344
0t
1s
0r
0y
0c
0i
#15293344
0t
0s
0r
0y
0c
0i
#15297428
1t
0s
0r
0y
0c
0i
#15302501
0t
0s
0r
0y
0c
0i
#15308779
1t
0s
0r
0y
0c
0i
#15313928
0t
0s
0r
0y
0c
0i
#15316101
0t
1s
0r
0y
0c
0i
#15316101
0t
0s
0r
0y
0c
0i
#15320362
1t
0s
0r
0y
0c
0i
#15324691
0t
0s
0r
0y
0c
0i
#15330175
1t
0s
0r
0y
0c
0i
#15334489
0t
0s
0r
0y
0c
0i
#15339825
1t
0s
0r
0y
0c
0i
#15343942
0t
0s
0r
0y
0c
0i
#15348980
1t
0s
0r
0y
0c
0i
#15352785
0t
0s
0r
0y
0c
0i
#15357652
1t
0s
0r
0y
0c
0i
#15361508
0t
0s
0r
0y
0c
0i
#15366329
1t
0s
0r
0y
0c
0i
#15369957
0t
0s
0r
0y
0c
0i
#15374564
1t
0s
0r
0y
0c
0i
#15378200
0t
0s
0r
0y
0c
0i
#15382876
1t
0s
0r
0y
0c
0i
#15386483
0t
0s
0r
0y
0c
0i
#15391052
1t
0s
0r
0y
0c
0i
#15394592
0t
0s
0r
0y
0c
0i
#15399083
1t
0s
0r
0y
0c
0i
#15402622
0t
0s
0r
0y
0c
0i
#15407147
1t
0s
0r
0y
0c
0i
#15410624
0t
0s
0r
0y
0c
0i
#15415007
1t
0s
0r
0y
0c
0i
#15418411
0t
0s
0r
0y
0c
0i
#15422705
1t
0s
0r
0y
0c
0i
#15426017
0t
0s
0r
0y
0c
0i
#15430180
1t
0s
0r
0y
0c
0i
#15433370
0t
0s
0r
0y
0c
0i
#15437335
1t
0s
0r
0y
0c
0i
#15440389
0t
0s
0r
0y
0c
0i
#15444123
1t
0s
0r
0y
0c
0i
#15447021
0t
0s
0r
0y
0c
0i
#15450536
1t
0s
0r
0y
0c
0i
#15453303
0t
0s
0r
0y
0c
0i
#15456662
1t
0s
0r
0y
0c
0i
#15459326
0t
0s
0r
0y
0c
0i
#15462561
1t
0s
0r
0y
0c
0i
#15465155
0t
0s
0r
0y
0c
0i
#15468311
1t
0s
0r
0y
0c
0i
#15470877
0t
0s
0r
0y
0c
0i
#15474005
1t
0s
0r
0y
0c
0i
#15476537
0t
0s
0r
0y
0c
0i
#15479684
1t
0s
0r
0y
0c
0i
#15482227
0t
0s
0r
0y
0c
0i
#15485419
1t
0s
0r
0y
0c
0i
#15488000
0t
0s
0r
0y
0c
0i
#15491264
1t
0s
0r
0y
0c
0i
#15493905
0t
0s
0r
0y
0c
0i
#15497275
1t
0s
0r
0y
0c
0i
#15499996
0t
0s
0r
0y
0c
0i
#15503410
1t
0s
0r
0y
0c
0i
#15506014
0t
0s
0r
0y
0c
0i
#15509016
1t
0s
0r
0y
0c
0i
#15511437
0t
0s
0r
0y
0c
0i
#15514548
1t
0s
0r
0y
0c
0i
#15517116
0t
0s
0r
0y
0c
0i
#15520369
1t
0s
0r
0y
0c
0i
#15522882
0t
0s
0r
0y
0c
0i
#15526006
1t
0s
0r
0y
0c
0i
#15528504
0t
0s
0r
0y
0c
0i
#15531623
1t
0s
0r
0y
0c
0i
#15534159
0t
0s
0r
0y
0c
0i
#15537294
1t
0s
0r
0y
0c
0i
#15539659
1t
1s
0r
0y
0c
0i
#15539659
1t
0s
0r
0y
0c
0i
#15539799
0t
0s
0r
0y
0c
0i
#15542873
1t
0s
0r
0y
0c
0i
#15545437
0t
0s
0r
0y
0c
0i
#15548621
1t
0s
0r
0y
0c
0i
#15551233
0t
0s
0r
0y
0c
0i
#15554384
1t
0s
0r
0y
0c
0i
#15556947
0t
0s
0r
0y
0c
0i
#15560107
1t
0s
0r
0y
0c
0i
#15562736
0t
0s
0r
0y
0c
0i
#15566024
1t
0s
0r
0y
0c
0i
#15568698
0t
0s
0r
0y
0c
0i
#15571998
1t
0s
0r
0y
0c
0i
#15574675
0t
0s
0r
0y
0c
0i
#15578030
1t
0s
0r
0y
0c
0i
#15580782
0t
0s
0r
0y
0c
0i
#15584225
1t
0s
0r
0y
0c
0i
#15587025
0t
0s
0r
0y
0c
0i
#15590490
1t
0s
0r
0y
0c
0i
#15593349
0t
0s
0r
0y
0c
0i
#15596822
1t
0s
0r
0y
0c
0i
#15599680
0t
0s
0r
0y
0c
0i
#15603106
1t
0s
0r
0y
0c
0i
#15605903
0t
0s
0r
0y
0c
0i
#15609247
1t
0s
0r
0y
0c
0i
#15611959
0t
0s
0r
0y
0c
0i
#15615131
1t
0s
0r
0y
0c
0i
#15617661
0t
0s
0r
0y
0c
0i
#15620571
1t
0s
0r
0y
0c
0i
#15622929
0t
0s
0r
0y
0c
0i
#15625590
1t
0s
0r
0y
0c
0i
#15627768
0t
0s
0r
0y
0c
0i
#15630236
1t
0s
0r
0y
0c
0i
#15632297
0t
0s
0r
0y
0c
0i
#15634625
1t
0s
0r
0y
0c
0i
#15636591
0t
0s
0r
0y
0c
0i
#15638820
1t
0s
0r
0y
0c
0i
#15640702
0t
0s
0r
0y
0c
0i
#15642846
1t
0s
0r
0y
0c
0i
#15648663
0t
0s
0r
0y
0c
0i
#15654730
1t
0s
0r
0y
0c
0i
#15656507
0t
0s
0r
1y
0c
0i
#15658588
1t
0s
0r
1y
0c
0i
#15660378
0t
0s
0r
1y
0c
0i
#15662471
1t
0s
0r
1y
0c
0i
#15664279
0t
0s
0r
1y
0c
0i
#15666386
1t
0s
0r
1y
0c
0i
#15666390
1t
1s
0r
1y
0c
0i
#15666390
1t
0s
0r
1y
0c
0i
#15668214
0t
0s
0r
1y
0c
0i
#15670346
1t
0s
0r
1y
0c
0i
#15672205
0t
0s
0r
1y
0c
0i
#15674377
1t
0s
0r
1y
0c
0i
#15676261
0t
0s
0r
1y
0c
0i
#15678487
1t
0s
0r
1y
0c
0i
#15680419
0t
0s
0r
1y
0c
0i
#15682705
1t
0s
0r
1y
0c
0i
#15684695
0t
0s
0r
1y
0c
0i
#15687071
1t
0s
0r
1y
0c
0i
#15689138
0t
0s
0r
1y
0c
0i
#15691623
1t
0s
0r
1y
0c
0i
#15693795
0t
0s
0r
1y
0c
0i
#15696431
1t
0s
0r
1y
0c
0i
#15698739
0t
0s
0r
1y
0c
0i
#15701598
1t
0s
0r
1y
0c
0i
#15704084
0t
0s
0r
1y
0c
0i
#15707180
1t
0s
0r
1y
0c
0i
#15709664
0t
0s
0r
1y
0c
0i
#15712388
1t
0s
0r
1y
0c
0i
#15714657
0t
0s
0r
1y
0c
0i
#15717396
1t
0s
0r
1y
0c
0i
#15719796
0t
0s
0r
1y
0c
0i
#15722828
1t
0s
0r
1y
0c
0i
#15725325
0t
0s
0r
1y
0c
0i
#15728236
1t
0s
0r
1y
1c
0i
#15730646
0t
0s
0r
1y
1c
1i
#15733601
1t
0s
0r
1y
0c
1i
#15736106
0t
0s
0r
1y
0c
1i
#15739156
1t
0s
0r
1y
0c
1i
#15741595
0t
0s
0r
1y
0c
1i
#15744500
1t
0s
0r
1y
0c
0i
#15746896
0t
0s
0r
1y
0c
0i
#15749762
1t
0s
0r
1y
0c
0i
#15751892
1t
0s
1r
1y
0c
0i
#15751894
1t
0s
0r
1y
0c
0i
#15752122
0t
0s
0r
1y
0c
0i
#15754896
1t
0s
0r
1y
0c
0i
#15757150
0t
0s
0r
1y
0c
0i
#15759771
1t
0s
0r
1y
0c
0i
#15761898
0t
0s
0r
1y
0c
0i
#15764348
1t
0s
0r
1y
0c
0i
#15766357
0t
0s
0r
1y
0c
0i
#15768670
1t
0s
0r
1y
0c
0i
#15770587
0t
0s
0r
1y
0c
0i
#15772794
1t
0s
0r
1y
0c
0i
#15774643
0t
0s
0r
1y
0c
0i
#15776777
1t
0s
0r
1y
0c
0i
#15778584
0t
0s
0r
1y
0c
0i
#15780668
1t
0s
0r
1y
0c
0i
#15782430
0t
0s
0r
1y
0c
0i
#15784493
1t
0s
0r
1y
0c
0i
#15786230
0t
0s
0r
1y
0c
0i
#15788278
1t
0s
0r
1y
0c
0i
#15790007
0t
0s
0r
1y
0c
0i
#15792045
1t
0s
0r
1y
0c
0i
#15793781
0t
0s
0r
1y
0c
0i
#15795827
1t
0s
0r
1y
0c
0i
#15797569
0t
0s
0r
1y
0c
0i
#15799626
1t
0s
0r
1y
0c
0i
#15801393
0t
0s
0r
1y
0c
0i
#15803463
1t
0s
0r
1y
0c
0i
#15805224
0t
0s
0r
1y
0c
0i
#15807341
1t
0s
0r
1y
0c
0i
#15809148
0t
0s
0r
1y
0c
0i
#15811305
1t
0s
0r
1y
0c
0i
#15813101
0t
0s
0r
1y
0c
0i
#15815313
1t
0s
0r
1y
0c
0i
#15817199
0t
0s
0r
1y
0c
0i
#15819456
1t
0s
0r
1y
0c
0i
#15821398
0t
0s
0r
1y
0c
0i
#15823743
1t
0s
0r
1y
0c
0i
#15825751
0t
0s
0r
1y
0c
0i
#15828209
1t
0s
0r
1y
0c
0i
#15830315
0t
0s
0r
1y
0c
0i
#15832917
1t
0s
0r
1y
0c
0i
#15835150
0t
0s
0r
1y
0c
0i
#15837952
1t
0s
0r
1y
0c
0i
#15840352
0t
0s
0r
1y
0c
0i
#15843277
1t
0s
0r
1y
0c
0i
#15845549
0t
0s
0r
1y
0c
0i
#15848138
1t
0s
0r
1y
0c
0i
#15850252
0t
0s
0r
1y
0c
0i
#15852902
1t
0s
0r
1y
0c
0i
#15855204
0t
0s
0r
1y
0c
0i
#15858063
1t
0s
0r
1y
0c
0i
#15860390
0t
0s
0r
1y
0c
0i
#15863098
1t
0s
0r
1y
1c
0i
#15865387
0t
0s
0r
1y
1c
1i
#15868143
1t
0s
0r
1y
0c
1i
#15870529
0t
0s
0r
1y
0c
1i
#15873407
1t
0s
0r
1y
0c
1i
#15875799
0t
0s
0r
1y
0c
1i
#15878550
1t
0s
0r
1y
0c
0i
#15880838
0t
0s
0r
1y
0c
0i
#15883525
1t
0s
0r
1y
0c
0i
#15885787
0t
0s
0r
1y
0c
0i
#15888386
1t
0s
0r
1y
0c
0i
#15890557
0t
0s
0r
1y
0c
0i
#15893048
1t
0s
0r
1y
0c
0i
#15895119
0t
0s
0r
1y
0c
0i
#15897461
1t
0s
0r
1y
0c
0i
#15899426
0t
0s
0r
1y
0c
0i
#15901646
1t
0s
0r
1y
0c
0i
#15903532
0t
0s
0r
1y
0c
0i
#15905657
1t
0s
0r
1y
0c
0i
#15907481
0t
0s
0r
1y
0c
0i
#15909542
1t
0s
0r
1y
0c
0i
#15911305
0t
0s
0r
1y
0c
0i
#15913306
1t
0s
0r
1y
0c
0i
#15918837
0t
0s
0r
1y
0c
0i
#15924540
1t
0s
0r
1y
0c
0i
#15926232
0t
0s
0r
1y
0c
0i
#15928207
1t
0s
0r
1y
0c
0i
#15929917
0t
0s
0r
1y
0c
0i
#15931909
1t
0s
0r
1y
0c
0i
#15933638
0t
0s
0r
1y
0c
0i
#15935644
1t
0s
0r
1y
0c
0i
#15937393
0t
0s
0r
1y
0c
0i
#15939428
1t
0s
0r
1y
0c
0i
#15941202
0t
0s
0r
1y
0c
0i
#15943272
1t
0s
0r
1y
0c
0i
#15945075
0t
0s
0r
1y
0c
0i
#15947193
1t
0s
0r
1y
0c
0i
#15949040
0t
0s
0r
1y
0c
0i
#15951216
1t
0s
0r
1y
0c
0i
#15951220
1t
1s
0r
1y
0c
0i
#15951220
1t
0s
0r
1y
0c
0i
#15953115
0t
0s
0r
1y
0c
0i
#15955368
1t
0s
0r
1y
0c
0i
#15957338
0t
0s
0r
1y
0c
0i
#15959689
1t
0s
0r
1y
0c
0i
#15961751
0t
0s
0r
1y
0c
0i
#15964231
1t
0s
0r
1y
0c
0i
#15966407
0t
0s
0r
1y
0c
0i
#15969071
1t
0s
0r
1y
0c
0i
#15971393
0t
0s
0r
1y
0c
0i
#15974243
1t
0s
0r
1y
0c
0i
#15976559
0t
0s
0r
1y
0c
0i
#15979068
1t
0s
0r
1y
0c
0i
#15981181
0t
0s
0r
1y
0c
0i
#15983682
1t
0s
0r
1y
0c
0i
#15985917
0t
0s
0r
1y
0c
0i
#15988717
1t
0s
0r
1y
0c
0i
#15991101
0t
0s
0r
1y
0c
0i
#15993859
1t
0s
0r
1y
0c
0i
#15996092
0t
0s
0r
1y
0c
0i
#15998743
1t
0s
0r
1y
0c
0i
#16001046
0t
0s
0r
1y
0c
0i
#16003862
1t
0s
0r
1y
0c
0i
#16006210
0t
0s
0r
1y
0c
0i
#16008967
1t
0s
0r
1y
0c
0i
#16011199
0t
0s
0r
1y
0c
0i
#16013825
1t
0s
0r
1y
0c
0i
#16016009
0t
0s
0r
1y
0c
0i
#16018555
1t
0s
0r
1y
0c
0i
#16020667
0t
0s
0r
1y
0c
0i
#16023102
1t
0s
0r
1y
0c
0i
#16025118
0t
0s
0r
1y
0c
0i
#16027437
1t
0s
0r
1y
0c
0i
#16029360
0t
0s
0r
1y
0c
0i
#16031562
1t
0s
0r
1y
0c
0i
#16033409
0t
0s
0r
1y
0c
0i
#16035523
1t
0s
0r
1y
0c
0i
#16037305
0t
0s
0r
1y
0c
0i
#16039353
1t
0s
0r
1y
0c
0i
#16041103
0t
0s
0r
1y
0c
0i
#16043109
1t
0s
0r
1y
0c
0i
#16044822
0t
0s
0r
1y
0c
0i
#16046816
1t
0s
0r
1y
0c
0i
#16048507
0t
0s
0r
1y
0c
0i
#16050490
1t
0s
0r
1y
0c
0i
#16052173
0t
0s
0r
1y
0c
0i
#16054145
1t
0s
0r
1y
0c
0i
#16055832
0t
0s
0r
1y
0c
0i
#16057809
1t
0s
0r
1y
0c
0i
#16059503
0t
0s
0r
1y
0c
0i
#16061492
1t
0s
0r
1y
0c
0i
#16063211
0t
0s
0r
1y
0c
0i
#16065211
1t
0s
0r
1y
0c
0i
#16066925
0t
0s
0r
1y
0c
0i
#16068970
1t
0s
0r
1y
0c
0i
#16070728
0t
0s
0r
1y
0c
0i
#16072806
1t
0s
0r
1y
0c
0i
#16074550
0t
0s
0r
1y
0c
0i
#16076677
1t
0s
0r
1y
0c
0i
#16078500
0t
0s
0r
1y
0c
0i
#16080668
1t
0s
0r
1y
0c
0i
#16082539
0t
0s
0r
1y
0c
0i
#16084784
1t
0s
0r
1y
0c
0i
#16086715
0t
0s
0r
1y
0c
0i
#16089063
1t
0s
0r
1y
0c
0i
#16091082
0t
0s
0r
1y
0c
0i
#16093551
1t
0s
0r
1y
0c
0i
#16095682
0t
0s
0r
1y
0c
0i
#16098317
1t
0s
0r
1y
0c
0i
#16100596
0t
0s
0r
1y
0c
0i
#16103433
1t
0s
0r
1y
0c
0i
#16105740
0t
0s
0r
1y
0c
0i
#16108350
1t
0s
0r
1y
0c
0i
#16110410
0t
0s
0r
1y
0c
0i
#16112889
1t
0s
0r
1y
0c
0i
#16115041
0t
0s
0r
1y
0c
0i
#16117741
1t
0s
0r
1y
0c
0i
#16120065
0t
0s
0r
1y
0c
0i
#16122789
1t
0s
0r
1y
1c
0i
#16125050
0t
0s
0r
1y
1c
1i
#16127662
1t
0s
0r
1y
0c
1i
#16129929
0t
0s
0r
1y
0c
1i
#16132664
1t
0s
0r
1y
0c
1i
#16135000
0t
0s
0r
1y
0c
1i
#16137735
1t
0s
0r
1y
0c
0i
#16139995
0t
0s
0r
1y
0c
0i
#16142604
1t
0s
0r
1y
0c
0i
#16144795
0t
0s
0r
1y
0c
0i
#16147307
1t
0s
0r
1y
0c
0i
#16149405
0t
0s
0r
1y
0c
0i
#16151804
1t
0s
0r
1y
0c
0i
#16153815
0t
0s
0r
1y
0c
0i
#16156081
1t
0s
0r
1y
0c
0i
#16157988
0t
0s
0r
1y
0c
0i
#16160144
1t
0s
0r
1y
0c
0i
#16161979
0t
0s
0r
1y
0c
0i
#16164042
1t
0s
0r
1y
0c
0i
#16165815
0t
0s
0r
1y
0c
0i
#16167814
1t
0s
0r
1y
0c
0i
#16169529
0t
0s
0r
1y
0c
0i
#16171469
1t
0s
0r
1y
0c
0i
#16176806
0t
0s
0r
1y
0c
0i
#16182420
1t
0s
0r
1y
0c
0i
#16184072
0t
0s
0r
1y
0c
0i
#16185995
1t
0s
0r
1y
0c
0i
#16187661
0t
0s
0r
1y
0c
0i
#16189597
1t
0s
0r
1y
0c
0i
#16191283
0t
0s
0r
1y
0c
0i
#16193236
1t
0s
0r
1y
0c
0i
#16193240
1t
1s
0r
1y
0c
0i
#16193240
1t
0s
0r
1y
0c
0i
#16194941
0t
0s
0r
1y
0c
0i
#16196920
1t
0s
0r
1y
0c
0i
#16198652
0t
0s
0r
1y
0c
0i
#16200668
1t
0s
0r
1y
0c
0i
#16202421
0t
0s
0r
1y
0c
0i
#16204477
1t
0s
0r
1y
0c
0i
#16206273
0t
0s
0r
1y
0c
0i
#16208381
1t
0s
0r
1y
0c
0i
#16210224
0t
0s
0r
1y
0c
0i
#16212405
1t
0s
0r
1y
0c
0i
#16214311
0t
0s
0r
1y
0c
0i
#16216582
1t
0s
0r
1y
0c
0i
#16218576
0t
0s
0r
1y
0c
0i
#16220963
1t
0s
0r
1y
0c
0i
#16223060
0t
0s
0r
1y
0c
0i
#16225609
1t
0s
0r
1y
0c
0i
#16227842
0t
0s
0r
1y
0c
0i
#16230609
1t
0s
0r
1y
0c
0i
#16232981
0t
0s
0r
1y
0c
0i
#16235623
1t
0s
0r
1y
0c
0i
#16237735
0t
0s
0r
1y
0c
0i
#16240143
1t
0s
0r
1y
0c
0i
#16242261
0t
0s
0r
1y
0c
0i
#16244920
1t
0s
0r
1y
0c
0i
#16247255
0t
0s
0r
1y
0c
0i
#16250062
1t
0s
0r
1y
0c
0i
#16252311
0t
0s
0r
1y
0c
0i
#16254923
1t
0s
0r
1y
0c
0i
#16257125
0t
0s
0r
1y
0c
0i
#16259827
1t
0s
0r
1y
0c
0i
#16262166
0t
0s
0r
1y
0c
0i
#16264977
1t
0s
0r
1y
0c
0i
#16267264
0t
0s
0r
1y
0c
0i
#16269913
1t
0s
0r
1y
0c
0i
#16272081
0t
0s
0r
1y
0c
0i
#16274605
1t
0s
0r
1y
0c
0i
#16276692
0t
0s
0r
1y
0c
0i
#16279104
1t
0s
0r
1y
0c
0i
#16281096
0t
0s
0r
1y
0c
0i
#16283386
1t
0s
0r
1y
0c
0i
#16285284
0t
0s
0r
1y
0c
0i
#16287466
1t
0s
0r
1y
0c
0i
#16289288
0t
0s
0r
1y
0c
0i
#16291378
1t
0s
0r
1y
0c
0i
#16293138
0t
0s
0r
1y
0c
0i
#16295156
1t
0s
0r
1y
0c
0i
#16296884
0t
0s
0r
1y
0c
0i
#16298861
1t
0s
0r
1y
0c
0i
#16300547
0t
0s
0r
1y
0c
0i
#16302517
1t
0s
0r
1y
0c
0i
#16304186
0t
0s
0r
1y
0c
0i
#16306150
1t
0s
0r
1y
0c
0i
#16307812
0t
0s
0r
1y
0c
0i
#16309762
1t
0s
0r
1y
0c
0i
#16311429
0t
0s
0r
1y
0c
0i
#16313384
1t
0s
0r
1y
0c
0i
#16315054
0t
0s
0r
1y
0c
0i
#16317015
1t
0s
0r
1y
0c
0i
#16318709
0t
0s
0r
1y
0c
0i
#16320680
1t
0s
0r
1y
0c
0i
#16322369
0t
0s
0r
1y
0c
0i
#16324390
1t
0s
0r
1y
0c
0i
#16326120
0t
0s
0r
1y
0c
0i
#16328175
1t
0s
0r
1y
0c
0i
#16329893
0t
0s
0r
1y
0c
0i
#16331991
1t
0s
0r
1y
0c
0i
#16333788
0t
0s
0r
1y
0c
0i
#16335921
1t
0s
0r
1y
0c
0i
#16337767
0t
0s
0r
1y
0c
0i
#16339977
1t
0s
0r
1y
0c
0i
#16341876
0t
0s
0r
1y
0c
0i
#16344189
1t
0s
0r
1y
0c
0i
#16346177
0t
0s
0r
1y
0c
0i
#16348608
1t
0s
0r
1y
0c
0i
#16350705
0t
0s
0r
1y
0c
0i
#16353299
1t
0s
0r
1y
0c
0i
#16355535
0t
0s
0r
1y
0c
0i
#16358341
1t
0s
0r
1y
0c
0i
#16360661
0t
0s
0r
1y
0c
0i
#16363279
1t
0s
0r
1y
0c
0i
#16365313
0t
0s
0r
1y
0c
0i
#16367750
1t
0s
0r
1y
0c
0i
#16369864
0t
0s
0r
1y
0c
0i
#16372545
1t
0s
0r
1y
0c
0i
#16374870
0t
0s
0r
1y
0c
0i
#16377625
1t
0s
0r
1y
1c
1i
#16379864
0t
0s
0r
1y
1c
1i
#16382424
1t
0s
0r
1y
0c
1i
#16384664
0t
0s
0r
1y
0c
1i
#16387365
1t
0s
0r
1y
0c
1i
#16389716
0t
0s
0r
1y
0c
1i
#16392490
1t
0s
0r
1y
0c
0i
#16394764
0t
0s
0r
1y
0c
0i
#16397352
1t
0s
0r
1y
0c
0i
#16399519
0t
0s
0r
1y
0c
0i
#16402007
1t
0s
0r
1y
0c
0i
#16404092
0t
0s
0r
1y
0c
0i
#16406469
1t
0s
0r
1y
0c
0i
#16408474
0t
0s
0r
1y
0c
0i
#16410734
1t
0s
0r
1y
0c
0i
#16412638
0t
0s
0r
1y
0c
0i
#16414794
1t
0s
0r
1y
0c
0i
#16416627
0t
0s
0r
1y
0c
0i
#16418691
1t
0s
0r
1y
0c
0i
#16420465
0t
0s
0r
1y
0c
0i
#16422470
1t
0s
0r
1y
0c
0i
#16424185
0t
0s
0r
1y
0c
0i
#16426131
1t
0s
0r
1y
0c
0i
#16431518
0t
0s
0r
1y
0c
0i
#16437092
1t
0s
0r
1y
0c
0i
#16438745
0t
0s
0r
1y
0c
0i
#16440670
1t
0s
0r
1y
0c
0i
#16442337
0t
0s
0r
1y
0c
0i
#16444275
1t
0s
0r
1y
0c
0i
#16445963
0t
0s
0r
1y
0c
0i
#16447920
1t
0s
0r
1y
0c
0i
#16449626
0t
0s
0r
1y
0c
0i
#16451608
1t
0s
0r
1y
0c
0i
#16453342
0t
0s
0r
1y
0c
0i
#16455361
1t
0s
0r
1y
0c
0i
#16457118
0t
0s
0r
1y
0c
0i
#16459177
1t
0s
0r
1y
0c
0i
#16460975
0t
0s
0r
1y
0c
0i
#16462763
0t
1s
0r
1y
0c
0i
#16462763
0t
0s
0r
1y
0c
0i
#16463088
1t
0s
0r
1y
0c
0i
#16464935
0t
0s
0r
1y
0c
0i
#16467120
1t
0s
0r
1y
0c
0i
#16469030
0t
0s
0r
1y
0c
0i
#16471304
1t
0s
0r
1y
0c
0i
#16473303
0t
0s
0r
1y
0c
0i
#16475698
1t
0s
0r
1y
0c
0i
#16477805
0t
0s
0r
1y
0c
0i
#16480367
1t
0s
0r
1y
0c
0i
#16482615
0t
0s
0r
1y
0c
0i
#16485395
1t
0s
0r
1y
0c
0i
#16487774
0t
0s
0r
1y
0c
0i
#16490451
1t
0s
0r
1y
0c
0i
#16492592
0t
0s
0r
1y
0c
0i
#16495003
1t
0s
0r
1y
0c
0i
#16497120
0t
0s
0r
1y
0c
0i
#16499737
1t
0s
0r
1y
0c
0i
#16502049
0t
0s
0r
1y
0c
0i
#16504829
1t
0s
0r
1y
0c
0i
#16507107
0t
0s
0r
1y
0c
0i
#16509727
1t
0s
0r
1y
0c
0i
#16511934
0t
0s
0r
1y
0c
0i
#16514623
1t
0s
0r
1y
0c
0i
#16516957
0t
0s
0r
1y
0c
0i
#16519779
1t
0s
0r
1y
0c
0i
#16522069
0t
0s
0r
1y
0c
0i
#16524700
1t
0s
0r
1y
0c
0i
#16526867
0t
0s
0r
1y
0c
0i
#16529386
1t
0s
0r
1y
0c
0i
#16531471
0t
0s
0r
1y
0c
0i
#16533871
1t
0s
0r
1y
0c
0i
#16535866
0t
0s
0r
1y
0c
0i
#16538146
1t
0s
0r
1y
0c
0i
#16540053
0t
0s
0r
1y
0c
0i
#16542240
1t
0s
0r
1y
0c
0i
#16544074
0t
0s
0r
1y
0c
0i
#16546174
1t
0s
0r
1y
0c
0i
#16547947
0t
0s
0r
1y
0c
0i
#16549978
1t
0s
0r
1y
0c
0i
#16551716
0t
0s
0r
1y
0c
0i
#16553700
1t
0s
0r
1y
0c
0i
#16555400
0t
0s
0r
1y
0c
0i
#16557373
1t
0s
0r
1y
0c
0i
#16559052
0t
0s
0r
1y
0c
0i
#16561020
1t
0s
0r
1y
0c
0i
#16562696
0t
0s
0r
1y
0c
0i
#16564658
1t
0s
0r
1y
0c
0i
#16566334
0t
0s
0r
1y
0c
0i
#16568301
1t
0s
0r
1y
0c
0i
#16569985
0t
0s
0r
1y
0c
0i
#16571957
1t
0s
0r
1y
0c
0i
#16573667
0t
0s
0r
1y
0c
0i
#16575650
1t
0s
0r
1y
0c
0i
#16577351
0t
0s
0r
1y
0c
0i
#16579380
1t
0s
0r
1y
0c
0i
#16581131
0t
0s
0r
1y
0c
0i
#16583199
1t
0s
0r
1y
0c
0i
#16584934
0t
0s
0r
1y
0c
0i
#16587050
1t
0s
0r
1y
0c
0i
#16588868
0t
0s
0r
1y
0c
0i
#16591023
1t
0s
0r
1y
0c
0i
#16592888
0t
0s
0r
1y
0c
0i
#16595118
1t
0s
0r
1y
0c
0i
#16597041
0t
0s
0r
1y
0c
0i
#16599375
1t
0s
0r
1y
0c
0i
#16601390
0t
0s
0r
1y
0c
0i
#16603852
1t
0s
0r
1y
0c
0i
#16605980
0t
0s
0r
1y
0c
0i
#16608615
1t
0s
0r
1y
0c
0i
#16610894
0t
0s
0r
1y
0c
0i
#16613727
1t
0s
0r
1y
0c
0i
#16616007
0t
0s
0r
1y
0c
0i
#16618556
1t
0s
0r
1y
0c
0i
#16620583
0t
0s
0r
1y
0c
0i
#16623051
1t
0s
0r
1y
0c
0i
#16625218
0t
0s
0r
1y
0c
0i
#16627986
1t
0s
0r
1y
0c
0i
#16630359
0t
0s
0r
1y
0c
0i
#16633101
1t
0s
0r
1y
1c
1i
#16635320
0t
0s
0r
1y
1c
1i
#16637889
1t
0s
0r
1y
0c
1i
#16640144
0t
0s
0r
1y
0c
1i
#16642927
1t
0s
0r
1y
0c
1i
#16645304
0t
0s
0r
1y
0c
1i
#16648078
1t
0s
0r
1y
0c
0i
#16650358
0t
0s
0r
1y
0c
0i
#16652957
1t
0s
0r
1y
0c
0i
#16655144
0t
0s
0r
1y
0c
0i
#16657650
1t
0s
0r
1y
0c
0i
#16659747
0t
0s
0r
1y
0c
0i
#16662146
1t
0s
0r
1y
0c
0i
#16664156
0t
0s
0r
1y
0c
0i
#16666419
1t
0s
0r
1y
0c
0i
#16668324
0t
0s
0r
1y
0c
0i
#16670472
1t
0s
0r
1y
0c
0i
#16672306
0t
0s
0r
1y
0c
0i
#16674365
1t
0s
0r
1y
0c
0i
#16676135
0t
0s
0r
1y
0c
0i
#16678132
1t
0s
0r
1y
0c
0i
#16679845
0t
0s
0r
1y
0c
0i
#16681784
1t
0s
0r
1y
0c
0i
#16687151
0t
0s
0r
1y
0c
0i
#16692711
1t
0s
0r
1y
0c
0i
#16694359
0t
0s
0r
1y
0c
0i
#16696279
1t
0s
0r
1y
0c
0i
#16697941
0t
0s
0r
1y
0c
0i
#16699875
1t
0s
0r
1y
0c
0i
#16701558
0t
0s
0r
1y
0c
0i
#16703508
1t
0s
0r
1y
0c
0i
#16705212
0t
0s
0r
1y
0c
0i
#16707189
1t
0s
0r
1y
0c
0i
#16707193
1t
1s
0r
1y
0c
0i
#16707193
1t
0s
0r
1y
0c
0i
#16708918
0t
0s
0r
1y
0c
0i
#16710925
1t
0s
0r
1y
0c
0i
#16712681
0t
0s
0r
1y
0c
0i
#16714736
1t
0s
0r
1y
0c
0i
#16716527
0t
0s
0r
1y
0c
0i
#16718632
1t
0s
0r
1y
0c
0i
#16720473
0t
0s
0r
1y
0c
0i
#16722652
1t
0s
0r
1y
0c
0i
#16724555
0t
0s
0r
1y
0c
0i
#16726821
1t
0s
0r
1y
0c
0i
#16728813
0t
0s
0r
1y
0c
0i
#16731196
1t
0s
0r
1y
0c
0i
#16733292
0t
0s
0r
1y
0c
0i
#16735840
1t
0s
0r
1y
0c
0i
#16738072
0t
0s
0r
1y
0c
0i
#16740839
1t
0s
0r
1y
0c
0i
#16743224
0t
0s
0r
1y
0c
0i
#16745937
1t
0s
0r
1y
0c
0i
#16748117
0t
0s
0r
1y
0c
0i
#16750551
1t
0s
0r
1y
0c
0i
#16752666
0t
0s
0r
1y
0c
0i
#16755276
1t
0s
0r
1y
0c
0i
#16757590
0t
0s
0r
1y
0c
0i
#16760425
1t
0s
0r
1y
0c
0i
#16762744
0t
0s
0r
1y
0c
0i
#16765419
1t
0s
0r
1y
0c
0i
#16767628
0t
0s
0r
1y
0c
0i
#16770315
1t
0s
0r
1y
0c
0i
#16772643
0t
0s
0r
1y
0c
0i
#16775484
1t
0s
0r
1y
0c
0i
#16777823
0t
0s
0r
1y
0c
0i
#16780523
1t
0s
0r
1y
0c
0i
#16782727
0t
0s
0r
1y
0c
0i
#16785278
1t
0s
0r
1y
0c
0i
#16787381
0t
0s
0r
1y
0c
0i
#16789801
1t
0s
0r
1y
0c
0i
#16791804
0t
0s
0r
1y
0c
0i
#16794104
1t
0s
0r
1y
0c
0i
