rusefi_bundle_mega100/rusefi.snapshot.mega100/console/logs/rusEFI_trigger_log_2024-10-29_16_43_35_149.vcd
$date
	Tue Oct 29 16:43:35 CET 2024
$end
$version
        1.0
$end
$timescale
        1ps
$end
$scope module test $end
$var wire 1 t PRI_TRG $end
$var wire 1 s SEC_TRG $end
$var wire 1 r TRG $end
$var wire 1 y SYNC $end
$var wire 1 c COIL $end
$var wire 1 i INJ $end
$upscope $end
$enddefinitions $end
$dumpvars
#140249946
1t
0s
0r
1y
0c
0i
#140250567
0t
0s
0r
1y
0c
0i
#140251237
1t
0s
0r
1y
0c
0i
#140251856
0t
0s
0r
1y
0c
0i
#140252528
1t
0s
0r
1y
0c
0i
#140255303
0t
0s
0r
1y
0c
0i
#140256367
1t
0s
0r
1y
0c
0i
#140256979
0t
0s
0r
1y
0c
0i
#140257638
1t
0s
0r
1y
0c
0i
#140258243
0t
0s
0r
1y
0c
0i
#140258896
1t
0s
0r
1y
0c
0i
#140259506
0t
0s
0r
1y
0c
0i
#140260157
1t
0s
0r
1y
0c
0i
#140260768
0t
0s
0r
1y
0c
0i
#140261421
1t
0s
0r
1y
0c
0i
#140262031
0t
0s
0r
1y
0c
0i
#140262687
1t
0s
0r
1y
0c
0i
#140263298
0t
0s
0r
1y
0c
0i
#140263954
1t
0s
0r
1y
0c
0i
#140264567
0t
0s
0r
1y
0c
0i
#140265224
1t
0s
0r
1y
0c
0i
#140265837
0t
0s
0r
1y
0c
0i
#140266502
1t
0s
0r
1y
0c
0i
#140267114
0t
0s
0r
1y
0c
0i
#140267778
1t
0s
0r
1y
0c
0i
#140268394
0t
0s
0r
1y
1c
0i
#140269059
1t
0s
0r
1y
1c
0i
#140269679
0t
0s
0r
1y
1c
0i
#140270348
1t
0s
0r
1y
1c
0i
#140270969
0t
0s
0r
1y
1c
0i
#140271636
1t
0s
0r
1y
0c
0i
#140272259
0t
0s
0r
1y
0c
1i
#140272930
1t
0s
0r
1y
0c
1i
#140273554
0t
0s
0r
1y
0c
1i
#140274225
1t
0s
0r
1y
0c
0i
#140274850
0t
0s
0r
1y
0c
0i
#140275522
1t
0s
0r
1y
0c
0i
#140276147
0t
0s
0r
1y
0c
0i
#140276816
1t
0s
0r
1y
0c
0i
#140277440
0t
0s
0r
1y
0c
0i
#140278110
1t
0s
0r
1y
0c
0i
#140278730
0t
0s
0r
1y
0c
0i
#140279399
1t
0s
0r
1y
0c
0i
#140280018
0t
0s
0r
1y
0c
0i
#140280685
1t
0s
0r
1y
0c
0i
#140281302
0t
0s
0r
1y
0c
0i
#140281967
1t
0s
0r
1y
0c
0i
#140282583
0t
0s
0r
1y
0c
0i
#140283246
1t
0s
0r
1y
0c
0i
#140283859
0t
0s
0r
1y
0c
0i
#140284519
1t
0s
0r
1y
0c
0i
#140285131
0t
0s
0r
1y
0c
0i
#140285789
1t
0s
0r
1y
0c
0i
#140286402
0t
0s
0r
1y
0c
0i
#140287060
1t
0s
0r
1y
0c
0i
#140287673
0t
0s
0r
1y
0c
0i
#140288330
1t
0s
0r
1y
0c
0i
#140288942
0t
0s
0r
1y
0c
0i
#140289602
1t
0s
0r
1y
0c
0i
#140290216
0t
0s
0r
1y
0c
0i
#140290876
1t
0s
0r
1y
0c
0i
#140291493
0t
0s
0r
1y
0c
0i
#140292155
1t
0s
0r
1y
0c
0i
#140292771
0t
0s
0r
1y
0c
0i
#140293431
1t
0s
0r
1y
0c
0i
#140294052
0t
0s
0r
1y
1c
0i
#140294718
1t
0s
0r
1y
1c
0i
#140295336
0t
0s
0r
1y
1c
0i
#140296002
1t
0s
0r
1y
1c
0i
#140296626
0t
0s
0r
1y
1c
0i
#140297296
1t
0s
0r
1y
0c
0i
#140297918
0t
0s
0r
1y
0c
1i
#140298585
1t
0s
0r
1y
0c
1i
#140299212
0t
0s
0r
1y
0c
1i
#140299882
1t
0s
0r
1y
0c
0i
#140300508
0t
0s
0r
1y
0c
0i
#140301177
1t
0s
0r
1y
0c
0i
#140301805
0t
0s
0r
1y
0c
0i
#140302471
1t
0s
0r
1y
0c
0i
#140303098
0t
0s
0r
1y
0c
0i
#140303767
1t
0s
0r
1y
0c
0i
#140304389
0t
0s
0r
1y
0c
0i
#140305054
1t
0s
0r
1y
0c
0i
#140305677
0t
0s
0r
1y
0c
0i
#140306345
1t
0s
0r
1y
0c
0i
#140306965
0t
0s
0r
1y
0c
0i
#140307631
1t
0s
0r
1y
0c
0i
#140308248
0t
0s
0r
1y
0c
0i
#140308909
1t
0s
0r
1y
0c
0i
#140309525
0t
0s
0r
1y
0c
0i
#140310185
1t
0s
0r
1y
0c
0i
#140310801
0t
0s
0r
1y
0c
0i
#140311467
1t
0s
0r
1y
0c
0i
#140312077
0t
0s
0r
1y
0c
0i
#140312741
1t
0s
0r
1y
0c
0i
#140313350
0t
0s
0r
1y
0c
0i
#140314011
1t
0s
0r
1y
0c
0i
#140314622
0t
0s
0r
1y
0c
0i
#140315282
1t
0s
0r
1y
0c
0i
#140315898
0t
0s
0r
1y
0c
0i
#140316558
1t
0s
0r
1y
0c
0i
#140317172
0t
0s
0r
1y
0c
0i
#140317840
1t
0s
0r
1y
0c
0i
#140318452
0t
0s
0r
1y
0c
0i
#140319119
1t
0s
0r
1y
0c
0i
#140319732
0t
0s
0r
1y
1c
0i
#140320401
1t
0s
0r
1y
1c
0i
#140321021
0t
0s
0r
1y
1c
0i
#140321692
1t
0s
0r
1y
1c
0i
#140322313
0t
0s
0r
1y
1c
0i
#140322983
1t
0s
0r
1y
0c
0i
#140323607
0t
0s
0r
1y
0c
1i
#140324277
1t
0s
0r
1y
0c
1i
#140324904
0t
0s
0r
1y
0c
1i
#140325586
1t
0s
0r
1y
0c
0i
#140326206
0t
0s
0r
1y
0c
0i
#140326878
1t
0s
0r
1y
0c
0i
#140327504
0t
0s
0r
1y
0c
0i
#140328176
1t
0s
0r
1y
0c
0i
#140328798
0t
0s
0r
1y
0c
0i
#140329473
1t
0s
0r
1y
0c
0i
#140332276
0t
0s
0r
1y
0c
0i
#140333338
1t
0s
0r
1y
0c
0i
#140333951
0t
0s
0r
1y
0c
0i
#140334612
1t
0s
0r
1y
0c
0i
#140335222
0t
0s
0r
1y
0c
0i
#140335881
1t
0s
0r
1y
0c
0i
#140336491
0t
0s
0r
1y
0c
0i
#140337150
1t
0s
0r
1y
0c
0i
#140337759
0t
0s
0r
1y
0c
0i
#140338415
1t
0s
0r
1y
0c
0i
#140339027
0t
0s
0r
1y
0c
0i
#140339686
1t
0s
0r
1y
0c
0i
#140340298
0t
0s
0r
1y
0c
0i
#140340958
1t
0s
0r
1y
0c
0i
#140341572
0t
0s
0r
1y
0c
0i
#140342235
1t
0s
0r
1y
0c
0i
#140342847
0t
0s
0r
1y
0c
0i
#140343513
1t
0s
0r
1y
0c
0i
#140344126
0t
0s
0r
1y
0c
0i
#140344794
1t
0s
0r
1y
0c
0i
#140345410
0t
0s
0r
1y
1c
0i
#140346075
1t
0s
0r
1y
1c
0i
#140346699
0t
0s
0r
1y
1c
0i
#140347368
1t
0s
0r
1y
1c
0i
#140347990
0t
0s
0r
1y
1c
0i
#140348658
1t
0s
0r
1y
0c
0i
#140349284
0t
0s
0r
1y
0c
1i
#140349958
1t
0s
0r
1y
0c
1i
#140350581
0t
0s
0r
1y
0c
1i
#140351258
1t
0s
0r
1y
0c
0i
#140351882
0t
0s
0r
1y
0c
0i
#140352554
1t
0s
0r
1y
0c
0i
#140353180
0t
0s
0r
1y
0c
0i
#140353852
1t
0s
0r
1y
0c
0i
#140354476
0t
0s
0r
1y
0c
0i
#140355145
1t
0s
0r
1y
0c
0i
#140355771
0t
0s
0r
1y
0c
0i
#140356439
1t
0s
0r
1y
0c
0i
#140357058
0t
0s
0r
1y
0c
0i
#140357727
1t
0s
0r
1y
0c
0i
#140358345
0t
0s
0r
1y
0c
0i
#140359010
1t
0s
0r
1y
0c
0i
#140359627
0t
0s
0r
1y
0c
0i
#140360287
1t
0s
0r
1y
0c
0i
#140360902
0t
0s
0r
1y
0c
0i
#140361563
1t
0s
0r
1y
0c
0i
#140362175
0t
0s
0r
1y
0c
0i
#140362835
1t
0s
0r
1y
0c
0i
#140363447
0t
0s
0r
1y
0c
0i
#140364105
1t
0s
0r
1y
0c
0i
#140364719
0t
0s
0r
1y
0c
0i
#140365378
1t
0s
0r
1y
0c
0i
#140365991
0t
0s
0r
1y
0c
0i
#140366648
1t
0s
0r
1y
0c
0i
#140367265
0t
0s
0r
1y
0c
0i
#140367931
1t
0s
0r
1y
0c
0i
#140368547
0t
0s
0r
1y
0c
0i
#140369208
1t
0s
0r
1y
0c
0i
#140369827
0t
0s
0r
1y
0c
0i
#140370487
1t
0s
0r
1y
0c
0i
#140371109
0t
0s
0r
1y
1c
0i
#140371777
1t
0s
0r
1y
1c
0i
#140372397
0t
0s
0r
1y
1c
0i
#140373068
1t
0s
0r
1y
1c
0i
#140373688
0t
0s
0r
1y
1c
0i
#140374359
1t
0s
0r
1y
0c
0i
#140374984
0t
0s
0r
1y
0c
1i
#140375654
1t
0s
0r
1y
0c
1i
#140376281
0t
0s
0r
1y
0c
1i
#140376951
1t
0s
0r
1y
0c
0i
#140377580
0t
0s
0r
1y
0c
0i
#140378248
1t
0s
0r
1y
0c
0i
#140378879
0t
0s
0r
1y
0c
0i
#140379547
1t
0s
0r
1y
0c
0i
#140380174
0t
0s
0r
1y
0c
0i
#140380842
1t
0s
0r
1y
0c
0i
#140381463
0t
0s
0r
1y
0c
0i
#140382133
1t
0s
0r
1y
0c
0i
#140382751
0t
0s
0r
1y
0c
0i
#140383418
1t
0s
0r
1y
0c
0i
#140384035
0t
0s
0r
1y
0c
0i
#140384698
1t
0s
0r
1y
0c
0i
#140384845
1t
1s
0r
1y
0c
0i
#140384845
1t
0s
0r
1y
0c
0i
#140385313
0t
0s
0r
1y
0c
0i
#140385966
1t
0s
0r
1y
0c
0i
#140386581
0t
0s
0r
1y
0c
0i
#140387235
1t
0s
0r
1y
0c
0i
#140387847
0t
0s
0r
1y
0c
0i
#140388505
1t
0s
0r
1y
0c
0i
#140389113
0t
0s
0r
1y
0c
0i
#140389772
1t
0s
0r
1y
0c
0i
#140390382
0t
0s
0r
1y
0c
0i
#140391040
1t
0s
0r
1y
0c
0i
#140391649
0t
0s
0r
1y
0c
0i
#140392309
1t
0s
0r
1y
0c
0i
#140392921
0t
0s
0r
1y
0c
0i
#140393582
1t
0s
0r
1y
0c
0i
#140394197
0t
0s
0r
1y
0c
0i
#140394857
1t
0s
0r
1y
0c
0i
#140395474
0t
0s
0r
1y
0c
0i
#140396140
1t
0s
0r
1y
0c
0i
#140396751
0t
0s
0r
1y
1c
0i
#140397422
1t
0s
0r
1y
1c
0i
#140398041
0t
0s
0r
1y
1c
0i
#140398710
1t
0s
0r
1y
1c
0i
#140399331
0t
0s
0r
1y
1c
0i
#140399999
1t
0s
0r
1y
0c
0i
#140400621
0t
0s
0r
1y
0c
1i
#140401295
1t
0s
0r
1y
0c
1i
#140401916
0t
0s
0r
1y
0c
1i
#140402588
1t
0s
0r
1y
0c
0i
#140402926
1t
0s
1r
1y
0c
0i
#140402928
1t
0s
0r
1y
0c
0i
#140403211
0t
0s
0r
1y
0c
0i
#140403885
1t
0s
0r
1y
0c
0i
#140404506
0t
0s
0r
1y
0c
0i
#140405178
1t
0s
0r
1y
0c
0i
#140405798
0t
0s
0r
1y
0c
0i
#140406472
1t
0s
0r
1y
0c
0i
#140409226
0t
0s
0r
1y
0c
0i
#140410334
1t
0s
0r
1y
0c
0i
#140410952
0t
0s
0r
1y
0c
0i
#140411616
1t
0s
0r
1y
0c
0i
#140412230
0t
0s
0r
1y
0c
0i
#140412890
1t
0s
0r
1y
0c
0i
#140413508
0t
0s
0r
1y
0c
0i
#140414166
1t
0s
0r
1y
0c
0i
#140414782
0t
0s
0r
1y
0c
0i
#140415444
1t
0s
0r
1y
0c
0i
#140416058
0t
0s
0r
1y
0c
0i
#140416716
1t
0s
0r
1y
0c
0i
#140417331
0t
0s
0r
1y
0c
0i
#140417993
1t
0s
0r
1y
0c
0i
#140418607
0t
0s
0r
1y
0c
0i
#140419269
1t
0s
0r
1y
0c
0i
#140419885
0t
0s
0r
1y
0c
0i
#140420553
1t
0s
0r
1y
0c
0i
#140421166
0t
0s
0r
1y
0c
0i
#140421832
1t
0s
0r
1y
0c
0i
#140422452
0t
0s
0r
1y
1c
0i
#140423121
1t
0s
0r
1y
1c
0i
#140423743
0t
0s
0r
1y
1c
0i
#140424412
1t
0s
0r
1y
1c
0i
#140425035
0t
0s
0r
1y
1c
0i
#140425706
1t
0s
0r
1y
0c
0i
#140426330
0t
0s
0r
1y
0c
1i
#140427005
1t
0s
0r
1y
0c
1i
#140427632
0t
0s
0r
1y
0c
1i
#140428305
1t
0s
0r
1y
0c
0i
#140428933
0t
0s
0r
1y
0c
0i
#140429607
1t
0s
0r
1y
0c
0i
#140430235
0t
0s
0r
1y
0c
0i
#140430909
1t
0s
0r
1y
0c
0i
#140431532
0t
0s
0r
1y
0c
0i
#140432207
1t
0s
0r
1y
0c
0i
#140432829
0t
0s
0r
1y
0c
0i
#140433496
1t
0s
0r
1y
0c
0i
#140434120
0t
0s
0r
1y
0c
0i
#140434785
1t
0s
0r
1y
0c
0i
#140435404
0t
0s
0r
1y
0c
0i
#140436066
1t
0s
0r
1y
0c
0i
#140436684
0t
0s
0r
1y
0c
0i
#140437341
1t
0s
0r
1y
0c
0i
#140437954
0t
0s
0r
1y
0c
0i
#140438609
1t
0s
0r
1y
0c
0i
#140439221
0t
0s
0r
1y
0c
0i
#140439879
1t
0s
0r
1y
0c
0i
#140440490
0t
0s
0r
1y
0c
0i
#140441146
1t
0s
0r
1y
0c
0i
#140441759
0t
0s
0r
1y
0c
0i
#140442418
1t
0s
0r
1y
0c
0i
#140443032
0t
0s
0r
1y
0c
0i
#140443689
1t
0s
0r
1y
0c
0i
#140444309
0t
0s
0r
1y
0c
0i
#140444969
1t
0s
0r
1y
0c
0i
#140445587
0t
0s
0r
1y
0c
0i
#140446251
1t
0s
0r
1y
0c
0i
#140446869
0t
0s
0r
1y
0c
0i
#140447533
1t
0s
0r
1y
0c
0i
#140448155
0t
0s
0r
1y
1c
0i
#140448819
1t
0s
0r
1y
1c
0i
#140449443
0t
0s
0r
1y
1c
0i
#140450113
1t
0s
0r
1y
1c
0i
#140450736
0t
0s
0r
1y
1c
0i
#140451407
1t
0s
0r
1y
0c
0i
#140452030
0t
0s
0r
1y
0c
1i
#140452702
1t
0s
0r
1y
0c
1i
#140453328
0t
0s
0r
1y
0c
1i
#140454000
1t
0s
0r
1y
0c
0i
#140454628
0t
0s
0r
1y
0c
0i
#140455297
1t
0s
0r
1y
0c
0i
#140455927
0t
0s
0r
1y
0c
0i
#140456597
1t
0s
0r
1y
0c
0i
#140457223
0t
0s
0r
1y
0c
0i
#140457893
1t
0s
0r
1y
0c
0i
#140458514
0t
0s
0r
1y
0c
0i
#140459180
1t
0s
0r
1y
0c
0i
#140459802
0t
0s
0r
1y
0c
0i
#140460468
1t
0s
0r
1y
0c
0i
#140461085
0t
0s
0r
1y
0c
0i
#140461749
1t
0s
0r
1y
0c
0i
#140462365
0t
0s
0r
1y
0c
0i
#140463020
1t
0s
0r
1y
0c
0i
#140463633
0t
0s
0r
1y
0c
0i
#140464290
1t
0s
0r
1y
0c
0i
#140464902
0t
0s
0r
1y
0c
0i
#140465557
1t
0s
0r
1y
0c
0i
#140466169
0t
0s
0r
1y
0c
0i
#140466827
1t
0s
0r
1y
0c
0i
#140467435
0t
0s
0r
1y
0c
0i
#140468094
1t
0s
0r
1y
0c
0i
#140468704
0t
0s
0r
1y
0c
0i
#140469362
1t
0s
0r
1y
0c
0i
#140469973
0t
0s
0r
1y
0c
0i
#140470633
1t
0s
0r
1y
0c
0i
#140471247
0t
0s
0r
1y
0c
0i
#140471912
1t
0s
0r
1y
0c
0i
#140472525
0t
0s
0r
1y
0c
0i
#140473192
1t
0s
0r
1y
0c
0i
#140473801
0t
0s
0r
1y
1c
0i
#140474467
1t
0s
0r
1y
1c
0i
#140475089
0t
0s
0r
1y
1c
0i
#140475758
1t
0s
0r
1y
1c
0i
#140476378
0t
0s
0r
1y
1c
0i
#140477049
1t
0s
0r
1y
0c
0i
#140477671
0t
0s
0r
1y
0c
1i
#140478344
1t
0s
0r
1y
0c
1i
#140478964
0t
0s
0r
1y
0c
1i
#140479639
1t
0s
0r
1y
0c
0i
#140480261
0t
0s
0r
1y
0c
0i
#140480936
1t
0s
0r
1y
0c
0i
#140481557
0t
0s
0r
1y
0c
0i
#140482232
1t
0s
0r
1y
0c
0i
#140482850
0t
0s
0r
1y
0c
0i
#140483521
1t
0s
0r
1y
0c
0i
#140486299
0t
0s
0r
1y
0c
0i
#140487380
1t
0s
0r
1y
0c
0i
#140487992
0t
0s
0r
1y
0c
0i
#140488653
1t
0s
0r
1y
0c
0i
#140489262
0t
0s
0r
1y
0c
0i
#140489919
1t
0s
0r
1y
0c
0i
#140490529
0t
0s
0r
1y
0c
0i
#140491184
1t
0s
0r
1y
0c
0i
#140491794
0t
0s
0r
1y
0c
0i
#140492450
1t
0s
0r
1y
0c
0i
#140493061
0t
0s
0r
1y
0c
0i
#140493719
1t
0s
0r
1y
0c
0i
#140494329
0t
0s
0r
1y
0c
0i
#140494986
1t
0s
0r
1y
0c
0i
#140495599
0t
0s
0r
1y
0c
0i
#140496259
1t
0s
0r
1y
0c
0i
#140496872
0t
0s
0r
1y
0c
0i
#140497536
1t
0s
0r
1y
0c
0i
#140498148
0t
0s
0r
1y
0c
0i
#140498814
1t
0s
0r
1y
0c
0i
#140499430
0t
0s
0r
1y
1c
0i
#140500098
1t
0s
0r
1y
1c
0i
#140500718
0t
0s
0r
1y
1c
0i
#140501382
1t
0s
0r
1y
1c
0i
#140502004
0t
0s
0r
1y
1c
0i
#140502672
1t
0s
0r
1y
0c
0i
#140503297
0t
0s
0r
1y
0c
1i
#140503967
1t
0s
0r
1y
0c
1i
#140504591
0t
0s
0r
1y
0c
1i
#140505261
1t
0s
0r
1y
0c
0i
#140505887
0t
0s
0r
1y
0c
0i
#140506559
1t
0s
0r
1y
0c
0i
#140507183
0t
0s
0r
1y
0c
0i
#140507855
1t
0s
0r
1y
0c
0i
#140508475
0t
0s
0r
1y
0c
0i
#140509142
1t
0s
0r
1y
0c
0i
#140509767
0t
0s
0r
1y
0c
0i
#140510435
1t
0s
0r
1y
0c
0i
#140511056
0t
0s
0r
1y
0c
0i
#140511725
1t
0s
0r
1y
0c
0i
#140512344
0t
0s
0r
1y
0c
0i
#140513011
1t
0s
0r
1y
0c
0i
#140513630
0t
0s
0r
1y
0c
0i
#140514296
1t
0s
0r
1y
0c
0i
#140514913
0t
0s
0r
1y
0c
0i
#140515577
1t
0s
0r
1y
0c
0i
#140516193
0t
0s
0r
1y
0c
0i
#140516854
1t
0s
0r
1y
0c
0i
#140517471
0t
0s
0r
1y
0c
0i
#140518134
1t
0s
0r
1y
0c
0i
#140518749
0t
0s
0r
1y
0c
0i
#140519408
1t
0s
0r
1y
0c
0i
#140520024
0t
0s
0r
1y
0c
0i
#140520686
1t
0s
0r
1y
0c
0i
#140521302
0t
0s
0r
1y
0c
0i
#140521968
1t
0s
0r
1y
0c
0i
#140522586
0t
0s
0r
1y
0c
0i
#140523249
1t
0s
0r
1y
0c
0i
#140523869
0t
0s
0r
1y
0c
0i
#140524529
1t
0s
0r
1y
0c
0i
#140525154
0t
0s
0r
1y
1c
0i
#140525820
1t
0s
0r
1y
1c
0i
#140526444
0t
0s
0r
1y
1c
0i
#140527110
1t
0s
0r
1y
1c
0i
#140527736
0t
0s
0r
1y
1c
0i
#140528410
1t
0s
0r
1y
0c
0i
#140529032
0t
0s
0r
1y
0c
1i
#140529703
1t
0s
0r
1y
0c
1i
#140530332
0t
0s
0r
1y
0c
1i
#140531003
1t
0s
0r
1y
0c
0i
#140531632
0t
0s
0r
1y
0c
0i
#140532303
1t
0s
0r
1y
0c
0i
#140532933
0t
0s
0r
1y
0c
0i
#140533605
1t
0s
0r
1y
0c
0i
#140534231
0t
0s
0r
1y
0c
0i
#140534899
1t
0s
0r
1y
0c
0i
#140535523
0t
0s
0r
1y
0c
0i
#140536189
1t
0s
0r
1y
0c
0i
#140536813
0t
0s
0r
1y
0c
0i
#140537481
1t
0s
0r
1y
0c
0i
#140538099
0t
0s
0r
1y
0c
0i
#140538761
1t
0s
0r
1y
0c
0i
#140538878
1t
1s
0r
1y
0c
0i
#140538878
1t
0s
0r
1y
0c
0i
#140539375
0t
0s
0r
1y
0c
0i
#140540031
1t
0s
0r
1y
0c
0i
#140540643
0t
0s
0r
1y
0c
0i
#140541298
1t
0s
0r
1y
0c
0i
#140541912
0t
0s
0r
1y
0c
0i
#140542567
1t
0s
0r
1y
0c
0i
#140543177
0t
0s
0r
1y
0c
0i
#140543838
1t
0s
0r
1y
0c
0i
#140544445
0t
0s
0r
1y
0c
0i
#140545101
1t
0s
0r
1y
0c
0i
#140545714
0t
0s
0r
1y
0c
0i
#140546374
1t
0s
0r
1y
0c
0i
#140546985
0t
0s
0r
1y
0c
0i
#140547647
1t
0s
0r
1y
0c
0i
#140548264
0t
0s
0r
1y
0c
0i
#140548927
1t
0s
0r
1y
0c
0i
#140549542
0t
0s
0r
1y
0c
0i
#140550210
1t
0s
0r
1y
0c
0i
#140550823
0t
0s
0r
1y
1c
0i
#140551492
1t
0s
0r
1y
1c
0i
#140552113
0t
0s
0r
1y
1c
0i
#140552784
1t
0s
0r
1y
1c
0i
#140553406
0t
0s
0r
1y
1c
0i
#140554075
1t
0s
0r
1y
0c
0i
#140554698
0t
0s
0r
1y
0c
1i
#140555371
1t
0s
0r
1y
0c
1i
#140555994
0t
0s
0r
1y
0c
1i
#140556668
1t
0s
0r
1y
0c
0i
#140556816
1t
0s
1r
1y
0c
0i
#140556819
1t
0s
0r
1y
0c
0i
#140557292
0t
0s
0r
1y
0c
0i
#140557964
1t
0s
0r
1y
0c
0i
#140558587
0t
0s
0r
1y
0c
0i
#140559260
1t
0s
0r
1y
0c
0i
#140559879
0t
0s
0r
1y
0c
0i
#140560552
1t
0s
0r
1y
0c
0i
#140563339
0t
0s
0r
1y
0c
0i
#140564399
1t
0s
0r
1y
0c
0i
#140565008
0t
0s
0r
1y
0c
0i
#140565667
1t
0s
0r
1y
0c
0i
#140566276
0t
0s
0r
1y
0c
0i
#140566933
1t
0s
0r
1y
0c
0i
#140567539
0t
0s
0r
1y
0c
0i
#140568191
1t
0s
0r
1y
0c
0i
#140568804
0t
0s
0r
1y
0c
0i
#140569461
1t
0s
0r
1y
0c
0i
#140570070
0t
0s
0r
1y
0c
0i
#140570730
1t
0s
0r
1y
0c
0i
#140571339
0t
0s
0r
1y
0c
0i
#140571997
1t
0s
0r
1y
0c
0i
#140572612
0t
0s
0r
1y
0c
0i
#140573272
1t
0s
0r
1y
0c
0i
#140573886
0t
0s
0r
1y
0c
0i
#140574547
1t
0s
0r
1y
0c
0i
#140575160
0t
0s
0r
1y
0c
0i
#140575828
1t
0s
0r
1y
0c
0i
#140576444
0t
0s
0r
1y
1c
0i
#140577110
1t
0s
0r
1y
1c
0i
#140577731
0t
0s
0r
1y
1c
0i
#140578401
1t
0s
0r
1y
1c
0i
#140579024
0t
0s
0r
1y
1c
0i
#140579692
1t
0s
0r
1y
0c
0i
#140580318
0t
0s
0r
1y
0c
1i
#140580988
1t
0s
0r
1y
0c
1i
#140581613
0t
0s
0r
1y
0c
1i
#140582286
1t
0s
0r
1y
0c
0i
#140582911
0t
0s
0r
1y
0c
0i
#140583582
1t
0s
0r
1y
0c
0i
#140584209
0t
0s
0r
1y
0c
0i
#140584882
1t
0s
0r
1y
0c
0i
#140585506
0t
0s
0r
1y
0c
0i
#140586174
1t
0s
0r
1y
0c
0i
#140586798
0t
0s
0r
1y
0c
0i
#140587465
1t
0s
0r
1y
0c
0i
#140588085
0t
0s
0r
1y
0c
0i
#140588752
1t
0s
0r
1y
0c
0i
#140589369
0t
0s
0r
1y
0c
0i
#140590036
1t
0s
0r
1y
0c
0i
#140590650
0t
0s
0r
1y
0c
0i
#140591309
1t
0s
0r
1y
0c
0i
#140591922
0t
0s
0r
1y
0c
0i
#140592580
1t
0s
0r
1y
0c
0i
#140593191
0t
0s
0r
1y
0c
0i
#140593851
1t
0s
0r
1y
0c
0i
#140594460
0t
0s
0r
1y
0c
0i
#140595115
1t
0s
0r
1y
0c
0i
#140595727
0t
0s
0r
1y
0c
0i
#140596385
1t
0s
0r
1y
0c
0i
#140596997
0t
0s
0r
1y
0c
0i
#140597655
1t
0s
0r
1y
0c
0i
#140598269
0t
0s
0r
1y
0c
0i
#140598927
1t
0s
0r
1y
0c
0i
#140599547
0t
0s
0r
1y
0c
0i
#140600209
1t
0s
0r
1y
0c
0i
#140600824
0t
0s
0r
1y
0c
0i
#140601486
1t
0s
0r
1y
0c
0i
#140602108
0t
0s
0r
1y
1c
0i
#140602772
1t
0s
0r
1y
1c
0i
#140603392
0t
0s
0r
1y
1c
0i
#140604061
1t
0s
0r
1y
1c
0i
#140604682
0t
0s
0r
1y
1c
0i
#140605350
1t
0s
0r
1y
0c
0i
#140605973
0t
0s
0r
1y
0c
1i
#140606644
1t
0s
0r
1y
0c
1i
#140607268
0t
0s
0r
1y
0c
1i
#140607940
1t
0s
0r
1y
0c
0i
#140608566
0t
0s
0r
1y
0c
0i
#140609235
1t
0s
0r
1y
0c
0i
#140609862
0t
0s
0r
1y
0c
0i
#140610532
1t
0s
0r
1y
0c
0i
#140611158
0t
0s
0r
1y
0c
0i
#140611822
1t
0s
0r
1y
0c
0i
#140612444
0t
0s
0r
1y
0c
0i
#140613111
1t
0s
0r
1y
0c
0i
#140613728
0t
0s
0r
1y
0c
0i
#140614392
1t
0s
0r
1y
0c
0i
#140615010
0t
0s
0r
1y
0c
0i
#140615673
1t
0s
0r
1y
0c
0i
#140616286
0t
0s
0r
1y
0c
0i
#140616939
1t
0s
0r
1y
0c
0i
#140617553
0t
0s
0r
1y
0c
0i
#140618205
1t
0s
0r
1y
0c
0i
#140618816
0t
0s
0r
1y
0c
0i
#140619468
1t
0s
0r
1y
0c
0i
#140620079
0t
0s
0r
1y
0c
0i
#140620735
1t
0s
0r
1y
0c
0i
#140621343
0t
0s
0r
1y
0c
0i
#140621997
1t
0s
0r
1y
0c
0i
#140622606
0t
0s
0r
1y
0c
0i
#140623262
1t
0s
0r
1y
0c
0i
#140623874
0t
0s
0r
1y
0c
0i
#140624532
1t
0s
0r
1y
0c
0i
#140625146
0t
0s
0r
1y
0c
0i
#140625807
1t
0s
0r
1y
0c
0i
#140626420
0t
0s
0r
1y
0c
0i
#140627082
1t
0s
0r
1y
0c
0i
#140627696
0t
0s
0r
1y
1c
0i
#140628362
1t
0s
0r
1y
1c
0i
#140628981
0t
0s
0r
1y
1c
0i
#140629648
1t
0s
0r
1y
1c
0i
#140630267
0t
0s
0r
1y
1c
0i
#140630935
1t
0s
0r
1y
0c
0i
#140631558
0t
0s
0r
1y
0c
1i
#140632230
1t
0s
0r
1y
0c
1i
#140632851
0t
0s
0r
1y
0c
1i
#140633526
1t
0s
0r
1y
0c
0i
#140634146
0t
0s
0r
1y
0c
0i
#140634820
1t
0s
0r
1y
0c
0i
#140635440
0t
0s
0r
1y
0c
0i
#140636107
1t
0s
0r
1y
0c
0i
#140636730
0t
0s
0r
1y
0c
0i
#140637401
1t
0s
0r
1y
0c
0i
#140640187
0t
0s
0r
1y
0c
0i
#140641250
1t
0s
0r
1y
0c
0i
#140641863
0t
0s
0r
1y
0c
0i
#140642523
1t
0s
0r
1y
0c
0i
#140643130
0t
0s
0r
1y
0c
0i
#140643787
1t
0s
0r
1y
0c
0i
#140644395
0t
0s
0r
1y
0c
0i
#140645050
1t
0s
0r
1y
0c
0i
#140645660
0t
0s
0r
1y
0c
0i
#140646316
1t
0s
0r
1y
0c
0i
#140646926
0t
0s
0r
1y
0c
0i
#140647581
1t
0s
0r
1y
0c
0i
#140648192
0t
0s
0r
1y
0c
0i
#140648849
1t
0s
0r
1y
0c
0i
#140649459
0t
0s
0r
1y
0c
0i
#140650119
1t
0s
0r
1y
0c
0i
#140650731
0t
0s
0r
1y
0c
0i
#140651392
1t
0s
0r
1y
0c
0i
#140652004
0t
0s
0r
1y
0c
0i
#140652668
1t
0s
0r
1y
0c
0i
#140653283
0t
0s
0r
1y
1c
0i
#140653950
1t
0s
0r
1y
1c
0i
#140654567
0t
0s
0r
1y
1c
0i
#140655233
1t
0s
0r
1y
1c
0i
#140655852
0t
0s
0r
1y
1c
0i
#140656520
1t
0s
0r
1y
0c
0i
#140657142
0t
0s
0r
1y
0c
1i
#140657812
1t
0s
0r
1y
0c
1i
#140658433
0t
0s
0r
1y
0c
1i
#140659106
1t
0s
0r
1y
0c
0i
#140659730
0t
0s
0r
1y
0c
0i
#140660399
1t
0s
0r
1y
0c
0i
#140661021
0t
0s
0r
1y
0c
0i
#140661691
1t
0s
0r
1y
0c
0i
#140662313
0t
0s
0r
1y
0c
0i
#140662982
1t
0s
0r
1y
0c
0i
#140663599
0t
0s
0r
1y
0c
0i
#140664265
1t
0s
0r
1y
0c
0i
#140664881
0t
0s
0r
1y
0c
0i
#140665544
1t
0s
0r
1y
0c
0i
#140666161
0t
0s
0r
1y
0c
0i
#140666820
1t
0s
0r
1y
0c
0i
#140667432
0t
0s
0r
1y
0c
0i
#140668087
1t
0s
0r
1y
0c
0i
#140668700
0t
0s
0r
1y
0c
0i
#140669353
1t
0s
0r
1y
0c
0i
#140669963
0t
0s
0r
1y
0c
0i
#140670614
1t
0s
0r
1y
0c
0i
