rusefi_bundle_mega100/rusefi.snapshot.mega100/console/logs/rusEFI_trigger_log_2024-11-25_17_35_42_342.vcd
$date
	Mon Nov 25 17:35:42 CET 2024
$end
$version
        1.0
$end
$timescale
        1ps
$end
$scope module test $end
$var wire 1 t PRI_TRG $end
$var wire 1 s SEC_TRG $end
$var wire 1 r TRG $end
$var wire 1 y SYNC $end
$var wire 1 c COIL $end
$var wire 1 i INJ $end
$upscope $end
$enddefinitions $end
$dumpvars
#214936736177
0t
0s
0r
1y
0c
0i
#214936736831
1t
0s
0r
1y
0c
0i
#214936737582
0t
0s
0r
1y
0c
0i
#214936738237
1t
0s
0r
1y
0c
0i
#214936738987
0t
0s
0r
1y
0c
0i
#214936739646
1t
0s
0r
1y
0c
0i
#214936740396
0t
0s
0r
1y
0c
0i
#214936741057
1t
0s
0r
1y
0c
0i
#214936741810
0t
0s
0r
1y
0c
0i
#214936742475
1t
0s
0r
1y
0c
0i
#214936743229
0t
0s
0r
1y
0c
0i
#214936743898
1t
0s
0r
1y
0c
0i
#214936744656
0t
0s
0r
1y
1c
0i
#214936745328
1t
0s
0r
1y
1c
0i
#214936746090
0t
0s
0r
1y
1c
0i
#214936746767
1t
0s
0r
1y
1c
1i
#214936747533
0t
0s
0r
1y
0c
1i
#214936748217
0t
0s
1r
1y
0c
1i
#214936748219
0t
0s
0r
1y
0c
1i
#219231715509
1t
0s
0r
1y
0c
1i
#219231716277
0t
0s
0r
1y
0c
1i
#219231716961
1t
0s
0r
1y
0c
1i
#219231717730
0t
0s
0r
1y
0c
0i
#219231718419
1t
0s
0r
1y
0c
0i
#219231719187
0t
0s
0r
1y
0c
0i
#219231719879
1t
0s
0r
1y
0c
0i
#219231720644
0t
0s
0r
1y
0c
0i
#219231721338
1t
0s
0r
1y
0c
0i
#219231722099
0t
0s
0r
1y
0c
0i
#219231722794
1t
0s
0r
1y
0c
0i
#219231723553
0t
0s
0r
1y
0c
0i
#219231724248
1t
0s
0r
1y
0c
0i
#219231725001
0t
0s
0r
1y
0c
0i
#219231725697
1t
0s
0r
1y
0c
0i
#219231726444
0t
0s
0r
1y
0c
0i
#219231727139
1t
0s
0r
1y
0c
0i
#219231727884
0t
0s
0r
1y
0c
0i
#219231728579
1t
0s
0r
1y
0c
0i
#219231729319
0t
0s
0r
1y
0c
0i
#219231730019
1t
0s
0r
1y
0c
0i
#219231730739
0t
0s
0r
1y
0c
0i
#219231731450
1t
0s
0r
1y
0c
0i
#219231732168
0t
0s
0r
1y
0c
0i
#219231732877
1t
0s
0r
1y
0c
0i
#219231733593
0t
0s
0r
1y
0c
0i
#219231734307
1t
0s
0r
1y
0c
0i
#219231735020
0t
0s
0r
1y
0c
0i
#219231735731
1t
0s
0r
1y
0c
0i
#219231736451
0t
0s
0r
1y
0c
0i
#219231737159
1t
0s
0r
1y
0c
0i
#219231737881
0t
0s
0r
1y
0c
0i
#219231738591
1t
0s
0r
1y
0c
0i
#219231739312
0t
0s
0r
1y
0c
0i
#219231740011
1t
0s
0r
1y
0c
0i
#219231740743
0t
0s
0r
1y
0c
0i
#219231741445
1t
0s
0r
1y
0c
0i
#219231742180
0t
0s
0r
1y
0c
0i
#219231742867
1t
0s
0r
1y
0c
0i
#219231743604
0t
0s
0r
1y
0c
0i
#219231744301
1t
0s
0r
1y
0c
0i
#219231745040
0t
0s
0r
1y
0c
0i
#219231745734
1t
0s
0r
1y
0c
0i
#219231746474
0t
0s
0r
1y
0c
0i
#219231747170
1t
0s
0r
1y
0c
0i
#219231747918
0t
0s
0r
1y
0c
0i
#219231748609
1t
0s
0r
1y
0c
0i
#219231749362
0t
0s
0r
1y
0c
0i
#219231750052
1t
0s
0r
1y
0c
0i
#219231750810
0t
0s
0r
1y
0c
0i
#219231751499
1t
0s
0r
1y
0c
0i
#219231752265
0t
0s
0r
1y
0c
0i
#219231752952
1t
0s
0r
1y
0c
0i
#219231753725
0t
0s
0r
1y
0c
0i
#219231754415
1t
0s
0r
1y
0c
0i
#219231755195
0t
0s
0r
1y
1c
0i
#219231755886
1t
0s
0r
1y
1c
0i
#219231756678
0t
0s
0r
1y
1c
0i
#219231757369
1t
0s
0r
1y
1c
1i
#219231758167
0t
0s
0r
1y
0c
1i
#219231758866
1t
0s
0r
1y
0c
1i
#219231759668
0t
0s
0r
1y
0c
1i
#219231760368
1t
0s
0r
1y
0c
1i
#219231761177
0t
0s
0r
1y
0c
0i
#219231761880
1t
0s
0r
1y
0c
0i
#219231762691
0t
0s
0r
1y
0c
0i
#219231763395
1t
0s
0r
1y
0c
0i
#219231764206
0t
0s
0r
1y
0c
0i
#219231764909
1t
0s
0r
1y
0c
0i
#219231765717
0t
0s
0r
1y
0c
0i
#219231766414
1t
0s
0r
1y
0c
0i
#219231767224
0t
0s
0r
1y
0c
0i
#219231767914
1t
0s
0r
1y
0c
0i
#219231768705
0t
0s
0r
1y
0c
0i
#219231769385
1t
0s
0r
1y
0c
0i
#219231770161
0t
0s
0r
1y
0c
0i
#219231770835
1t
0s
0r
1y
0c
0i
#219231771590
0t
0s
0r
1y
0c
0i
#219231772258
1t
0s
0r
1y
0c
0i
#219231772990
0t
0s
0r
1y
0c
0i
#219231773659
1t
0s
0r
1y
0c
0i
#219231774347
0t
0s
0r
1y
0c
0i
#219231777744
1t
0s
0r
1y
0c
0i
#219231778442
0t
0s
0r
1y
0c
0i
#219231779080
1t
0s
0r
1y
0c
0i
#219231779770
0t
0s
0r
1y
0c
0i
#219231780401
1t
0s
0r
1y
0c
0i
#219231781096
0t
0s
0r
1y
0c
0i
#219231781720
1t
0s
0r
1y
0c
0i
#219231782422
0t
0s
0r
1y
0c
0i
#219231783034
1t
0s
0r
1y
0c
0i
#219231783738
0t
0s
0r
1y
0c
0i
#219231784348
1t
0s
0r
1y
0c
0i
#219231785048
0t
0s
0r
1y
0c
0i
#219231785657
1t
0s
0r
1y
0c
0i
#219231786356
0t
0s
0r
1y
0c
0i
#219231786964
1t
0s
0r
1y
0c
0i
#219231787660
0t
0s
0r
1y
0c
0i
#219231788269
1t
0s
0r
1y
0c
0i
#219231788965
0t
0s
0r
1y
0c
0i
#219231789575
1t
0s
0r
1y
0c
0i
#219231790269
0t
0s
0r
1y
0c
0i
#219231790879
1t
0s
0r
1y
0c
0i
#219231791572
0t
0s
0r
1y
0c
0i
#219231792185
1t
0s
0r
1y
0c
0i
#219231792878
0t
0s
0r
1y
0c
0i
#219231793493
1t
0s
0r
1y
0c
0i
#219231794189
0t
0s
0r
1y
0c
0i
#219231794807
1t
0s
0r
1y
0c
0i
#219231795502
0t
0s
0r
1y
0c
0i
#219231796124
1t
0s
0r
1y
0c
0i
#219231796819
0t
0s
0r
1y
1c
0i
#219231797448
1t
0s
0r
1y
1c
0i
#219231798148
0t
0s
0r
1y
1c
0i
#219231798778
1t
0s
0r
1y
1c
1i
#219231799481
0t
0s
0r
1y
0c
1i
#219231800114
1t
0s
0r
1y
0c
1i
#219231800820
0t
0s
0r
1y
0c
1i
#219231801457
1t
0s
0r
1y
0c
1i
#219231802164
0t
0s
0r
1y
0c
0i
#219231802806
1t
0s
0r
1y
0c
0i
#219231803510
0t
0s
0r
1y
0c
0i
#219231804155
1t
0s
0r
1y
0c
0i
#219231804857
0t
0s
0r
1y
0c
0i
#219231805503
1t
0s
0r
1y
0c
0i
#219231806203
0t
0s
0r
1y
0c
0i
#219231806852
1t
0s
0r
1y
0c
0i
#219231807548
0t
0s
0r
1y
0c
0i
#219231808196
1t
0s
0r
1y
0c
0i
#219231808888
0t
0s
0r
1y
0c
0i
#219231809535
1t
0s
0r
1y
0c
0i
#219231810227
0t
0s
0r
1y
0c
0i
#219231810873
1t
0s
0r
1y
0c
0i
#219231811562
0t
0s
0r
1y
0c
0i
#219231812208
1t
0s
0r
1y
0c
0i
#219231812898
0t
0s
0r
1y
0c
0i
#219231813549
1t
0s
0r
1y
0c
0i
#219231814220
0t
0s
0r
1y
0c
0i
#219231814884
1t
0s
0r
1y
0c
0i
#219231815555
0t
0s
0r
1y
0c
0i
#219231816220
1t
0s
0r
1y
0c
0i
#219231816891
0t
0s
0r
1y
0c
0i
#219231817558
1t
0s
0r
1y
0c
0i
#219231818231
0t
0s
0r
1y
0c
0i
#219231818898
1t
0s
0r
1y
0c
0i
#219231819577
0t
0s
0r
1y
0c
0i
#219231820244
1t
0s
0r
1y
0c
0i
#219231820925
0t
0s
0r
1y
0c
0i
#219231821596
1t
0s
0r
1y
0c
0i
#219231822279
0t
0s
0r
1y
0c
0i
#219231822941
1t
0s
0r
1y
0c
0i
#219231823632
0t
0s
0r
1y
0c
0i
#219231824300
1t
0s
0r
1y
0c
0i
#219231824999
0t
0s
0r
1y
0c
0i
#219231825650
1t
0s
0r
1y
0c
0i
#219231826350
0t
0s
0r
1y
0c
0i
#219231827014
1t
0s
0r
1y
0c
0i
#219231827717
0t
0s
0r
1y
0c
0i
#219231828378
1t
0s
0r
1y
0c
0i
#219231829086
0t
0s
0r
1y
0c
0i
#219231829745
1t
0s
0r
1y
0c
0i
#219231830460
0t
0s
0r
1y
0c
0i
#219231831118
1t
0s
0r
1y
0c
0i
#219231831839
0t
0s
0r
1y
0c
0i
#219231832494
1t
0s
0r
1y
0c
0i
#219231833220
0t
0s
0r
1y
0c
0i
#219231833876
1t
0s
0r
1y
0c
0i
#219231834608
0t
0s
0r
1y
0c
0i
#219231835262
1t
0s
0r
1y
0c
0i
#219231836000
0t
0s
0r
1y
0c
0i
#219231836656
1t
0s
0r
1y
0c
0i
#219231837400
0t
0s
0r
1y
1c
0i
#219231838057
1t
0s
0r
1y
1c
0i
#219231838810
0t
0s
0r
1y
1c
1i
#219231839469
1t
0s
0r
1y
1c
1i
#219231840226
0t
0s
0r
1y
0c
1i
#219231840888
1t
0s
0r
1y
0c
1i
#219231841651
0t
0s
0r
1y
0c
1i
#219231842316
1t
0s
0r
1y
0c
0i
#219231843081
0t
0s
0r
1y
0c
0i
#219231843748
1t
0s
0r
1y
0c
0i
#219231844517
0t
0s
0r
1y
0c
0i
#219231845184
1t
0s
0r
1y
0c
0i
#219231845953
0t
0s
0r
1y
0c
0i
#219231846622
1t
0s
0r
1y
0c
0i
#219231847389
0t
0s
0r
1y
0c
0i
#219231848052
1t
0s
0r
1y
0c
0i
#219231848825
0t
0s
0r
1y
0c
0i
#219231849487
1t
0s
0r
1y
0c
0i
#219231850130
1t
1s
0r
1y
0c
0i
#219231850130
1t
0s
0r
1y
0c
0i
#219231850249
0t
0s
0r
1y
0c
0i
#219231850908
1t
0s
0r
1y
0c
0i
#219231851666
0t
0s
0r
1y
0c
0i
#219231852328
1t
0s
0r
1y
0c
0i
#219231853077
0t
0s
0r
1y
0c
0i
#219231853741
1t
0s
0r
1y
0c
0i
#219231854479
0t
0s
0r
1y
0c
0i
#219231855151
1t
0s
0r
1y
0c
0i
#219231855853
0t
0s
0r
1y
0c
0i
#219231859341
1t
0s
0r
1y
0c
0i
#219231860068
0t
0s
0r
1y
0c
0i
#219231860724
1t
0s
0r
1y
0c
0i
#219231861445
0t
0s
0r
1y
0c
0i
#219231862100
1t
0s
0r
1y
0c
0i
#219231862831
0t
0s
0r
1y
0c
0i
#219231863478
1t
0s
0r
1y
0c
0i
#219231864216
0t
0s
0r
1y
0c
0i
#219231864852
1t
0s
0r
1y
0c
0i
#219231865594
0t
0s
0r
1y
0c
0i
#219231866229
1t
0s
0r
1y
0c
0i
#219231866967
0t
0s
0r
1y
0c
0i
#219231867605
1t
0s
0r
1y
0c
0i
#219231868342
0t
0s
0r
1y
0c
0i
#219231868978
1t
0s
0r
1y
0c
0i
#219231869713
0t
0s
0r
1y
0c
0i
#219231870352
1t
0s
0r
1y
0c
0i
#219231871086
0t
0s
0r
1y
0c
0i
#219231871724
1t
0s
0r
1y
0c
0i
#219231872459
0t
0s
0r
1y
0c
0i
#219231873099
1t
0s
0r
1y
0c
0i
#219231873833
0t
0s
0r
1y
0c
0i
#219231874476
1t
0s
0r
1y
0c
0i
#219231875210
0t
0s
0r
1y
0c
0i
#219231875855
1t
0s
0r
1y
0c
0i
#219231876592
0t
0s
0r
1y
0c
0i
#219231877240
1t
0s
0r
1y
0c
0i
#219231877977
0t
0s
0r
1y
0c
0i
#219231878630
1t
0s
0r
1y
0c
0i
#219231879369
0t
0s
0r
1y
1c
0i
#219231880026
1t
0s
0r
1y
1c
0i
#219231880769
0t
0s
0r
1y
1c
0i
#219231881427
1t
0s
0r
1y
1c
1i
#219231882174
0t
0s
0r
1y
0c
1i
#219231882836
1t
0s
0r
1y
0c
1i
#219231883585
0t
0s
0r
1y
0c
1i
#219231884250
1t
0s
0r
1y
0c
1i
#219231884999
0t
0s
0r
1y
0c
0i
#219231885669
1t
0s
0r
1y
0c
0i
#219231886417
0t
0s
0r
1y
0c
0i
#219231887090
1t
0s
0r
1y
0c
0i
#219231887834
0t
0s
0r
1y
0c
0i
#219231888511
1t
0s
0r
1y
0c
0i
#219231889253
0t
0s
0r
1y
0c
0i
#219231889931
1t
0s
0r
1y
0c
0i
#219231890668
0t
0s
0r
1y
0c
0i
#219231891349
1t
0s
0r
1y
0c
0i
#219231892083
0t
0s
0r
1y
0c
0i
#219231892762
1t
0s
0r
1y
0c
0i
#219231892873
1t
0s
1r
1y
0c
0i
#219231892875
1t
0s
0r
1y
0c
0i
#219231893492
0t
0s
0r
1y
0c
0i
#219231894172
1t
0s
0r
1y
0c
0i
#219231894900
0t
0s
0r
1y
0c
0i
#219231895578
1t
0s
0r
1y
0c
0i
#219231896304
0t
0s
0r
1y
0c
0i
#219231896988
1t
0s
0r
1y
0c
0i
#219231897694
0t
0s
0r
1y
0c
0i
#219231898389
1t
0s
0r
1y
0c
0i
#219231899092
0t
0s
0r
1y
0c
0i
#219231899789
1t
0s
0r
1y
0c
0i
#219231900492
0t
0s
0r
1y
0c
0i
#219231901188
1t
0s
0r
1y
0c
0i
#219231901891
0t
0s
0r
1y
0c
0i
#219231902587
1t
0s
0r
1y
0c
0i
#219231903292
0t
0s
0r
1y
0c
0i
#219231903987
1t
0s
0r
1y
0c
0i
#219231904695
0t
0s
0r
1y
0c
0i
#219231905389
1t
0s
0r
1y
0c
0i
#219231906097
0t
0s
0r
1y
0c
0i
#219231906784
1t
0s
0r
1y
0c
0i
#219231907499
0t
0s
0r
1y
0c
0i
#219231908188
1t
0s
0r
1y
0c
0i
#219231908908
0t
0s
0r
1y
0c
0i
#219231909580
1t
0s
0r
1y
0c
0i
#219231910303
0t
0s
0r
1y
0c
0i
#219231910986
1t
0s
0r
1y
0c
0i
#219231911708
0t
0s
0r
1y
0c
0i
#219231912389
1t
0s
0r
1y
0c
0i
#219231913114
0t
0s
0r
1y
0c
0i
#219231913791
1t
0s
0r
1y
0c
0i
#219231914523
0t
0s
0r
1y
0c
0i
#219231915197
1t
0s
0r
1y
0c
0i
#219231915934
0t
0s
0r
1y
0c
0i
#219231916607
1t
0s
0r
1y
0c
0i
#219231917348
0t
0s
0r
1y
0c
0i
#219231918019
1t
0s
0r
1y
0c
0i
#219231918766
0t
0s
0r
1y
0c
0i
#219231919437
1t
0s
0r
1y
0c
0i
#219231920190
0t
0s
0r
1y
0c
0i
#219231920862
1t
0s
0r
1y
0c
0i
#219231921621
0t
0s
0r
1y
1c
0i
#219231922294
1t
0s
0r
1y
1c
0i
#219231923063
0t
0s
0r
1y
1c
0i
#219231923739
1t
0s
0r
1y
1c
1i
#219231924513
0t
0s
0r
1y
0c
1i
#219231925191
1t
0s
0r
1y
0c
1i
#219231925971
0t
0s
0r
1y
0c
1i
#219231926654
1t
0s
0r
1y
0c
1i
#219231927437
0t
0s
0r
1y
0c
0i
#219231928120
1t
0s
0r
1y
0c
0i
#219231928906
0t
0s
0r
1y
0c
0i
#219231929592
1t
0s
0r
1y
0c
0i
#219231930379
0t
0s
0r
1y
0c
0i
#219231931062
1t
0s
0r
1y
0c
0i
#219231931846
0t
0s
0r
1y
0c
0i
#219231932526
1t
0s
0r
1y
0c
0i
#219231933317
0t
0s
0r
1y
0c
0i
#219231933993
1t
0s
0r
1y
0c
0i
#219231934774
0t
0s
0r
1y
0c
0i
#219231935450
1t
0s
0r
1y
0c
0i
#219231936227
0t
0s
0r
1y
0c
0i
#219231936907
1t
0s
0r
1y
0c
0i
#219231937676
0t
0s
0r
1y
0c
0i
#219231938360
1t
0s
0r
1y
0c
0i
#219231939120
0t
0s
0r
1y
0c
0i
#219231939813
1t
0s
0r
1y
0c
0i
#219231940541
0t
0s
0r
1y
0c
0i
#219231944166
1t
0s
0r
1y
0c
0i
#219231944926
0t
0s
0r
1y
0c
0i
#219231945615
1t
0s
0r
1y
0c
0i
#219231946374
0t
0s
0r
1y
0c
0i
#219231947062
1t
0s
0r
1y
0c
0i
#219231947831
0t
0s
0r
1y
0c
0i
#219231948514
1t
0s
0r
1y
0c
0i
#219231949294
0t
0s
0r
1y
0c
0i
#219231949970
1t
0s
0r
1y
0c
0i
#219231950756
0t
0s
0r
1y
0c
0i
#219231951433
1t
0s
0r
1y
0c
0i
#219231952218
0t
0s
0r
1y
0c
0i
#219231952898
1t
0s
0r
1y
0c
0i
#219231953686
0t
0s
0r
1y
0c
0i
#219231954367
1t
0s
0r
1y
0c
0i
#219231955153
0t
0s
0r
1y
0c
0i
#219231955838
1t
0s
0r
1y
0c
0i
#219231956626
0t
0s
0r
1y
0c
0i
#219231957313
1t
0s
0r
1y
0c
0i
#219231958103
0t
0s
0r
1y
0c
0i
#219231958794
1t
0s
0r
1y
0c
0i
#219231959584
0t
0s
0r
1y
0c
0i
#219231960280
1t
0s
0r
1y
0c
0i
#219231961070
0t
0s
0r
1y
0c
0i
#219231961770
1t
0s
0r
1y
0c
0i
#219231962565
0t
0s
0r
1y
0c
0i
#219231963270
1t
0s
0r
1y
0c
0i
#219231964065
0t
0s
0r
1y
0c
0i
#219231964774
1t
0s
0r
1y
0c
0i
#219231965574
0t
0s
0r
1y
1c
0i
#219231966291
1t
0s
0r
1y
1c
0i
#219231967094
0t
0s
0r
1y
1c
0i
#219231967813
1t
0s
0r
1y
1c
1i
#219231968622
0t
0s
0r
1y
0c
1i
#219231969347
1t
0s
0r
1y
0c
1i
#219231970160
0t
0s
0r
1y
0c
1i
#219231970889
1t
0s
0r
1y
0c
1i
#219231971704
0t
0s
0r
1y
0c
0i
#219231972442
1t
0s
0r
1y
0c
0i
#219231973254
0t
0s
0r
1y
0c
0i
#219231973997
1t
0s
0r
1y
0c
0i
#219231974804
0t
0s
0r
1y
0c
0i
#219231975551
1t
0s
0r
1y
0c
0i
#219231976354
0t
0s
0r
1y
0c
0i
#219231977102
1t
0s
0r
1y
0c
0i
#219231977900
0t
0s
0r
1y
0c
0i
#219231978645
1t
0s
0r
1y
0c
0i
#219231979438
0t
0s
0r
1y
0c
0i
#219231980179
1t
0s
0r
1y
0c
0i
#219231980965
0t
0s
0r
1y
0c
0i
#219231981704
1t
0s
0r
1y
0c
0i
#219231982483
0t
0s
0r
1y
0c
0i
#219231983213
1t
0s
0r
1y
0c
0i
#219231983986
0t
0s
0r
1y
0c
0i
#219231984717
1t
0s
0r
1y
0c
0i
#219231985466
0t
0s
0r
1y
0c
0i
#219231986204
1t
0s
0r
1y
0c
0i
#219231986943
0t
0s
0r
1y
0c
0i
#219231987677
1t
0s
0r
1y
0c
0i
#219231988410
0t
0s
0r
1y
0c
0i
#219231989138
1t
0s
0r
1y
0c
0i
#219231989868
0t
0s
0r
1y
0c
0i
#219231990593
1t
0s
0r
1y
0c
0i
#219231991320
0t
0s
0r
1y
0c
0i
#219231992039
1t
0s
0r
1y
0c
0i
#219231992767
0t
0s
0r
1y
0c
0i
#219231993484
1t
0s
0r
1y
0c
0i
#219231994208
0t
0s
0r
1y
0c
0i
#219231994914
1t
0s
0r
1y
0c
0i
#219231995644
0t
0s
0r
1y
0c
0i
#219231996348
1t
0s
0r
1y
0c
0i
#219231997083
0t
0s
0r
1y
0c
0i
#219231997770
1t
0s
0r
1y
0c
0i
#219231998503
0t
0s
0r
1y
0c
0i
#219231999200
1t
0s
0r
1y
0c
0i
#219231999934
0t
0s
0r
1y
0c
0i
#219232000625
1t
0s
0r
1y
0c
0i
#219232001362
0t
0s
0r
1y
0c
0i
#219232002049
1t
0s
0r
1y
0c
0i
#219232002794
0t
0s
0r
1y
0c
0i
#219232003478
1t
0s
0r
1y
0c
0i
#219232004227
0t
0s
0r
1y
0c
0i
#219232004906
1t
0s
0r
1y
0c
0i
#219232005660
0t
0s
0r
1y
0c
0i
#219232006339
1t
0s
0r
1y
0c
0i
#219232007098
0t
0s
0r
1y
0c
0i
#219232007777
1t
0s
0r
1y
0c
0i
#219232008540
0t
0s
0r
1y
0c
0i
#219232009220
1t
0s
0r
1y
0c
0i
#219232009991
0t
0s
0r
1y
1c
0i
#219232010672
1t
0s
0r
1y
1c
0i
#219232011454
0t
0s
0r
1y
1c
0i
#219232012137
1t
0s
0r
1y
1c
1i
#219232012923
0t
0s
0r
1y
0c
1i
#219232013612
1t
0s
0r
1y
0c
1i
#219232014405
0t
0s
0r
1y
0c
1i
#219232015095
1t
0s
0r
1y
0c
1i
#219232015890
0t
0s
0r
1y
0c
0i
#219232016584
1t
0s
0r
1y
0c
0i
#219232017383
0t
0s
0r
1y
0c
0i
#219232018076
1t
0s
0r
1y
0c
0i
#219232018874
0t
0s
0r
1y
0c
0i
#219232019567
1t
0s
0r
1y
0c
0i
#219232020366
0t
0s
0r
1y
0c
0i
#219232021051
1t
0s
0r
1y
0c
0i
#219232021853
0t
0s
0r
1y
0c
0i
#219232022536
1t
0s
0r
1y
0c
0i
#219232023239
1t
1s
0r
1y
0c
0i
#219232023239
1t
0s
0r
1y
0c
0i
#219232023325
0t
0s
0r
1y
0c
0i
#219232024005
1t
0s
0r
1y
0c
0i
#219232024784
0t
0s
0r
1y
0c
0i
#219232025464
1t
0s
0r
1y
0c
0i
#219232026230
0t
0s
0r
1y
0c
0i
#219232026910
1t
0s
0r
1y
0c
0i
#219232027661
0t
0s
0r
1y
0c
0i
#219232028345
1t
0s
0r
1y
0c
0i
#219232029056
0t
0s
0r
1y
0c
0i
#219232032557
1t
0s
0r
1y
0c
0i
#219232033279
0t
0s
0r
1y
0c
0i
#219232033934
1t
0s
0r
1y
0c
0i
#219232034648
0t
0s
0r
1y
0c
0i
#219232035298
1t
0s
0r
1y
0c
0i
#219232036018
0t
0s
0r
1y
0c
0i
#219232036658
1t
0s
0r
1y
0c
0i
#219232037383
0t
0s
0r
1y
0c
0i
#219232038013
1t
0s
0r
1y
0c
0i
#219232038739
0t
0s
0r
1y
0c
0i
#219232039367
1t
0s
0r
1y
0c
0i
#219232040090
0t
0s
0r
1y
0c
0i
#219232040718
1t
0s
0r
1y
0c
0i
#219232041439
0t
0s
0r
1y
0c
0i
#219232042065
1t
0s
0r
1y
0c
0i
#219232042784
0t
0s
0r
1y
0c
0i
#219232043411
1t
0s
0r
1y
0c
0i
#219232044129
0t
0s
0r
1y
0c
0i
#219232044756
1t
0s
0r
1y
0c
0i
#219232045474
0t
0s
0r
1y
0c
0i
#219232046103
1t
0s
0r
1y
0c
0i
#219232046821
0t
0s
0r
1y
0c
0i
#219232047450
1t
0s
0r
1y
0c
0i
#219232048169
0t
0s
0r
1y
0c
0i
#219232048801
1t
0s
0r
1y
0c
0i
#219232049522
0t
0s
0r
1y
0c
0i
#219232050157
1t
0s
0r
1y
0c
0i
#219232050878
0t
0s
0r
1y
0c
0i
#219232051517
1t
0s
0r
1y
0c
0i
#219232052242
0t
0s
0r
1y
1c
0i
#219232052885
1t
0s
0r
1y
1c
0i
#219232053613
0t
0s
0r
1y
1c
0i
#219232054257
1t
0s
0r
1y
1c
1i
#219232054990
0t
0s
0r
1y
0c
1i
#219232055637
1t
0s
0r
1y
0c
1i
#219232056372
0t
0s
0r
1y
0c
1i
#219232057024
1t
0s
0r
1y
0c
1i
#219232057758
0t
0s
0r
1y
0c
0i
#219232058415
1t
0s
0r
1y
0c
0i
#219232059147
0t
0s
0r
1y
0c
0i
#219232059365
0t
0s
1r
1y
0c
0i
#219232059368
0t
0s
0r
1y
0c
0i
#219232059807
1t
0s
0r
1y
0c
0i
#219232060536
0t
0s
0r
1y
0c
0i
#219232061199
1t
0s
0r
1y
0c
0i
#219232061927
0t
0s
0r
1y
0c
0i
#219232062591
1t
0s
0r
1y
0c
0i
#219232063315
0t
0s
0r
1y
0c
0i
#219232063981
1t
0s
0r
1y
0c
0i
#219232064703
0t
0s
0r
1y
0c
0i
#219232065365
1t
0s
0r
1y
0c
0i
#219232066084
0t
0s
0r
1y
0c
0i
#219232066750
1t
0s
0r
1y
0c
0i
#219232067465
0t
0s
0r
1y
0c
0i
#219232068130
1t
0s
0r
1y
0c
0i
#219232068842
0t
0s
0r
1y
0c
0i
#219232069512
1t
0s
0r
1y
0c
0i
#219232070208
0t
0s
0r
1y
0c
0i
#219232070890
1t
0s
0r
1y
0c
0i
#219232071583
0t
0s
0r
1y
0c
0i
#219232072265
1t
0s
0r
1y
0c
0i
#219232072959
0t
0s
0r
1y
0c
0i
#219232073646
1t
0s
0r
1y
0c
0i
#219232074337
0t
0s
0r
1y
0c
0i
#219232075023
1t
0s
0r
1y
0c
0i
#219232075721
0t
0s
0r
1y
0c
0i
#219232076403
1t
0s
0r
1y
0c
0i
#219232077106
0t
0s
0r
1y
0c
0i
#219232077792
1t
0s
0r
1y
0c
0i
#219232078493
0t
0s
0r
1y
0c
0i
#219232079173
1t
0s
0r
1y
0c
0i
#219232079882
0t
0s
0r
1y
0c
0i
#219232080564
1t
0s
0r
1y
0c
0i
#219232081281
0t
0s
0r
1y
0c
0i
#219232081949
1t
0s
0r
1y
0c
0i
#219232082668
0t
0s
0r
1y
0c
0i
#219232083346
1t
0s
0r
1y
0c
0i
#219232084065
0t
0s
0r
1y
0c
0i
#219232084743
1t
0s
0r
1y
0c
0i
#219232085466
0t
0s
0r
1y
0c
0i
#219232086140
1t
0s
0r
1y
0c
0i
#219232086873
0t
0s
0r
1y
0c
0i
#219232087545
1t
0s
0r
1y
0c
0i
#219232088282
0t
0s
0r
1y
0c
0i
#219232088955
1t
0s
0r
1y
0c
0i
#219232089696
0t
0s
0r
1y
0c
0i
#219232090367
1t
0s
0r
1y
0c
0i
#219232091113
0t
0s
0r
1y
0c
0i
#219232091785
1t
0s
0r
1y
0c
0i
#219232092540
0t
0s
0r
1y
0c
0i
#219232093211
1t
0s
0r
1y
0c
0i
#219232093971
0t
0s
0r
1y
1c
0i
#219232094645
1t
0s
0r
1y
1c
0i
#219232095416
0t
0s
0r
1y
1c
0i
#219232096092
1t
0s
0r
1y
1c
1i
#219232096866
0t
0s
0r
1y
0c
1i
#219232097548
1t
0s
0r
1y
0c
1i
#219232098328
0t
0s
0r
1y
0c
1i
#219232099013
1t
0s
0r
1y
0c
1i
#219232099799
0t
0s
0r
1y
0c
0i
#219232100486
1t
0s
0r
1y
0c
0i
#219232101273
0t
0s
0r
1y
0c
0i
#219232101960
1t
0s
0r
1y
0c
0i
#219232102749
0t
0s
0r
1y
0c
0i
#219232103434
1t
0s
0r
1y
0c
0i
#219232104224
0t
0s
0r
1y
0c
0i
#219232104905
1t
0s
0r
1y
0c
0i
#219232105698
0t
0s
0r
1y
0c
0i
#219232106375
1t
0s
0r
1y
0c
0i
#219232107157
0t
0s
0r
1y
0c
0i
#219232107831
1t
0s
0r
1y
0c
0i
#219232108606
0t
0s
0r
1y
0c
0i
#219232109284
1t
0s
0r
1y
0c
0i
#219232110048
0t
0s
0r
1y
0c
0i
#219232110726
1t
0s
0r
1y
0c
0i
#219232111476
0t
0s
0r
1y
0c
0i
#219232112158
1t
0s
0r
1y
0c
0i
#219232112870
0t
0s
0r
1y
0c
0i
#219232116382
1t
0s
0r
1y
0c
0i
#219232117110
0t
0s
0r
1y
0c
0i
#219232117768
1t
0s
0r
1y
0c
0i
#219232118487
0t
0s
0r
1y
0c
0i
#219232119137
1t
0s
0r
1y
0c
0i
#219232119862
0t
0s
0r
1y
0c
0i
#219232120503
1t
0s
0r
1y
0c
0i
#219232121233
0t
0s
0r
1y
0c
0i
#219232121862
1t
0s
0r
1y
0c
0i
#219232122592
0t
0s
0r
1y
0c
0i
#219232123221
1t
0s
0r
1y
0c
0i
#219232123945
0t
0s
0r
1y
0c
0i
#219232124573
1t
0s
0r
1y
0c
0i
#219232125295
0t
0s
0r
1y
0c
0i
#219232125921
1t
0s
0r
1y
0c
0i
#219232126640
0t
0s
0r
1y
0c
0i
#219232127265
1t
0s
0r
1y
0c
0i
#219232127984
0t
0s
0r
1y
0c
0i
#219232128609
1t
0s
0r
1y
0c
0i
#219232129327
0t
0s
0r
1y
0c
0i
#219232129953
1t
0s
0r
1y
0c
0i
#219232130668
0t
0s
0r
1y
0c
0i
#219232131297
1t
0s
0r
1y
0c
0i
#219232132011
0t
0s
0r
1y
0c
0i
#219232132644
1t
0s
0r
1y
0c
0i
#219232133359
0t
0s
0r
1y
0c
0i
#219232133994
1t
0s
0r
1y
0c
0i
#219232134709
0t
0s
0r
1y
0c
0i
#219232135349
1t
0s
0r
1y
0c
0i
#219232136066
0t
0s
0r
1y
1c
0i
#219232136709
1t
0s
0r
1y
1c
0i
#219232137431
0t
0s
0r
1y
1c
0i
#219232138076
1t
0s
0r
1y
1c
1i
#219232138803
0t
0s
0r
1y
0c
1i
#219232139450
1t
0s
0r
1y
0c
1i
#219232140179
0t
0s
0r
1y
0c
1i
#219232140832
1t
0s
0r
1y
0c
1i
#219232141560
0t
0s
0r
1y
0c
0i
#219232142219
1t
0s
0r
1y
0c
0i
#219232142945
0t
0s
0r
1y
0c
0i
#219232143609
1t
0s
0r
1y
0c
0i
#219232144330
0t
0s
0r
1y
0c
0i
