rusefi_bundle_mega100/rusefi.snapshot.mega100/console/logs/rusEFI_trigger_log_2024-11-07_18_35_04_667.vcd
$date
	Thu Nov 07 18:35:04 CET 2024
$end
$version
        1.0
$end
$timescale
        1ps
$end
$scope module test $end
$var wire 1 t PRI_TRG $end
$var wire 1 s SEC_TRG $end
$var wire 1 r TRG $end
$var wire 1 y SYNC $end
$var wire 1 c COIL $end
$var wire 1 i INJ $end
$upscope $end
$enddefinitions $end
$dumpvars
#262757747394
0t
0s
0r
1y
1c
0i
#262757748196
1t
0s
0r
1y
1c
0i
#262757748936
0t
0s
0r
1y
1c
0i
#262757749735
1t
0s
0r
1y
1c
0i
#262757750475
0t
0s
0r
1y
1c
0i
#262757751272
1t
0s
0r
1y
1c
0i
#262757754609
0t
0s
0r
1y
1c
0i
#262757755858
1t
0s
0r
1y
1c
0i
#262757756583
0t
0s
0r
1y
1c
0i
#262757757372
1t
0s
0r
1y
1c
0i
#262757758095
0t
0s
0r
1y
1c
0i
#262757758877
1t
0s
0r
1y
1c
0i
#262757759607
0t
0s
0r
1y
1c
0i
#262757760387
1t
0s
0r
1y
1c
0i
#262757761115
0t
0s
0r
1y
1c
0i
#262757761901
1t
0s
0r
1y
1c
0i
#262757762631
0t
0s
0r
1y
1c
0i
#262757763414
1t
0s
0r
1y
1c
0i
#262757764153
0t
0s
0r
1y
1c
0i
#262757764944
1t
0s
0r
1y
1c
0i
#262757765677
0t
0s
0r
1y
1c
0i
#262757766473
1t
0s
0r
1y
1c
0i
#262757767211
0t
0s
0r
1y
1c
0i
#262757768013
1t
0s
0r
1y
1c
0i
#262757768755
0t
0s
0r
1y
1c
0i
#262757769560
1t
0s
0r
1y
1c
0i
#262757770311
0t
0s
0r
1y
1c
0i
#262757771121
1t
0s
0r
1y
1c
0i
#262757771876
0t
0s
0r
1y
1c
0i
#262757772691
1t
0s
0r
1y
1c
0i
#262757773451
0t
0s
0r
1y
1c
0i
#262757774272
1t
0s
0r
1y
0c
0i
#262757775035
0t
0s
0r
1y
0c
1i
#262757775860
1t
0s
0r
1y
0c
1i
#262757776627
0t
0s
0r
1y
0c
1i
#262757777453
1t
0s
0r
1y
0c
0i
#262757778225
0t
0s
0r
1y
0c
0i
#262757779055
1t
0s
0r
1y
0c
0i
#262757779820
0t
0s
0r
1y
0c
0i
#262757780644
1t
0s
0r
1y
0c
0i
#262757781406
0t
0s
0r
1y
0c
0i
#262757782223
1t
0s
0r
1y
0c
0i
#262757782982
0t
0s
0r
1y
0c
0i
#262757783784
1t
0s
0r
1y
0c
0i
#262757784533
0t
0s
0r
1y
0c
0i
#262757785332
1t
0s
0r
1y
0c
0i
#262757786069
0t
0s
0r
1y
0c
0i
#262757786857
1t
0s
0r
1y
0c
0i
#262757787591
0t
0s
0r
1y
0c
0i
#262757788377
1t
0s
0r
1y
0c
0i
#262757789104
0t
0s
0r
1y
0c
0i
#262757789884
1t
0s
0r
1y
0c
0i
#262757790615
0t
0s
0r
1y
0c
0i
#262757791404
1t
0s
0r
1y
0c
0i
#262757792134
0t
0s
0r
1y
0c
0i
#262757792924
1t
0s
0r
1y
0c
0i
#262757793662
0t
0s
0r
1y
0c
0i
#262757794455
1t
0s
0r
1y
0c
0i
#262757795195
0t
0s
0r
1y
0c
0i
#262757795993
1t
0s
0r
1y
0c
0i
#262757796745
0t
0s
0r
1y
0c
0i
#262757797552
1t
0s
0r
1y
0c
0i
#262757798301
0t
0s
0r
1y
0c
0i
#262757799110
1t
0s
0r
1y
0c
0i
#262757799870
0t
0s
0r
1y
0c
0i
#262757800684
1t
0s
0r
1y
0c
0i
#262757801448
0t
0s
0r
1y
1c
0i
#262757802271
1t
0s
0r
1y
1c
0i
#262757803038
0t
0s
0r
1y
1c
0i
#262757803871
1t
0s
0r
1y
1c
0i
#262757804641
0t
0s
0r
1y
1c
0i
#262757805476
1t
0s
0r
1y
0c
0i
#262757806253
0t
0s
0r
1y
0c
1i
#262757807087
1t
0s
0r
1y
0c
1i
#262757807870
0t
0s
0r
1y
0c
1i
#262757808711
1t
0s
0r
1y
0c
0i
#262757809491
0t
0s
0r
1y
0c
0i
#262757810326
1t
0s
0r
1y
0c
0i
#262757811109
0t
0s
0r
1y
0c
0i
#262757811946
1t
0s
0r
1y
0c
0i
#262757812724
0t
0s
0r
1y
0c
0i
#262757813556
1t
0s
0r
1y
0c
0i
#262757814325
0t
0s
0r
1y
0c
0i
#262757815157
1t
0s
0r
1y
0c
0i
#262757815927
0t
0s
0r
1y
0c
0i
#262757816754
1t
0s
0r
1y
0c
0i
#262757817523
0t
0s
0r
1y
0c
0i
#262757818347
1t
0s
0r
1y
0c
0i
#262757819108
0t
0s
0r
1y
0c
0i
#262757819923
1t
0s
0r
1y
0c
0i
#262757820682
0t
0s
0r
1y
0c
0i
#262757821493
1t
0s
0r
1y
0c
0i
#262757822253
0t
0s
0r
1y
0c
0i
#262757823073
1t
0s
0r
1y
0c
0i
#262757823824
0t
0s
0r
1y
0c
0i
#262757824642
1t
0s
0r
1y
0c
0i
#262757825399
0t
0s
0r
1y
0c
0i
#262757826226
1t
0s
0r
1y
0c
0i
#262757826986
0t
0s
0r
1y
0c
0i
#262757827809
1t
0s
0r
1y
0c
0i
#262757828575
0t
0s
0r
1y
0c
0i
#262757829407
1t
0s
0r
1y
0c
0i
#262757830180
0t
0s
0r
1y
0c
0i
#262757831017
1t
0s
0r
1y
0c
0i
#262757831789
0t
0s
0r
1y
0c
0i
#262757832633
1t
0s
0r
1y
0c
0i
#262757833410
0t
0s
0r
1y
1c
0i
#262757834260
1t
0s
0r
1y
1c
0i
#262757835050
0t
0s
0r
1y
1c
0i
#262757835908
1t
0s
0r
1y
1c
0i
#262757836699
0t
0s
0r
1y
1c
0i
#262757837558
1t
0s
0r
1y
0c
0i
#262757838357
0t
0s
0r
1y
0c
1i
#262757839223
1t
0s
0r
1y
0c
1i
#262757840024
0t
0s
0r
1y
0c
1i
#262757840895
1t
0s
0r
1y
0c
0i
#262757841697
0t
0s
0r
1y
0c
0i
#262757842564
1t
0s
0r
1y
0c
0i
#262757843361
0t
0s
0r
1y
0c
0i
#262757844231
1t
0s
0r
1y
0c
0i
#262757845018
0t
0s
0r
1y
0c
0i
#262757845876
1t
0s
0r
1y
0c
0i
#262757849315
0t
0s
0r
1y
0c
0i
#262757850685
1t
0s
0r
1y
0c
0i
#262757851441
0t
0s
0r
1y
0c
0i
#262757852255
1t
0s
0r
1y
0c
0i
#262757853008
0t
0s
0r
1y
0c
0i
#262757853817
1t
0s
0r
1y
0c
0i
#262757854574
0t
0s
0r
1y
0c
0i
#262757855393
1t
0s
0r
1y
0c
0i
#262757856151
0t
0s
0r
1y
0c
0i
#262757856969
1t
0s
0r
1y
0c
0i
#262757857736
0t
0s
0r
1y
0c
0i
#262757858558
1t
0s
0r
1y
0c
0i
#262757859330
0t
0s
0r
1y
0c
0i
#262757860166
1t
0s
0r
1y
0c
0i
#262757860935
0t
0s
0r
1y
0c
0i
#262757861772
1t
0s
0r
1y
0c
0i
#262757862553
0t
0s
0r
1y
0c
0i
#262757863397
1t
0s
0r
1y
0c
0i
#262757864181
0t
0s
0r
1y
0c
0i
#262757865032
1t
0s
0r
1y
0c
0i
#262757865832
0t
0s
0r
1y
1c
0i
#262757866685
1t
0s
0r
1y
1c
0i
#262757867485
0t
0s
0r
1y
1c
0i
#262757868349
1t
0s
0r
1y
1c
0i
#262757869155
0t
0s
0r
1y
1c
0i
#262757870025
1t
0s
0r
1y
0c
0i
#262757870838
0t
0s
0r
1y
0c
1i
#262757871708
1t
0s
0r
1y
0c
1i
#262757872527
0t
0s
0r
1y
0c
1i
#262757873402
1t
0s
0r
1y
0c
0i
#262757874219
0t
0s
0r
1y
0c
0i
#262757875091
1t
0s
0r
1y
0c
0i
#262757875903
0t
0s
0r
1y
0c
0i
#262757876779
1t
0s
0r
1y
0c
0i
#262757877581
0t
0s
0r
1y
0c
0i
#262757878443
1t
0s
0r
1y
0c
0i
#262757879243
0t
0s
0r
1y
0c
0i
#262757880089
1t
0s
0r
1y
0c
0i
#262757880878
0t
0s
0r
1y
0c
0i
#262757881721
1t
0s
0r
1y
0c
0i
#262757882500
0t
0s
0r
1y
0c
0i
#262757883326
1t
0s
0r
1y
0c
0i
#262757884098
0t
0s
0r
1y
0c
0i
#262757884923
1t
0s
0r
1y
0c
0i
#262757885689
0t
0s
0r
1y
0c
0i
#262757886512
1t
0s
0r
1y
0c
0i
#262757887280
0t
0s
0r
1y
0c
0i
#262757888104
1t
0s
0r
1y
0c
0i
#262757888876
0t
0s
0r
1y
0c
0i
#262757889706
1t
0s
0r
1y
0c
0i
#262757890478
0t
0s
0r
1y
0c
0i
#262757891310
1t
0s
0r
1y
0c
0i
#262757892096
0t
0s
0r
1y
0c
0i
#262757892936
1t
0s
0r
1y
0c
0i
#262757893723
0t
0s
0r
1y
0c
0i
#262757894574
1t
0s
0r
1y
0c
0i
#262757895366
0t
0s
0r
1y
0c
0i
#262757896221
1t
0s
0r
1y
0c
0i
#262757897020
0t
0s
0r
1y
0c
0i
#262757897877
1t
0s
0r
1y
0c
0i
#262757898683
0t
0s
0r
1y
1c
0i
#262757899553
1t
0s
0r
1y
1c
0i
#262757900363
0t
0s
0r
1y
1c
0i
#262757901237
1t
0s
0r
1y
1c
0i
#262757902055
0t
0s
0r
1y
1c
0i
#262757902938
1t
0s
0r
1y
0c
0i
#262757903758
0t
0s
0r
1y
0c
1i
#262757904643
1t
0s
0r
1y
0c
1i
#262757905464
0t
0s
0r
1y
0c
1i
#262757906357
1t
0s
0r
1y
0c
0i
#262757907182
0t
0s
0r
1y
0c
0i
#262757908065
1t
0s
0r
1y
0c
0i
#262757908892
0t
0s
0r
1y
0c
0i
#262757909773
1t
0s
0r
1y
0c
0i
#262757910591
0t
0s
0r
1y
0c
0i
#262757911460
1t
0s
0r
1y
0c
0i
#262757912262
0t
0s
0r
1y
0c
0i
#262757913113
1t
0s
0r
1y
0c
0i
#262757913909
0t
0s
0r
1y
0c
0i
#262757914752
1t
0s
0r
1y
0c
0i
#262757915528
0t
0s
0r
1y
0c
0i
#262757916365
1t
0s
0r
1y
0c
0i
#262757916385
1t
1s
0r
1y
0c
0i
#262757916385
1t
0s
0r
1y
0c
0i
#262757917133
0t
0s
0r
1y
0c
0i
#262757917955
1t
0s
0r
1y
0c
0i
#262757918724
0t
0s
0r
1y
0c
0i
#262757919553
1t
0s
0r
1y
0c
0i
#262757920322
0t
0s
0r
1y
0c
0i
#262757921156
1t
0s
0r
1y
0c
0i
#262757921923
0t
0s
0r
1y
0c
0i
#262757922758
1t
0s
0r
1y
0c
0i
#262757923535
0t
0s
0r
1y
0c
0i
#262757924380
1t
0s
0r
1y
0c
0i
#262757925156
0t
0s
0r
1y
0c
0i
#262757926009
1t
0s
0r
1y
0c
0i
#262757926796
0t
0s
0r
1y
0c
0i
#262757927649
1t
0s
0r
1y
0c
0i
#262757928448
0t
0s
0r
1y
0c
0i
#262757929310
1t
0s
0r
1y
0c
0i
#262757930112
0t
0s
0r
1y
0c
0i
#262757930984
1t
0s
0r
1y
0c
0i
#262757931789
0t
0s
0r
1y
1c
0i
#262757932670
1t
0s
0r
1y
1c
0i
#262757933488
0t
0s
0r
1y
1c
0i
#262757934377
1t
0s
0r
1y
1c
0i
#262757935199
0t
0s
0r
1y
1c
0i
#262757936091
1t
0s
0r
1y
0c
0i
#262757936921
0t
0s
0r
1y
0c
1i
#262757937814
1t
0s
0r
1y
0c
1i
#262757938646
0t
0s
0r
1y
0c
1i
#262757938747
0t
0s
1r
1y
0c
1i
#262757938749
0t
0s
0r
1y
0c
1i
#262757939549
1t
0s
0r
1y
0c
0i
#262757940376
0t
0s
0r
1y
0c
0i
#262757941273
1t
0s
0r
1y
0c
0i
#262757942101
0t
0s
0r
1y
0c
0i
#262757942992
1t
0s
0r
1y
0c
0i
#262757943812
0t
0s
0r
1y
0c
0i
#262757944703
1t
0s
0r
1y
0c
0i
#262757948357
0t
0s
0r
1y
0c
0i
#262757949733
1t
0s
0r
1y
0c
0i
#262757950526
0t
0s
0r
1y
0c
0i
#262757951377
1t
0s
0r
1y
0c
0i
#262757952164
0t
0s
0r
1y
0c
0i
#262757953009
1t
0s
0r
1y
0c
0i
#262757953797
0t
0s
0r
1y
0c
0i
#262757954645
1t
0s
0r
1y
0c
0i
#262758165241
0t
0s
0r
1y
1c
0i
#262758166076
1t
0s
0r
1y
1c
0i
#262758166855
0t
0s
0r
1y
0c
0i
#262758167700
1t
0s
0r
1y
0c
0i
#262758168485
0t
0s
0r
1y
0c
1i
#262758169331
1t
0s
0r
1y
0c
1i
#262758170117
0t
0s
0r
1y
0c
1i
#262758170963
1t
0s
0r
1y
0c
0i
#262758171751
0t
0s
0r
1y
0c
0i
#262758172598
1t
0s
0r
1y
0c
0i
#262758173379
0t
0s
0r
1y
0c
0i
#262758174216
1t
0s
0r
1y
0c
0i
#262758174989
0t
0s
0r
1y
0c
0i
#262758175812
1t
0s
0r
1y
0c
0i
#262758176575
0t
0s
0r
1y
0c
0i
#262758177378
1t
0s
0r
1y
0c
0i
#262758178123
0t
0s
0r
1y
0c
0i
#262758178914
1t
0s
0r
1y
0c
0i
#267053132537
0t
0s
0r
1y
1c
0i
#267053133372
1t
0s
0r
1y
1c
0i
#267053134151
0t
0s
0r
1y
0c
0i
#267053134996
1t
0s
0r
1y
0c
0i
#267053135781
0t
0s
0r
1y
0c
1i
#267053136627
1t
0s
0r
1y
0c
1i
#267053137413
0t
0s
0r
1y
0c
1i
#267053138259
1t
0s
0r
1y
0c
0i
#267053139047
0t
0s
0r
1y
0c
0i
#267053139894
1t
0s
0r
1y
0c
0i
#267053140675
0t
0s
0r
1y
0c
0i
#267053141512
1t
0s
0r
1y
0c
0i
#267053142285
0t
0s
0r
1y
0c
0i
#267053143108
1t
0s
0r
1y
0c
0i
#267053143871
0t
0s
0r
1y
0c
0i
#267053144674
1t
0s
0r
1y
0c
0i
#267053145419
0t
0s
0r
1y
0c
0i
#267053146210
1t
0s
0r
1y
0c
0i
#267053146942
0t
0s
0r
1y
0c
0i
#267053147724
1t
0s
0r
1y
0c
0i
#267053148446
0t
0s
0r
1y
0c
0i
#267053149219
1t
0s
0r
1y
0c
0i
#267053149940
0t
0s
0r
1y
0c
0i
#267053150712
1t
0s
0r
1y
0c
0i
#267053151429
0t
0s
0r
1y
0c
0i
#267053152201
1t
0s
0r
1y
0c
0i
#267053152922
0t
0s
0r
1y
0c
0i
#267053153700
1t
0s
0r
1y
0c
0i
#267053154423
0t
0s
0r
1y
0c
0i
#267053155196
1t
0s
0r
1y
0c
0i
#267053155931
0t
0s
0r
1y
0c
0i
#267053156715
1t
0s
0r
1y
0c
0i
#267053157451
0t
0s
0r
1y
0c
0i
#267053158241
1t
0s
0r
1y
0c
0i
#267053158984
0t
0s
0r
1y
0c
0i
#267053159783
1t
0s
0r
1y
0c
0i
#267053160524
0t
0s
0r
1y
0c
0i
#267053161324
1t
0s
0r
1y
0c
0i
#267053162080
0t
0s
0r
1y
1c
0i
#267053162889
1t
0s
0r
1y
1c
0i
#267053163646
0t
0s
0r
1y
1c
0i
#267053164465
1t
0s
0r
1y
1c
0i
#267053165225
0t
0s
0r
1y
0c
0i
#267053166044
1t
0s
0r
1y
0c
0i
#267053166811
0t
0s
0r
1y
0c
1i
#267053167633
1t
0s
0r
1y
0c
1i
#267053168403
0t
0s
0r
1y
0c
1i
#267053169230
1t
0s
0r
1y
0c
1i
#267053169999
0t
0s
0r
1y
0c
0i
#267053170815
1t
0s
0r
1y
0c
0i
#267053171585
0t
0s
0r
1y
0c
0i
#267053172400
1t
0s
0r
1y
0c
0i
#267053173161
0t
0s
0r
1y
0c
0i
#267053173972
1t
0s
0r
1y
0c
0i
#267053174714
0t
0s
0r
1y
0c
0i
#267053175516
1t
0s
0r
1y
0c
0i
#267053176257
0t
0s
0r
1y
0c
0i
#267053177043
1t
0s
0r
1y
0c
0i
#267053177778
0t
0s
0r
1y
0c
0i
#267053178557
1t
0s
0r
1y
0c
0i
#267053179281
0t
0s
0r
1y
0c
0i
#267053180051
1t
0s
0r
1y
0c
0i
#267053180772
0t
0s
0r
1y
0c
0i
#267053181541
1t
0s
0r
1y
0c
0i
#267053182258
0t
0s
0r
1y
0c
0i
#267053183035
1t
0s
0r
1y
0c
0i
#267053183750
0t
0s
0r
1y
0c
0i
#267053184524
1t
0s
0r
1y
0c
0i
#267053185240
0t
0s
0r
1y
0c
0i
#267053186019
1t
0s
0r
1y
0c
0i
#267053186740
0t
0s
0r
1y
0c
0i
#267053187523
1t
0s
0r
1y
0c
0i
#267053188247
0t
0s
0r
1y
0c
0i
#267053189034
1t
0s
0r
1y
0c
0i
#267053189765
0t
0s
0r
1y
0c
0i
#267053190553
1t
0s
0r
1y
0c
0i
#267053191285
0t
0s
0r
1y
0c
0i
#267053192087
1t
0s
0r
1y
0c
0i
#267053192820
0t
0s
0r
1y
1c
0i
#267053193624
1t
0s
0r
1y
1c
0i
#267053194372
0t
0s
0r
1y
1c
0i
#267053195180
1t
0s
0r
1y
1c
0i
#267053195932
0t
0s
0r
1y
0c
0i
#267053196748
1t
0s
0r
1y
0c
0i
#267053197498
0t
0s
0r
1y
0c
1i
#267053198317
1t
0s
0r
1y
0c
1i
#267053199075
0t
0s
0r
1y
0c
1i
#267053199895
1t
0s
0r
1y
0c
0i
#267053200649
0t
0s
0r
1y
0c
0i
#267053201462
1t
0s
0r
1y
0c
0i
#267053202216
0t
0s
0r
1y
0c
0i
#267053203027
1t
0s
0r
1y
0c
0i
#267053203765
0t
0s
0r
1y
0c
0i
#267053204562
1t
0s
0r
1y
0c
0i
#267053207783
0t
0s
0r
1y
0c
0i
#267053209000
1t
0s
0r
1y
0c
0i
#267053209695
0t
0s
0r
1y
0c
0i
#267053210445
1t
0s
0r
1y
0c
0i
#267053211140
0t
0s
0r
1y
0c
0i
#267053211884
1t
0s
0r
1y
0c
0i
#267053212581
0t
0s
0r
1y
0c
0i
#267053213324
1t
0s
0r
1y
0c
0i
#267053214023
0t
0s
0r
1y
0c
0i
#267053214771
1t
0s
0r
1y
0c
0i
#267053215472
0t
0s
0r
1y
0c
0i
#267053216220
1t
0s
0r
1y
0c
0i
#267053216926
0t
0s
0r
1y
0c
0i
#267053217682
1t
0s
0r
1y
0c
0i
#267053218389
0t
0s
0r
1y
0c
0i
#267053219155
1t
0s
0r
1y
0c
0i
#267053219865
0t
0s
0r
1y
0c
0i
#267053220638
1t
0s
0r
1y
0c
0i
#267053221349
0t
0s
0r
1y
0c
0i
#267053222126
1t
0s
0r
1y
0c
0i
#267053222849
0t
0s
0r
1y
1c
0i
#267053223627
1t
0s
0r
1y
1c
0i
#267053224360
0t
0s
0r
1y
1c
0i
#267053225146
1t
0s
0r
1y
1c
0i
#267053225880
0t
0s
0r
1y
0c
0i
#267053226670
1t
0s
0r
1y
0c
0i
#267053227412
0t
0s
0r
1y
0c
1i
#267053228208
1t
0s
0r
1y
0c
1i
#267053228947
0t
0s
0r
1y
0c
1i
#267053229747
1t
0s
0r
1y
0c
1i
#267053230487
0t
0s
0r
1y
0c
0i
#267053231277
1t
0s
0r
1y
0c
0i
#267053232017
0t
0s
0r
1y
0c
0i
#267053232805
1t
0s
0r
1y
0c
0i
#267053233533
0t
0s
0r
1y
0c
0i
#267053234308
1t
0s
0r
1y
0c
0i
#267053235028
0t
0s
0r
1y
0c
0i
#267053235796
1t
0s
0r
1y
0c
0i
#267053236504
0t
0s
0r
1y
0c
0i
#267053237259
1t
0s
0r
1y
0c
0i
#267053237961
0t
0s
0r
1y
0c
0i
#267053238707
1t
0s
0r
1y
0c
0i
#267053239395
0t
0s
0r
1y
0c
0i
#267053240131
1t
0s
0r
1y
0c
0i
#267053240818
0t
0s
0r
1y
0c
0i
#267053241555
1t
0s
0r
1y
0c
0i
#267053242241
0t
0s
0r
1y
0c
0i
#267053242978
1t
0s
0r
1y
0c
0i
#267053243662
0t
0s
0r
1y
0c
0i
#267053244400
1t
0s
0r
1y
0c
0i
#267053245089
0t
0s
0r
1y
0c
0i
#267053245829
1t
0s
0r
1y
0c
0i
#267053246520
0t
0s
0r
1y
0c
0i
#267053247266
1t
0s
0r
1y
0c
0i
#267053247963
0t
0s
0r
1y
0c
0i
#267053248714
1t
0s
0r
1y
0c
0i
#267053249416
0t
0s
0r
1y
0c
0i
#267053250173
1t
0s
0r
1y
0c
0i
#267053250877
0t
0s
0r
1y
0c
0i
#267053251630
1t
0s
0r
1y
0c
0i
#267053252347
0t
0s
0r
1y
1c
0i
#267053253109
1t
0s
0r
1y
1c
0i
#267053253826
0t
0s
0r
1y
1c
0i
#267053254600
1t
0s
0r
1y
1c
0i
#267053255318
0t
0s
0r
1y
0c
0i
#267053256091
1t
0s
0r
1y
0c
0i
#267053256817
0t
0s
0r
1y
0c
1i
#267053257597
1t
0s
0r
1y
0c
1i
#267053258321
0t
0s
0r
1y
0c
1i
#267053259104
1t
0s
0r
1y
0c
0i
#267053259827
0t
0s
0r
1y
0c
0i
#267053260603
1t
0s
0r
1y
0c
0i
#267053261328
0t
0s
0r
1y
0c
0i
#267053262100
1t
0s
0r
1y
0c
0i
#267053262813
0t
0s
0r
1y
0c
0i
#267053263571
1t
0s
0r
1y
0c
0i
#267053264263
0t
0s
0r
1y
0c
0i
#267053265011
1t
0s
0r
1y
0c
0i
#267053265696
0t
0s
0r
1y
0c
0i
#267053266431
1t
0s
0r
1y
0c
0i
#267053267105
0t
0s
0r
1y
0c
0i
#267053267825
1t
0s
0r
1y
0c
0i
#267053267865
1t
1s
0r
1y
0c
0i
#267053267865
1t
0s
0r
1y
0c
0i
#267053268495
0t
0s
0r
1y
0c
0i
#267053269209
1t
0s
0r
1y
0c
0i
#267053269875
0t
0s
0r
1y
0c
0i
#267053270591
1t
0s
0r
1y
0c
0i
#267053271254
0t
0s
0r
1y
0c
0i
#267053271975
1t
0s
0r
1y
0c
0i
#267053272636
0t
0s
0r
1y
0c
0i
#267053273357
1t
0s
0r
1y
0c
0i
#267053274024
0t
0s
0r
1y
0c
0i
#267053274742
1t
0s
0r
1y
0c
0i
#267053275412
0t
0s
0r
1y
0c
0i
#267053276141
1t
0s
0r
1y
0c
0i
#267053276814
0t
0s
0r
1y
0c
0i
#267053277544
1t
0s
0r
1y
0c
0i
#267053278227
0t
0s
0r
1y
0c
0i
#267053278964
1t
0s
0r
1y
0c
0i
#267053279645
0t
0s
0r
1y
0c
0i
#267053280393
1t
0s
0r
1y
0c
0i
#267053281076
0t
0s
0r
1y
1c
0i
#267053281824
1t
0s
0r
1y
1c
0i
#267053282523
0t
0s
0r
1y
1c
0i
#267053283279
1t
0s
0r
1y
1c
0i
#267053283976
0t
0s
0r
1y
0c
0i
#267053284733
1t
0s
0r
1y
0c
0i
#267053285437
0t
0s
0r
1y
0c
1i
#267053286203
1t
0s
0r
1y
0c
1i
#267053286906
0t
0s
0r
1y
0c
1i
#267053287670
1t
0s
0r
1y
0c
1i
#267053288375
0t
0s
0r
1y
0c
0i
#267053289138
1t
0s
0r
1y
0c
0i
#267053289837
0t
0s
0r
1y
0c
0i
#267053290593
1t
0s
0r
1y
0c
0i
#267053291286
0t
0s
0r
1y
0c
0i
#267053291742
0t
0s
1r
1y
0c
0i
#267053291745
0t
0s
0r
1y
0c
0i
#267053292035
1t
0s
0r
1y
0c
0i
#267053295112
0t
0s
0r
1y
0c
0i
#267053296281
1t
0s
0r
1y
0c
0i
#267053296950
0t
0s
0r
1y
0c
0i
#267053297667
1t
0s
0r
1y
0c
0i
#267053298329
0t
0s
0r
1y
0c
0i
#267053299043
1t
0s
0r
1y
0c
0i
#267053299706
0t
0s
0r
1y
0c
0i
#267053300423
1t
0s
0r
1y
0c
0i
#267053301085
0t
0s
0r
1y
0c
0i
#267053301800
1t
0s
0r
1y
0c
0i
#267053302467
0t
0s
0r
1y
0c
0i
#267053303183
1t
0s
0r
1y
0c
0i
#267053303848
0t
0s
0r
1y
0c
0i
#267053304572
1t
0s
0r
1y
0c
0i
#267053305243
0t
0s
0r
1y
0c
0i
#267053305967
1t
0s
0r
1y
0c
0i
#267053306643
0t
0s
0r
1y
0c
0i
#267053307374
1t
0s
0r
1y
0c
0i
#267053308051
0t
0s
0r
1y
0c
0i
#267053308782
1t
0s
0r
1y
0c
0i
#267053309469
0t
0s
0r
1y
1c
0i
#267053310208
1t
0s
0r
1y
1c
0i
#267053310897
0t
0s
0r
1y
1c
0i
#267053311638
1t
0s
0r
1y
1c
0i
#267053312331
0t
0s
0r
1y
0c
0i
#267053313080
1t
0s
0r
1y
0c
0i
#267053313775
0t
0s
0r
1y
0c
1i
#267053314523
1t
0s
0r
1y
0c
1i
#267053315225
0t
0s
0r
1y
0c
1i
#267053315978
1t
0s
0r
1y
0c
0i
#267053316674
0t
0s
0r
1y
0c
0i
#267053317431
1t
0s
0r
1y
0c
0i
#267053318124
0t
0s
0r
1y
0c
0i
#267053318868
1t
0s
0r
1y
0c
0i
#267053319558
0t
0s
0r
1y
0c
0i
#267053320291
1t
0s
0r
1y
0c
0i
#267053320973
0t
0s
0r
1y
0c
0i
#267053321694
1t
0s
0r
1y
0c
0i
#267053322362
0t
0s
0r
1y
0c
0i
#267053323072
1t
0s
0r
1y
0c
0i
#267053323729
0t
0s
0r
1y
0c
0i
#267053324431
1t
0s
0r
1y
0c
0i
#267053325084
0t
0s
0r
1y
0c
0i
#267053325780
1t
0s
0r
1y
0c
0i
#267053326427
0t
0s
0r
1y
0c
0i
#267053327122
1t
0s
0r
1y
0c
0i
#267053327770
0t
0s
0r
1y
0c
0i
#267053328466
1t
0s
0r
1y
0c
0i
#267053329111
0t
0s
0r
1y
0c
0i
#267053329808
1t
0s
0r
1y
0c
0i
#267053330459
0t
0s
0r
1y
0c
0i
#267053331155
1t
0s
0r
1y
0c
0i
#267053331810
0t
0s
0r
1y
0c
0i
#267053332515
1t
0s
0r
1y
0c
0i
#267053333172
0t
0s
0r
1y
0c
0i
#267053333883
1t
0s
0r
1y
0c
0i
#267053334543
0t
0s
0r
1y
0c
0i
#267053335256
1t
0s
0r
1y
0c
0i
#267053335924
0t
0s
0r
1y
0c
0i
#267053336641
1t
0s
0r
1y
0c
0i
#267053337311
0t
0s
0r
1y
1c
0i
#267053338031
1t
0s
0r
1y
1c
0i
#267053338707
0t
0s
0r
1y
1c
0i
#267053339436
1t
0s
0r
1y
1c
0i
#267053340116
0t
0s
0r
1y
0c
0i
#267053340848
1t
0s
0r
1y
0c
0i
#267053341529
0t
0s
0r
1y
0c
1i
#267053342266
1t
0s
0r
1y
0c
1i
#267053342948
0t
0s
0r
1y
0c
1i
#267053343684
1t
0s
0r
1y
0c
1i
#267053344369
0t
0s
0r
1y
0c
0i
#267053345104
1t
0s
0r
1y
0c
0i
#267053345787
0t
0s
0r
1y
0c
0i
#267053346519
1t
0s
0r
1y
0c
0i
#267053347197
0t
0s
0r
1y
0c
0i
#267053347921
1t
0s
0r
1y
0c
0i
#267053348593
0t
0s
0r
1y
0c
0i
#267053349316
1t
0s
0r
1y
0c
0i
#267053349978
0t
0s
0r
1y
0c
0i
#267053350693
1t
0s
0r
1y
0c
0i
#267053351350
0t
0s
0r
1y
0c
0i
#267053352059
1t
0s
0r
1y
0c
0i
#267053352711
0t
0s
0r
1y
0c
0i
#267053353401
1t
0s
0r
1y
0c
0i
#267053354055
0t
0s
0r
1y
0c
0i
#267053354750
1t
0s
0r
1y
0c
0i
#267053355397
0t
0s
0r
1y
0c
0i
#267053356094
1t
0s
0r
1y
0c
0i
#267053356740
0t
0s
0r
1y
0c
0i
#267053357439
1t
0s
0r
1y
0c
0i
#267053358082
0t
0s
0r
1y
0c
0i
#267053358784
1t
0s
0r
1y
0c
0i
#267053359430
0t
0s
0r
1y
0c
0i
#267053360129
1t
0s
0r
1y
0c
0i
#267053360781
0t
0s
0r
1y
0c
0i
#267053361486
1t
0s
0r
1y
0c
0i
#267053362141
0t
0s
0r
1y
0c
0i
#267053362853
1t
0s
0r
1y
0c
0i
#267053363509
0t
0s
0r
1y
0c
0i
#267053364226
1t
0s
0r
1y
0c
0i
#267053364882
0t
0s
0r
1y
1c
0i
#267053365603
1t
0s
0r
1y
1c
0i
#267053366270
0t
0s
0r
1y
1c
0i
#267053366994
1t
0s
0r
1y
1c
0i
#267053367665
0t
0s
0r
1y
0c
0i
#267053368389
1t
0s
0r
1y
0c
0i
#267053369066
0t
0s
0r
1y
0c
1i
#267053369795
1t
0s
0r
1y
0c
1i
#267053370473
0t
0s
0r
1y
0c
1i
#267053371210
1t
0s
0r
1y
0c
0i
#267053371884
0t
0s
0r
1y
0c
0i
#267053372611
1t
0s
0r
1y
0c
0i
#267053373286
0t
0s
0r
1y
0c
0i
#267053374012
1t
0s
0r
1y
0c
0i
#267053374679
0t
0s
0r
1y
0c
0i
#267053375398
1t
0s
0r
1y
0c
0i
#267053378312
0t
0s
0r
1y
0c
0i
#267053379417
1t
0s
0r
1y
0c
0i
#267053380051
0t
0s
0r
1y
0c
0i
#267053380730
1t
0s
0r
1y
0c
0i
#267053381359
0t
0s
0r
1y
0c
0i
#267053382036
1t
0s
0r
1y
0c
0i
#267053382665
0t
0s
0r
1y
0c
0i
#267053383339
1t
0s
0r
1y
0c
0i
#267053383970
0t
0s
0r
1y
0c
0i
#267053384653
1t
0s
0r
1y
0c
0i
#267053385280
0t
0s
0r
1y
0c
0i
#267053385959
1t
0s
0r
1y
0c
0i
#267053386599
0t
0s
0r
1y
0c
0i
#267053387284
1t
0s
0r
1y
0c
0i
#267053387921
0t
0s
0r
1y
0c
0i
#267053388609
1t
0s
0r
1y
0c
0i
#267053389254
0t
0s
0r
1y
0c
0i
