rusefi_bundle_mega100/rusefi.snapshot.mega100/console/logs/rusEFI_trigger_log_2024-10-27_19_41_27_402.vcd
$date
	Sun Oct 27 19:41:27 CET 2024
$end
$version
        1.0
$end
$timescale
        1ps
$end
$scope module test $end
$var wire 1 t PRI_TRG $end
$var wire 1 s SEC_TRG $end
$var wire 1 r TRG $end
$var wire 1 y SYNC $end
$var wire 1 c COIL $end
$var wire 1 i INJ $end
$upscope $end
$enddefinitions $end
$dumpvars
#210296583
0t
0s
0r
0y
0c
0i
#210308078
1t
0s
0r
0y
0c
0i
#210313592
0t
0s
0r
0y
0c
0i
#210322368
1t
0s
0r
0y
0c
0i
#210327306
0t
0s
0r
0y
0c
0i
#210334712
1t
0s
0r
0y
0c
0i
#210339583
0t
0s
0r
0y
0c
0i
#210345944
1t
0s
0r
0y
0c
0i
#210350754
0t
0s
0r
0y
0c
0i
#210356510
1t
0s
0r
0y
0c
0i
#210361202
0t
0s
0r
0y
0c
0i
#210366546
1t
0s
0r
0y
0c
0i
#210371129
0t
0s
0r
0y
0c
0i
#210376236
1t
0s
0r
0y
0c
0i
#210380778
0t
0s
0r
0y
0c
0i
#210385692
1t
0s
0r
0y
0c
0i
#210390210
0t
0s
0r
0y
0c
0i
#210394977
1t
0s
0r
0y
0c
0i
#210399412
0t
0s
0r
0y
0c
0i
#210404122
1t
0s
0r
0y
0c
0i
#210408508
0t
0s
0r
0y
0c
0i
#210413113
1t
0s
0r
0y
0c
0i
#210417404
0t
0s
0r
0y
0c
0i
#210421961
1t
0s
0r
0y
0c
0i
#210426167
0t
0s
0r
0y
0c
0i
#210430566
1t
0s
0r
0y
0c
0i
#210434681
0t
0s
0r
0y
0c
0i
#210438957
1t
0s
0r
0y
0c
0i
#210442879
0t
0s
0r
0y
0c
0i
#210446983
1t
0s
0r
0y
0c
0i
#210450772
0t
0s
0r
0y
0c
0i
#210454740
1t
0s
0r
0y
0c
0i
#210458428
0t
0s
0r
0y
0c
0i
#210462268
1t
0s
0r
0y
0c
0i
#210465869
0t
0s
0r
0y
0c
0i
#210469622
1t
0s
0r
0y
0c
0i
#210473131
0t
0s
0r
0y
0c
0i
#210476779
1t
0s
0r
0y
0c
0i
#210480212
0t
0s
0r
0y
0c
0i
#210483799
1t
0s
0r
0y
0c
0i
#210487180
0t
0s
0r
0y
0c
0i
#210490732
1t
0s
0r
0y
0c
0i
#210494090
0t
0s
0r
0y
0c
0i
#210497634
1t
0s
0r
0y
0c
0i
#210500997
0t
0s
0r
0y
0c
0i
#210504523
1t
0s
0r
0y
0c
0i
#210507854
0t
0s
0r
0y
0c
0i
#210511402
1t
0s
0r
0y
0c
0i
#210514740
0t
0s
0r
0y
0c
0i
#210518296
1t
0s
0r
0y
0c
0i
#210521686
0t
0s
0r
0y
0c
0i
#210525285
1t
0s
0r
0y
0c
0i
#210528723
0t
0s
0r
0y
0c
0i
#210532385
1t
0s
0r
0y
0c
0i
#210535913
0t
0s
0r
0y
0c
0i
#210539609
1t
0s
0r
0y
0c
0i
#210543188
0t
0s
0r
0y
0c
0i
#210547001
1t
0s
0r
0y
0c
0i
#210550632
0t
0s
0r
0y
0c
0i
#210554508
1t
0s
0r
0y
0c
0i
#210558232
0t
0s
0r
0y
0c
0i
#210562191
1t
0s
0r
0y
0c
0i
#210565917
0t
0s
0r
0y
0c
0i
#210569859
1t
0s
0r
0y
0c
0i
#210573617
0t
0s
0r
0y
0c
0i
#210577500
1t
0s
0r
0y
0c
0i
#210581170
0t
0s
0r
0y
0c
0i
#210584962
1t
0s
0r
0y
0c
0i
#210588540
0t
0s
0r
0y
0c
0i
#210592231
1t
0s
0r
0y
0c
0i
#210595676
0t
0s
0r
0y
0c
0i
#210599216
1t
0s
0r
0y
0c
0i
#210602494
0t
0s
0r
0y
0c
0i
#210605894
1t
0s
0r
0y
0c
0i
#210609079
0t
0s
0r
0y
0c
0i
#210612404
1t
0s
0r
0y
0c
0i
#210615512
0t
0s
0r
0y
0c
0i
#210618770
1t
0s
0r
0y
0c
0i
#210621843
0t
0s
0r
0y
0c
0i
#210625069
1t
0s
0r
0y
0c
0i
#210628183
0t
0s
0r
0y
0c
0i
#210631502
1t
0s
0r
0y
0c
0i
#210634710
0t
0s
0r
0y
0c
0i
#210638171
1t
0s
0r
0y
0c
0i
#210641242
0t
0s
0r
0y
0c
0i
#210644302
1t
0s
0r
0y
0c
0i
#210647270
0t
0s
0r
0y
0c
0i
#210650487
1t
0s
0r
0y
0c
0i
#210653527
0t
0s
0r
0y
0c
0i
#210656693
1t
0s
0r
0y
0c
0i
#210659753
0t
0s
0r
0y
0c
0i
#210663002
1t
0s
0r
0y
0c
0i
#210666120
0t
0s
0r
0y
0c
0i
#210669444
1t
0s
0r
0y
0c
0i
#210672586
0t
0s
0r
0y
0c
0i
#210675981
1t
0s
0r
0y
0c
0i
#210679183
0t
0s
0r
0y
0c
0i
#210682639
1t
0s
0r
0y
0c
0i
#210685937
0t
0s
0r
0y
0c
0i
#210689502
1t
0s
0r
0y
0c
0i
#210692890
0t
0s
0r
0y
0c
0i
#210696509
1t
0s
0r
0y
0c
0i
#210699962
0t
0s
0r
0y
0c
0i
#210703620
1t
0s
0r
0y
0c
0i
#210707048
0t
0s
0r
0y
0c
0i
#210710671
1t
0s
0r
0y
0c
0i
#210714037
0t
0s
0r
0y
0c
0i
#210717548
1t
0s
0r
0y
0c
0i
#210720815
0t
0s
0r
0y
0c
0i
#210724159
1t
0s
0r
0y
0c
0i
#210727204
0t
0s
0r
0y
0c
0i
#210730317
1t
0s
0r
0y
0c
0i
#210735325
0t
0s
0r
0y
0c
0i
#210746645
1t
0s
0r
0y
0c
0i
#210749190
0t
0s
0r
1y
0c
0i
#210751776
1t
0s
0r
1y
0c
0i
#210754253
0t
0s
0r
1y
0c
0i
#210756836
1t
0s
0r
1y
0c
0i
#210759312
0t
0s
0r
1y
0c
0i
#210761912
1t
0s
0r
1y
0c
0i
#210764447
0t
0s
0r
1y
0c
0i
#210767143
1t
0s
0r
1y
0c
0i
#210769750
0t
0s
0r
1y
0c
0i
#210772573
1t
0s
0r
1y
0c
0i
#210775331
0t
0s
0r
1y
0c
0i
#210778376
1t
0s
0r
1y
0c
0i
#210781371
0t
0s
0r
1y
0c
0i
#210784759
1t
0s
0r
1y
0c
0i
#210788067
0t
0s
0r
1y
0c
0i
#210791510
1t
0s
0r
1y
0c
0i
#210794199
0t
0s
0r
1y
0c
0i
#210796963
1t
0s
0r
1y
0c
0i
#210799856
0t
0s
0r
1y
0c
0i
#210803099
1t
0s
0r
1y
0c
0i
#210806052
0t
0s
0r
1y
1c
0i
#210809097
1t
0s
0r
1y
1c
0i
#210812064
0t
0s
0r
1y
0c
1i
#210815277
1t
0s
0r
1y
0c
1i
#210818319
0t
0s
0r
1y
0c
1i
#210821508
1t
0s
0r
1y
0c
1i
#210824508
0t
0s
0r
1y
0c
1i
#210827691
1t
0s
0r
1y
0c
1i
#210830675
0t
0s
0r
1y
0c
1i
#210833802
1t
0s
0r
1y
0c
1i
#210836697
0t
0s
0r
1y
0c
1i
#210839679
1t
0s
0r
1y
0c
1i
#210842408
0t
0s
0r
1y
0c
1i
#210845197
1t
0s
0r
1y
0c
1i
#210847769
0t
0s
0r
1y
0c
0i
#210850415
1t
0s
0r
1y
0c
0i
#210852868
0t
0s
0r
1y
0c
0i
#210855443
1t
0s
0r
1y
0c
0i
#210857838
0t
0s
0r
1y
0c
0i
#210860376
1t
0s
0r
1y
0c
0i
#210862764
0t
0s
0r
1y
0c
0i
#210865324
1t
0s
0r
1y
0c
0i
#210867754
0t
0s
0r
1y
0c
0i
#210870364
1t
0s
0r
1y
0c
0i
#210872834
0t
0s
0r
1y
0c
0i
#210875500
1t
0s
0r
1y
0c
0i
#210878054
0t
0s
0r
1y
0c
0i
#210880836
1t
0s
0r
1y
0c
0i
#210883547
0t
0s
0r
1y
0c
0i
#210886513
1t
0s
0r
1y
0c
0i
#210889425
0t
0s
0r
1y
0c
0i
#210892632
1t
0s
0r
1y
0c
0i
#210895680
0t
0s
0r
1y
0c
0i
#210898687
1t
0s
0r
1y
0c
0i
#210901238
0t
0s
0r
1y
0c
0i
#210903967
1t
0s
0r
1y
0c
0i
#210906757
0t
0s
0r
1y
0c
0i
#210909812
1t
0s
0r
1y
0c
0i
#210912622
0t
0s
0r
1y
0c
0i
#210915514
1t
0s
0r
1y
0c
0i
#210918340
0t
0s
0r
1y
1c
0i
#210921449
1t
0s
0r
1y
1c
0i
#210924361
0t
0s
0r
1y
0c
1i
#210927429
1t
0s
0r
1y
0c
1i
#210930343
0t
0s
0r
1y
0c
1i
#210933450
1t
0s
0r
1y
0c
1i
#210936388
0t
0s
0r
1y
0c
1i
#210939491
1t
0s
0r
1y
0c
1i
#210942407
0t
0s
0r
1y
0c
1i
#210945441
1t
0s
0r
1y
0c
1i
#210948284
0t
0s
0r
1y
0c
1i
#210951197
1t
0s
0r
1y
0c
1i
#210953871
0t
0s
0r
1y
0c
1i
#210956620
1t
0s
0r
1y
0c
1i
#210959134
0t
0s
0r
1y
0c
0i
#210961745
1t
0s
0r
1y
0c
0i
#210964157
0t
0s
0r
1y
0c
0i
#210966659
1t
0s
0r
1y
0c
0i
#210969010
0t
0s
0r
1y
0c
0i
#210971471
1t
0s
0r
1y
0c
0i
#210972053
1t
1s
0r
1y
0c
0i
#210972053
1t
0s
0r
1y
0c
0i
#210973794
0t
0s
0r
1y
0c
0i
#210976251
1t
0s
0r
1y
0c
0i
#210978612
0t
0s
0r
1y
0c
0i
#210981133
1t
0s
0r
1y
0c
0i
#210983529
0t
0s
0r
1y
0c
0i
#210986116
1t
0s
0r
1y
0c
0i
#210988585
0t
0s
0r
1y
0c
0i
#210991259
1t
0s
0r
1y
0c
0i
#210993839
0t
0s
0r
1y
0c
0i
#210996664
1t
0s
0r
1y
0c
0i
#210999418
0t
0s
0r
1y
0c
0i
#211002460
1t
0s
0r
1y
0c
0i
#211005440
0t
0s
0r
1y
0c
0i
#211008631
1t
0s
0r
1y
0c
0i
#211011300
0t
0s
0r
1y
0c
0i
#211013927
1t
0s
0r
1y
0c
0i
#211016540
0t
0s
0r
1y
0c
0i
#211019508
1t
0s
0r
1y
0c
0i
#211022299
0t
0s
0r
1y
0c
0i
#211025182
1t
0s
0r
1y
0c
0i
#211027910
0t
0s
0r
1y
1c
0i
#211030880
1t
0s
0r
1y
1c
0i
#211033721
0t
0s
0r
1y
0c
1i
#211036746
1t
0s
0r
1y
0c
1i
#211039595
0t
0s
0r
1y
0c
1i
#211042633
1t
0s
0r
1y
0c
1i
#211045500
0t
0s
0r
1y
0c
1i
#211048558
1t
0s
0r
1y
0c
1i
#211051394
0t
0s
0r
1y
0c
1i
#211054324
1t
0s
0r
1y
0c
1i
#211056958
0t
0s
0r
1y
0c
1i
#211059520
1t
0s
0r
1y
0c
1i
#211061659
0t
0s
0r
1y
0c
1i
#211063659
1t
0s
0r
1y
0c
1i
#211070203
0t
0s
0r
1y
0c
0i
#211072189
1t
0s
0r
1y
0c
0i
#211073338
0t
0s
0r
0y
0c
0i
#211074530
1t
0s
0r
0y
0c
0i
#211075631
0t
0s
0r
0y
0c
0i
#211076788
1t
0s
0r
0y
0c
0i
#211077881
0t
0s
0r
0y
0c
0i
#211079034
1t
0s
0r
0y
0c
0i
#211080136
0t
0s
0r
0y
0c
0i
#211081312
1t
0s
0r
0y
0c
0i
#211082433
0t
0s
0r
0y
0c
0i
#211083647
1t
0s
0r
0y
0c
0i
#211084795
0t
0s
0r
0y
0c
0i
#211086047
1t
0s
0r
0y
0c
0i
#211087232
0t
0s
0r
0y
0c
0i
#211088516
1t
0s
0r
0y
0c
0i
#211089724
0t
0s
0r
0y
0c
0i
#211091043
1t
0s
0r
0y
0c
0i
#211092285
0t
0s
0r
0y
0c
0i
#211093639
1t
0s
0r
0y
0c
0i
#211094910
0t
0s
0r
0y
0c
0i
#211096294
1t
0s
0r
0y
0c
0i
#211097604
0t
0s
0r
0y
0c
0i
#211099029
1t
0s
0r
0y
0c
0i
#211100363
0t
0s
0r
0y
0c
0i
#211101809
1t
0s
0r
0y
0c
0i
#211103168
0t
0s
0r
0y
0c
0i
#211104617
1t
0s
0r
0y
0c
0i
#211105965
0t
0s
0r
0y
0c
0i
#211107402
1t
0s
0r
0y
0c
0i
#211108716
0t
0s
0r
0y
0c
0i
#211110099
1t
0s
0r
0y
0c
0i
#211111368
0t
0s
0r
0y
0c
0i
#211112700
1t
0s
0r
0y
0c
0i
#211113912
0t
0s
0r
0y
0c
0i
#211115181
1t
0s
0r
0y
0c
0i
#211116350
0t
0s
0r
0y
0c
0i
#211117579
1t
0s
0r
0y
0c
0i
#211118706
0t
0s
0r
0y
0c
0i
#211119904
1t
0s
0r
0y
0c
0i
#211121005
0t
0s
0r
0y
0c
0i
#211122177
1t
0s
0r
0y
0c
0i
#211123272
0t
0s
0r
0y
0c
0i
#211124435
1t
0s
0r
0y
0c
0i
#211125518
0t
0s
0r
0y
0c
0i
#211126679
1t
0s
0r
0y
0c
0i
#211127768
0t
0s
0r
0y
0c
0i
#211128930
1t
0s
0r
0y
0c
0i
#211130027
0t
0s
0r
0y
0c
0i
#211131205
1t
0s
0r
0y
0c
0i
#211132306
0t
0s
0r
0y
0c
0i
#211133497
1t
0s
0r
0y
0c
0i
#211134621
0t
0s
0r
0y
0c
0i
#211135831
1t
0s
0r
0y
0c
0i
#211136976
0t
0s
0r
0y
0c
0i
#211138218
1t
0s
0r
0y
0c
0i
#211139389
0t
0s
0r
0y
0c
0i
#211140666
1t
0s
0r
0y
0c
0i
#211141876
0t
0s
0r
0y
0c
0i
#211143191
1t
0s
0r
0y
0c
0i
#211144453
0t
0s
0r
0y
0c
0i
#211145827
1t
0s
0r
0y
0c
0i
#211147135
0t
0s
0r
0y
0c
0i
#211148567
1t
0s
0r
0y
0c
0i
#211149917
0t
0s
0r
0y
0c
0i
#211151381
1t
0s
0r
0y
0c
0i
#211152763
0t
0s
0r
0y
0c
0i
#211154249
1t
0s
0r
0y
0c
0i
#211155622
0t
0s
0r
0y
0c
0i
#211157080
1t
0s
0r
0y
0c
0i
#211158445
0t
0s
0r
0y
0c
0i
#211159873
1t
0s
0r
0y
0c
0i
#211161199
0t
0s
0r
0y
0c
0i
#211162588
1t
0s
0r
0y
0c
0i
#211163885
0t
0s
0r
0y
0c
0i
#211165250
1t
0s
0r
0y
0c
0i
#211166510
0t
0s
0r
0y
0c
0i
#211167853
1t
0s
0r
0y
0c
0i
#211169106
0t
0s
0r
0y
0c
0i
#211170440
1t
0s
0r
0y
0c
0i
#211171690
0t
0s
0r
0y
0c
0i
#211173021
1t
0s
0r
0y
0c
0i
#211174269
0t
0s
0r
0y
0c
0i
#211175594
1t
0s
0r
0y
0c
0i
#211176850
0t
0s
0r
0y
0c
0i
#211178191
1t
0s
0r
0y
0c
0i
#211179453
0t
0s
0r
0y
0c
0i
#211180821
1t
0s
0r
0y
0c
0i
#211182097
0t
0s
0r
0y
0c
0i
#211183483
1t
0s
0r
0y
0c
0i
#211184784
0t
0s
0r
0y
0c
0i
#211186201
1t
0s
0r
0y
0c
0i
#211187536
0t
0s
0r
0y
0c
0i
#211188988
1t
0s
0r
0y
0c
0i
#211190365
0t
0s
0r
0y
0c
0i
#211191871
1t
0s
0r
0y
0c
0i
#211193305
0t
0s
0r
0y
0c
0i
#211194881
1t
0s
0r
0y
0c
0i
#211196392
0t
0s
0r
0y
0c
0i
#211198067
1t
0s
0r
0y
0c
0i
#211199664
0t
0s
0r
0y
0c
0i
#211201449
1t
0s
0r
0y
0c
0i
#211203159
0t
0s
0r
0y
0c
0i
#211205039
1t
0s
0r
0y
0c
0i
#211206831
0t
0s
0r
0y
0c
0i
#211208775
1t
0s
0r
0y
0c
0i
#211210617
0t
0s
0r
0y
0c
0i
#211212603
1t
0s
0r
0y
0c
0i
#211214445
0t
0s
0r
0y
0c
0i
#211216408
1t
0s
0r
0y
0c
0i
#211218214
0t
0s
0r
0y
0c
0i
#211220135
1t
0s
0r
0y
0c
0i
#211221895
0t
0s
0r
0y
0c
0i
#211223756
1t
0s
0r
0y
0c
0i
#211225461
0t
0s
0r
0y
0c
0i
#211227275
1t
0s
0r
0y
0c
0i
#211234508
0t
0s
0r
0y
0c
0i
#211237325
1t
0s
0r
0y
0c
0i
#211238916
0t
0s
0r
1y
0c
0i
#211240588
1t
0s
0r
1y
0c
0i
#211242172
0t
0s
0r
1y
0c
0i
#211243859
1t
0s
0r
1y
0c
0i
#211245461
0t
0s
0r
1y
0c
0i
#211247177
1t
0s
0r
1y
0c
0i
#211248816
0t
0s
0r
1y
0c
0i
#211250583
1t
0s
0r
1y
0c
0i
#211252277
0t
0s
0r
1y
0c
0i
#211254112
1t
0s
0r
1y
0c
0i
#211255880
0t
0s
0r
1y
0c
0i
#211257795
1t
0s
0r
1y
0c
0i
#211259637
0t
0s
0r
1y
0c
0i
#211261661
1t
0s
0r
1y
0c
0i
#211263603
0t
0s
0r
1y
0c
0i
#211265762
1t
0s
0r
1y
0c
0i
#211267870
0t
0s
0r
1y
0c
0i
#211270241
1t
0s
0r
1y
0c
0i
#211272580
0t
0s
0r
1y
0c
0i
#211275242
1t
0s
0r
1y
0c
0i
#211277819
0t
0s
0r
1y
0c
0i
#211280526
1t
0s
0r
1y
0c
0i
#211282986
0t
0s
0r
1y
0c
0i
#211285230
1t
0s
0r
1y
0c
0i
#211287223
0t
0s
0r
1y
0c
0i
#211289424
1t
0s
0r
1y
0c
0i
#211291575
0t
0s
0r
1y
0c
0i
#211293990
1t
0s
0r
1y
0c
0i
#211296257
0t
0s
0r
1y
0c
0i
#211298652
1t
0s
0r
1y
0c
0i
#211300808
0t
0s
0r
1y
0c
0i
#211303071
1t
0s
0r
1y
0c
0i
#211305134
0t
0s
0r
1y
0c
0i
#211307292
1t
0s
0r
1y
0c
0i
#211309282
0t
0s
0r
1y
0c
0i
#211311373
1t
0s
0r
1y
0c
0i
#211313303
0t
0s
0r
1y
0c
0i
#211315357
1t
0s
0r
1y
0c
0i
#211317269
0t
0s
0r
1y
0c
0i
#211319303
1t
0s
0r
1y
0c
0i
#211321213
0t
0s
0r
1y
0c
0i
#211323252
1t
0s
0r
1y
0c
0i
#211325164
0t
0s
0r
1y
0c
0i
#211327219
1t
0s
0r
1y
0c
0i
#211329161
0t
0s
0r
1y
0c
0i
#211331257
1t
0s
0r
1y
0c
0i
#211333252
0t
0s
0r
1y
0c
0i
#211335410
1t
0s
0r
1y
0c
0i
#211337489
0t
0s
0r
1y
0c
0i
#211339753
1t
0s
0r
1y
0c
0i
#211341928
0t
0s
0r
1y
0c
0i
#211344338
1t
0s
0r
1y
0c
0i
#211346692
0t
0s
0r
1y
0c
0i
#211349324
1t
0s
0r
1y
0c
0i
#211351845
0t
0s
0r
1y
0c
0i
#211354540
1t
0s
0r
1y
0c
0i
#211356905
0t
0s
0r
1y
0c
0i
#211359185
1t
0s
0r
1y
0c
0i
#211361298
0t
0s
0r
1y
0c
0i
#211363631
1t
0s
0r
1y
0c
0i
#211365971
0t
0s
0r
1y
1c
0i
#211368533
1t
0s
0r
1y
1c
0i
#211370879
0t
0s
0r
1y
0c
1i
#211373285
1t
0s
0r
1y
0c
1i
#211375577
0t
0s
0r
1y
0c
1i
#211378069
1t
0s
0r
1y
0c
1i
#211380448
0t
0s
0r
1y
0c
1i
#211382999
1t
0s
0r
1y
0c
1i
#211385374
0t
0s
0r
1y
0c
1i
#211387860
1t
0s
0r
1y
0c
1i
#211390207
0t
0s
0r
1y
0c
1i
#211392646
1t
0s
0r
1y
0c
0i
#211394927
0t
0s
0r
1y
0c
0i
#211397291
1t
0s
0r
1y
0c
0i
#211399464
0t
0s
0r
1y
0c
0i
#211401727
1t
0s
0r
1y
0c
0i
#211403825
0t
0s
0r
1y
0c
0i
#211406017
1t
0s
0r
1y
0c
0i
#211408055
0t
0s
0r
1y
0c
0i
#211410201
1t
0s
0r
1y
0c
0i
#211410651
1t
1s
0r
1y
0c
0i
#211410651
1t
0s
0r
1y
0c
0i
#211412218
0t
0s
0r
1y
0c
0i
#211414348
1t
0s
0r
1y
0c
0i
#211416378
0t
0s
0r
1y
0c
0i
#211418567
1t
0s
0r
1y
0c
0i
#211420634
0t
0s
0r
1y
0c
0i
#211422890
1t
0s
0r
1y
0c
0i
#211425032
0t
0s
0r
1y
0c
0i
#211427351
1t
0s
0r
1y
0c
0i
#211429569
0t
0s
0r
1y
0c
0i
#211431984
1t
0s
0r
1y
0c
0i
#211434318
0t
0s
0r
1y
0c
0i
#211436892
1t
0s
0r
1y
0c
0i
#211439414
0t
0s
0r
1y
0c
0i
#211442202
1t
0s
0r
1y
0c
0i
#211444785
0t
0s
0r
1y
0c
0i
#211447342
1t
0s
0r
1y
0c
0i
#211449543
0t
0s
0r
1y
0c
0i
#211451920
1t
0s
0r
1y
0c
0i
#211454284
0t
0s
0r
1y
0c
0i
#211456940
1t
0s
0r
1y
0c
0i
#211459414
0t
0s
0r
1y
1c
0i
#211461950
1t
0s
0r
1y
1c
0i
#211464321
0t
0s
0r
1y
0c
1i
#211466902
1t
0s
0r
1y
0c
1i
#211469399
0t
0s
0r
1y
0c
1i
#211472086
1t
0s
0r
1y
0c
1i
#211474565
0t
0s
0r
1y
0c
1i
#211477209
1t
0s
0r
1y
0c
1i
#211477454
1t
0s
1r
1y
0c
1i
#211477457
1t
0s
0r
1y
0c
1i
#211479669
0t
0s
0r
1y
0c
1i
#211482282
1t
0s
0r
1y
0c
1i
#211484710
0t
0s
0r
1y
0c
1i
#211487260
1t
0s
0r
1y
0c
0i
#211489617
0t
0s
0r
1y
0c
0i
#211492064
1t
0s
0r
1y
0c
0i
#211496629
0t
0s
0r
1y
0c
0i
#211505289
1t
0s
0r
1y
0c
0i
#211507392
0t
0s
0r
1y
0c
0i
#211509579
1t
0s
0r
1y
0c
0i
#211511688
0t
0s
0r
1y
0c
0i
#211513905
1t
0s
0r
1y
0c
0i
#211516054
0t
0s
0r
1y
0c
0i
#211518336
1t
0s
0r
1y
0c
0i
#211520536
0t
0s
0r
1y
0c
0i
#211522877
1t
0s
0r
1y
0c
0i
#211525157
0t
0s
0r
1y
0c
0i
#211527624
1t
0s
0r
1y
0c
0i
#211530021
0t
0s
0r
1y
0c
0i
#211532678
1t
0s
0r
1y
0c
0i
#211535288
0t
0s
0r
1y
0c
0i
#211538191
1t
0s
0r
1y
0c
0i
#211540945
0t
0s
0r
1y
0c
0i
#211543763
1t
0s
0r
1y
0c
0i
#211546092
0t
0s
0r
1y
0c
0i
#211548515
1t
0s
0r
1y
0c
0i
#211550944
0t
0s
0r
1y
0c
0i
#211553692
1t
0s
0r
1y
0c
0i
#211556306
0t
0s
0r
1y
1c
0i
#211558935
1t
0s
0r
1y
1c
0i
#211561411
0t
0s
0r
1y
0c
1i
#211564138
1t
0s
0r
1y
0c
1i
#211566784
0t
0s
0r
1y
0c
1i
#211569604
1t
0s
0r
1y
0c
1i
#211572222
0t
0s
0r
1y
0c
1i
#211574997
1t
0s
0r
1y
0c
1i
#211577556
0t
0s
0r
1y
0c
1i
#211580152
1t
0s
0r
1y
0c
1i
#211582371
0t
0s
0r
1y
0c
1i
#211584459
1t
0s
0r
1y
0c
0i
#211586203
0t
0s
0r
1y
0c
0i
#211587860
1t
0s
0r
1y
0c
0i
#211589301
0t
0s
0r
1y
0c
0i
#211590703
1t
0s
0r
1y
0c
0i
#211591954
0t
0s
0r
1y
0c
0i
#211593219
1t
0s
0r
1y
0c
0i
#211594375
0t
0s
0r
1y
0c
0i
#211595556
1t
0s
0r
1y
0c
0i
#211596659
0t
0s
0r
1y
0c
0i
#211597803
1t
0s
0r
1y
0c
0i
#211598874
0t
0s
0r
1y
0c
0i
#211599997
1t
0s
0r
1y
0c
0i
#211601064
0t
0s
0r
1y
0c
0i
#211602198
1t
0s
0r
1y
0c
0i
#211603280
0t
0s
0r
1y
0c
0i
#211604440
1t
0s
0r
1y
0c
0i
#211605546
0t
0s
0r
1y
0c
0i
#211606735
1t
0s
0r
1y
0c
0i
#211607874
0t
0s
0r
1y
0c
0i
#211609102
1t
0s
0r
1y
0c
0i
#211610279
0t
0s
0r
1y
0c
0i
#211611540
1t
0s
0r
1y
0c
0i
#211612750
0t
0s
0r
1y
0c
0i
#211614057
1t
0s
0r
1y
0c
0i
#211615300
0t
0s
0r
1y
0c
0i
#211616646
1t
0s
0r
1y
0c
0i
#211617933
0t
0s
0r
1y
0c
0i
#211619330
1t
0s
0r
1y
0c
0i
#211620658
0t
0s
0r
1y
1c
0i
#211622104
1t
0s
0r
1y
1c
0i
#211623475
0t
0s
0r
1y
0c
1i
#211624964
1t
0s
0r
1y
0c
1i
#211626358
0t
0s
0r
1y
0c
1i
#211627858
1t
0s
0r
1y
0c
1i
#211629263
0t
0s
0r
1y
0c
1i
#211630758
1t
0s
0r
1y
0c
1i
#211632138
0t
0s
0r
1y
0c
1i
#211633563
1t
0s
0r
1y
0c
1i
#211634832
0t
0s
0r
1y
0c
1i
#211636095
1t
0s
0r
1y
0c
1i
#211637206
0t
0s
0r
1y
0c
1i
#211638313
1t
0s
0r
1y
0c
1i
#211639297
0t
0s
0r
1y
0c
1i
#211640296
1t
0s
0r
1y
0c
1i
#211641192
0t
0s
0r
1y
0c
1i
#211642109
1t
0s
0r
1y
0c
1i
#211642945
0t
0s
0r
1y
0c
1i
#211643796
1t
0s
0r
1y
0c
1i
#211644588
0t
0s
0r
1y
0c
1i
#211645399
1t
0s
0r
1y
0c
0i
#211646154
0t
0s
0r
1y
0c
0i
#211646946
1t
0s
0r
1y
0c
0i
#211647688
0t
0s
0r
1y
0c
0i
#211648471
1t
0s
0r
1y
0c
0i
#211649203
0t
0s
0r
1y
0c
0i
#211649983
1t
0s
0r
1y
0c
0i
#211650714
0t
0s
0r
1y
0c
0i
#211651502
1t
0s
0r
1y
0c
0i
#211652244
0t
0s
0r
1y
0c
0i
#211653038
1t
0s
0r
1y
0c
0i
#211653793
0t
0s
0r
1y
0c
0i
#211654609
1t
0s
0r
1y
0c
0i
#211655387
0t
0s
0r
1y
0c
0i
#211656230
1t
0s
0r
1y
0c
0i
#211657031
0t
0s
0r
1y
0c
0i
#211657906
1t
0s
0r
1y
0c
0i
#211658733
0t
0s
0r
1y
0c
0i
#211659640
1t
0s
0r
1y
0c
0i
#211660498
0t
0s
0r
1y
1c
0i
#211661437
1t
0s
0r
1y
1c
0i
#211662320
0t
0s
0r
1y
0c
1i
#211663283
1t
0s
0r
1y
0c
1i
#211664193
0t
0s
0r
1y
0c
1i
#211665178
1t
0s
0r
1y
0c
1i
#211666101
0t
0s
0r
1y
0c
1i
#211667097
1t
0s
0r
1y
0c
1i
#211668020
0t
0s
0r
1y
0c
1i
#211669009
1t
0s
0r
1y
0c
1i
#211669923
0t
0s
0r
1y
0c
1i
#211670896
1t
0s
0r
1y
0c
1i
#211671789
0t
0s
0r
1y
0c
1i
#211672744
1t
0s
0r
1y
0c
1i
#211676620
0t
0s
0r
1y
0c
1i
#211678046
1t
0s
0r
1y
0c
1i
#211678875
0t
0s
0r
1y
0c
1i
#211679758
1t
0s
0r
1y
0c
1i
#211680577
0t
0s
0r
1y
0c
1i
#211681455
1t
0s
0r
1y
0c
1i
#211682270
0t
0s
0r
1y
0c
1i
#211683148
1t
0s
0r
1y
0c
1i
#211683969
0t
0s
0r
1y
0c
1i
#211684849
1t
0s
0r
1y
0c
1i
#211685672
0t
0s
0r
1y
0c
1i
#211686560
1t
0s
0r
1y
0c
0i
#211687393
0t
0s
0r
1y
0c
0i
#211688289
1t
0s
0r
1y
0c
0i
#211689131
0t
0s
0r
1y
0c
0i
#211690041
1t
0s
0r
1y
0c
0i
#211690893
0t
0s
0r
1y
0c
0i
#211691820
1t
0s
0r
1y
0c
0i
#211692682
0t
0s
0r
1y
0c
0i
#211693622
1t
0s
0r
1y
0c
0i
#211694506
0t
0s
0r
1y
0c
0i
#211695465
1t
0s
0r
1y
0c
0i
#211696371
0t
0s
0r
1y
1c
0i
#211697352
1t
0s
0r
1y
1c
0i
#211698273
0t
0s
0r
1y
0c
1i
#211699268
1t
0s
0r
1y
0c
1i
#211700216
0t
0s
0r
1y
0c
1i
#211701238
1t
0s
0r
1y
0c
1i
#211702191
0t
0s
0r
1y
0c
1i
#211703221
1t
0s
0r
1y
0c
1i
#211704180
0t
0s
0r
1y
0c
1i
#211705208
1t
0s
0r
1y
0c
1i
#211706158
0t
0s
0r
1y
0c
1i
#211707163
1t
0s
0r
1y
0c
1i
#211708093
0t
0s
0r
1y
0c
1i
#211709074
1t
0s
0r
1y
0c
1i
#211709977
0t
0s
0r
1y
0c
1i
#211710933
1t
0s
0r
1y
0c
1i
#211711814
0t
0s
0r
1y
0c
1i
#211712753
1t
0s
0r
1y
0c
1i
#211713622
0t
0s
0r
1y
0c
1i
#211714550
1t
0s
0r
1y
0c
1i
#211715412
0t
0s
0r
1y
0c
1i
#211716337
1t
0s
0r
1y
0c
1i
#211717196
0t
0s
0r
1y
0c
1i
#211718122
1t
0s
0r
1y
0c
1i
#211718989
0t
0s
0r
1y
0c
0i
#211719920
1t
0s
0r
1y
0c
0i
#211720797
0t
0s
0r
1y
0c
0i
#211721740
1t
0s
0r
1y
0c
0i
#211722628
0t
0s
0r
1y
0c
0i
#211723581
1t
0s
0r
1y
0c
0i
#211724481
0t
0s
0r
1y
0c
0i
#211725451
1t
0s
0r
1y
0c
0i
#211726362
0t
0s
0r
1y
0c
0i
#211727345
1t
0s
0r
1y
0c
0i
#211728271
0t
0s
0r
1y
0c
0i
#211729270
1t
0s
0r
1y
0c
0i
#211730214
0t
0s
0r
1y
0c
0i
